gr5a/Nikolaieva_Yelyzaveta/Lab 4/RLC/28-2kHz_step_2kHz/ALL0003/F0003CH1.CSV

Record Length,2.500000e+03,,  -0.000055200000,  -0.25600,
Sample Interval,4.000000e-08,,  -0.000055160000,  -0.25600,
Trigger Point,1.380000000000e+03,,  -0.000055120000,  -0.25600,
,,,  -0.000055080000,  -0.25600,
,,,  -0.000055040000,  -0.25600,
,,,  -0.000055000000,  -0.25600,
Source,CH1,,  -0.000054960000,  -0.25600,
Vertical Units,V,,  -0.000054920000,  -0.25600,
Vertical Scale,5.000000e-02,,  -0.000054880000,  -0.25600,
Vertical Offset,2.000000e-03,,  -0.000054840000,  -0.25600,
Horizontal Units,s,,  -0.000054800000,  -0.25600,
Horizontal Scale,1.000000e-05,,  -0.000054760000,  -0.25600,
Pt Fmt,Y,,  -0.000054720000,  -0.25600,
Yzero,0.000000e+00,,  -0.000054680000,  -0.25600,
Probe Atten,1.000000e+00,,  -0.000054640000,  -0.25600,
Model Number,TDS2024C,,  -0.000054600000,  -0.25600,
Serial Number,C013728,,  -0.000054560000,  -0.25600,
Firmware Version,FV:v24.15,,  -0.000054520000,  -0.25600,
,,,-00.000054480000,  -0.25600,
,,,-00.000054440000,  -0.25600,
,,,-00.000054400000,  -0.25600,
,,,-00.000054360000,  -0.25600,
,,,-00.000054320000,  -0.25600,
,,,-00.000054280000,  -0.25600,
,,,-00.000054240000,  -0.25600,
,,,-00.000054200000,  -0.25600,
,,,-00.000054160000,  -0.25600,
,,,-00.000054120000,  -0.25600,
,,,-00.000054080000,  -0.25600,
,,,-00.000054040000,  -0.25600,
,,,-00.000054000000,  -0.25600,
,,,-00.000053960000,  -0.25600,
,,,-00.000053920000,  -0.25600,
,,,-00.000053880000,  -0.25600,
,,,-00.000053840000,  -0.25600,
,,,-00.000053800000,  -0.25600,
,,,-00.000053760000,  -0.25600,
,,,-00.000053720000,  -0.25600,
,,,-00.000053680000,  -0.25600,
,,,-00.000053640000,  -0.25600,
,,,-00.000053600000,  -0.25600,
,,,-00.000053560000,  -0.25600,
,,,-00.000053520000,  -0.25600,
,,,-00.000053480000,  -0.25600,
,,,-00.000053440000,  -0.25600,
,,,-00.000053400000,  -0.25600,
,,,-00.000053360000,  -0.25600,
,,,-00.000053320000,  -0.25600,
,,,-00.000053280000,  -0.25600,
,,,-00.000053240000,  -0.25600,
,,,-00.000053200000,  -0.25600,
,,,-00.000053160000,  -0.25600,
,,,-00.000053120000,  -0.25600,
,,,-00.000053080000,  -0.25600,
,,,-00.000053040000,  -0.25600,
,,,-00.000053000000,  -0.25600,
,,,-00.000052960000,  -0.25600,
,,,-00.000052920000,  -0.25600,
,,,-00.000052880000,  -0.25600,
,,,-00.000052840000,  -0.25600,
,,,-00.000052800000,  -0.25600,
,,,-00.000052760000,  -0.25600,
,,,-00.000052720000,  -0.25600,
,,,-00.000052680000,  -0.25600,
,,,-00.000052640000,  -0.25600,
,,,-00.000052600000,  -0.25600,
,,,-00.000052560000,  -0.25600,
,,,-00.000052520000,  -0.25600,
,,,-00.000052480000,  -0.25600,
,,,-00.000052440000,  -0.25600,
,,,-00.000052400000,  -0.25400,
,,,-00.000052360000,  -0.25600,
,,,-00.000052320000,  -0.25000,
,,,-00.000052280000,  -0.25600,
,,,-00.000052240000,  -0.25200,
,,,-00.000052200000,  -0.25200,
,,,-00.000052160000,  -0.25000,
,,,-00.000052120000,  -0.25200,
,,,-00.000052080000,  -0.25000,
,,,-00.000052040000,  -0.24600,
,,,-00.000052000000,  -0.24600,
,,,-00.000051960000,  -0.24400,
,,,-00.000051920000,  -0.24600,
,,,-00.000051880000,  -0.24200,
,,,-00.000051840000,  -0.24000,
,,,-00.000051800000,  -0.23800,
,,,-00.000051760000,  -0.23800,
,,,-00.000051720000,  -0.23800,
,,,-00.000051680000,  -0.23400,
,,,-00.000051640000,  -0.23600,
,,,-00.000051600000,  -0.23400,
,,,-00.000051560000,  -0.23000,
,,,-00.000051520000,  -0.23200,
,,,-00.000051480000,  -0.22800,
,,,-00.000051440000,  -0.22800,
,,,-00.000051400000,  -0.22800,
,,,-00.000051360000,  -0.22600,
,,,-00.000051320000,  -0.22600,
,,,-00.000051280000,  -0.22800,
,,,-00.000051240000,  -0.22400,
,,,-00.000051200000,  -0.22200,
,,,-00.000051160000,  -0.22000,
,,,-00.000051120000,  -0.21800,
,,,-00.000051080000,  -0.22200,
,,,-00.000051040000,  -0.21600,
,,,-00.000051000000,  -0.21400,
,,,-00.000050960000,  -0.21400,
,,,-00.000050920000,  -0.21000,
,,,-00.000050880000,  -0.21200,
,,,-00.000050840000,  -0.21000,
,,,-00.000050800000,  -0.21000,
,,,-00.000050760000,  -0.20600,
,,,-00.000050720000,  -0.20400,
,,,-00.000050680000,  -0.20600,
,,,-00.000050640000,  -0.20200,
,,,-00.000050600000,  -0.20200,
,,,-00.000050560000,  -0.20000,
,,,-00.000050520000,  -0.19800,
,,,-00.000050480000,  -0.19800,
,,,-00.000050440000,  -0.19400,
,,,-00.000050400000,  -0.19600,
,,,-00.000050360000,  -0.19200,
,,,-00.000050320000,  -0.19200,
,,,-00.000050280000,  -0.19000,
,,,-00.000050240000,  -0.19000,
,,,-00.000050200000,  -0.18400,
,,,-00.000050160000,  -0.18800,
,,,-00.000050120000,  -0.18400,
,,,-00.000050080000,  -0.18200,
,,,-00.000050040000,  -0.18400,
,,,-00.000050000000,  -0.17800,
,,,-00.000049960000,  -0.18000,
,,,-00.000049920000,  -0.17800,
,,,-00.000049880000,  -0.17600,
,,,-00.000049840000,  -0.17200,
,,,-00.000049800000,  -0.17200,
,,,-00.000049760000,  -0.17200,
,,,-00.000049720000,  -0.17200,
,,,-00.000049680000,  -0.16800,
,,,-00.000049640000,  -0.16800,
,,,-00.000049600000,  -0.16600,
,,,-00.000049560000,  -0.16400,
,,,-00.000049520000,  -0.16400,
,,,-00.000049480000,  -0.16000,
,,,-00.000049440000,  -0.16200,
,,,-00.000049400000,  -0.15800,
,,,-00.000049360000,  -0.15600,
,,,-00.000049320000,  -0.15400,
,,,-00.000049280000,  -0.15400,
,,,-00.000049240000,  -0.15400,
,,,-00.000049200000,  -0.15200,
,,,-00.000049160000,  -0.14600,
,,,-00.000049120000,  -0.14800,
,,,-00.000049080000,  -0.14800,
,,,-00.000049040000,  -0.14200,
,,,-00.000049000000,  -0.14200,
,,,-00.000048960000,  -0.14200,
,,,-00.000048920000,  -0.14200,
,,,-00.000048880000,  -0.13800,
,,,-00.000048840000,  -0.13600,
,,,-00.000048800000,  -0.13400,
,,,-00.000048760000,  -0.13000,
,,,-00.000048720000,  -0.13200,
,,,-00.000048680000,  -0.13000,
,,,-00.000048640000,  -0.12800,
,,,-00.000048600000,  -0.12600,
,,,-00.000048560000,  -0.12600,
,,,-00.000048520000,  -0.12400,
,,,-00.000048480000,  -0.12200,
,,,-00.000048440000,  -0.11800,
,,,-00.000048400000,  -0.11800,
,,,-00.000048360000,  -0.11400,
,,,-00.000048320000,  -0.11400,
,,,-00.000048280000,  -0.11400,
,,,-00.000048240000,  -0.11200,
,,,-00.000048200000,  -0.10800,
,,,-00.000048160000,  -0.10800,
,,,-00.000048120000,  -0.10400,
,,,-00.000048080000,  -0.10600,
,,,-00.000048040000,  -0.10400,
,,,-00.000048000000,  -0.10000,
,,,-00.000047960000,  -0.09600,
,,,-00.000047920000,  -0.09400,
,,,-00.000047880000,  -0.09400,
,,,-00.000047840000,  -0.09200,
,,,-00.000047800000,  -0.09200,
,,,-00.000047760000,  -0.08600,
,,,-00.000047720000,  -0.08800,
,,,-00.000047680000,  -0.08600,
,,,-00.000047640000,  -0.08600,
,,,-00.000047600000,  -0.08000,
,,,-00.000047560000,  -0.08000,
,,,-00.000047520000,  -0.08000,
,,,-00.000047480000,  -0.07800,
,,,-00.000047440000,  -0.07600,
,,,-00.000047400000,  -0.07200,
,,,-00.000047360000,  -0.07600,
,,,-00.000047320000,  -0.07000,
,,,-00.000047280000,  -0.07200,
,,,-00.000047240000,  -0.06600,
,,,-00.000047200000,  -0.06400,
,,,-00.000047160000,  -0.06200,
,,,-00.000047120000,  -0.06000,
,,,-00.000047080000,  -0.06000,
,,,-00.000047040000,  -0.05800,
,,,-00.000047000000,  -0.05800,
,,,-00.000046960000,  -0.05200,
,,,-00.000046920000,  -0.05400,
,,,-00.000046880000,  -0.05000,
,,,-00.000046840000,  -0.05000,
,,,-00.000046800000,  -0.04800,
,,,-00.000046760000,  -0.04600,
,,,-00.000046720000,  -0.04600,
,,,-00.000046680000,  -0.04400,
,,,-00.000046640000,  -0.04000,
,,,-00.000046600000,  -0.04000,
,,,-00.000046560000,  -0.03800,
,,,-00.000046520000,  -0.03600,
,,,-00.000046480000,  -0.03200,
,,,-00.000046440000,  -0.03200,
,,,-00.000046400000,  -0.03000,
,,,-00.000046360000,  -0.03000,
,,,-00.000046320000,  -0.02800,
,,,-00.000046280000,  -0.02400,
,,,-00.000046240000,  -0.02200,
,,,-00.000046200000,  -0.01800,
,,,-00.000046160000,  -0.02000,
,,,-00.000046120000,  -0.02000,
,,,-00.000046080000,  -0.01600,
,,,-00.000046040000,  -0.01600,
,,,-00.000046000000,  -0.01200,
,,,-00.000045960000,  -0.01000,
,,,-00.000045920000,  -0.01000,
,,,-00.000045880000,  -0.00400,
,,,-00.000045840000,  -0.00600,
,,,-00.000045800000,   0.00000,
,,,-00.000045760000,  -0.00200,
,,,-00.000045720000,   0.00200,
,,,-00.000045680000,   0.00000,
,,,-00.000045640000,   0.00400,
,,,-00.000045600000,   0.00400,
,,,-00.000045560000,   0.00600,
,,,-00.000045520000,   0.00800,
,,,-00.000045480000,   0.01000,
,,,-00.000045440000,   0.01600,
,,,-00.000045400000,   0.01400,
,,,-00.000045360000,   0.01600,
,,,-00.000045320000,   0.01800,
,,,-00.000045280000,   0.02000,
,,,-00.000045240000,   0.02200,
,,,-00.000045200000,   0.02600,
,,,-00.000045160000,   0.02400,
,,,-00.000045120000,   0.02600,
,,,-00.000045080000,   0.02800,
,,,-00.000045040000,   0.03000,
,,,-00.000045000000,   0.03200,
,,,-00.000044960000,   0.03600,
,,,-00.000044920000,   0.03800,
,,,-00.000044880000,   0.03600,
,,,-00.000044840000,   0.04000,
,,,-00.000044800000,   0.04200,
,,,-00.000044760000,   0.04200,
,,,-00.000044720000,   0.04600,
,,,-00.000044680000,   0.04800,
,,,-00.000044640000,   0.05000,
,,,-00.000044600000,   0.05200,
,,,-00.000044560000,   0.05200,
,,,-00.000044520000,   0.05400,
,,,-00.000044480000,   0.05400,
,,,-00.000044440000,   0.05600,
,,,-00.000044400000,   0.05800,
,,,-00.000044360000,   0.06000,
,,,-00.000044320000,   0.06200,
,,,-00.000044280000,   0.06400,
,,,-00.000044240000,   0.06200,
,,,-00.000044200000,   0.06400,
,,,-00.000044160000,   0.06600,
,,,-00.000044120000,   0.07000,
,,,-00.000044080000,   0.07200,
,,,-00.000044040000,   0.07600,
,,,-00.000044000000,   0.07600,
,,,-00.000043960000,   0.07800,
,,,-00.000043920000,   0.08200,
,,,-00.000043880000,   0.08200,
,,,-00.000043840000,   0.08400,
,,,-00.000043800000,   0.08400,
,,,-00.000043760000,   0.08800,
,,,-00.000043720000,   0.09000,
,,,-00.000043680000,   0.09000,
,,,-00.000043640000,   0.09600,
,,,-00.000043600000,   0.09400,
,,,-00.000043560000,   0.09400,
,,,-00.000043520000,   0.09600,
,,,-00.000043480000,   0.09800,
,,,-00.000043440000,   0.10000,
,,,-00.000043400000,   0.10200,
,,,-00.000043360000,   0.10400,
,,,-00.000043320000,   0.10600,
,,,-00.000043280000,   0.10600,
,,,-00.000043240000,   0.11000,
,,,-00.000043200000,   0.11200,
,,,-00.000043160000,   0.11000,
,,,-00.000043120000,   0.11400,
,,,-00.000043080000,   0.11600,
,,,-00.000043040000,   0.12000,
,,,-00.000043000000,   0.11800,
,,,-00.000042960000,   0.12200,
,,,-00.000042920000,   0.12200,
,,,-00.000042880000,   0.12200,
,,,-00.000042840000,   0.12400,
,,,-00.000042800000,   0.12800,
,,,-00.000042760000,   0.13200,
,,,-00.000042720000,   0.13000,
,,,-00.000042680000,   0.13000,
,,,-00.000042640000,   0.13200,
,,,-00.000042600000,   0.13400,
,,,-00.000042560000,   0.13600,
,,,-00.000042520000,   0.14000,
,,,-00.000042480000,   0.14000,
,,,-00.000042440000,   0.14400,
,,,-00.000042400000,   0.14400,
,,,-00.000042360000,   0.14400,
,,,-00.000042320000,   0.14800,
,,,-00.000042280000,   0.14800,
,,,-00.000042240000,   0.15000,
,,,-00.000042200000,   0.15200,
,,,-00.000042160000,   0.15200,
,,,-00.000042120000,   0.15200,
,,,-00.000042080000,   0.15600,
,,,-00.000042040000,   0.15600,
,,,-00.000042000000,   0.15800,
,,,-00.000041960000,   0.16000,
,,,-00.000041920000,   0.16000,
,,,-00.000041880000,   0.16400,
,,,-00.000041840000,   0.16600,
,,,-00.000041800000,   0.16400,
,,,-00.000041760000,   0.16800,
,,,-00.000041720000,   0.17000,
,,,-00.000041680000,   0.17000,
,,,-00.000041640000,   0.17400,
,,,-00.000041600000,   0.17400,
,,,-00.000041560000,   0.17600,
,,,-00.000041520000,   0.17600,
,,,-00.000041480000,   0.18200,
,,,-00.000041440000,   0.18000,
,,,-00.000041400000,   0.18000,
,,,-00.000041360000,   0.18000,
,,,-00.000041320000,   0.18200,
,,,-00.000041280000,   0.18800,
,,,-00.000041240000,   0.18800,
,,,-00.000041200000,   0.19000,
,,,-00.000041160000,   0.18800,
,,,-00.000041120000,   0.19400,
,,,-00.000041080000,   0.19000,
,,,-00.000041040000,   0.19200,
,,,-00.000041000000,   0.19200,
,,,-00.000040960000,   0.19600,
,,,-00.000040920000,   0.19800,
,,,-00.000040880000,   0.19800,
,,,-00.000040840000,   0.19800,
,,,-00.000040800000,   0.20000,
,,,-00.000040760000,   0.20200,
,,,-00.000040720000,   0.20200,
,,,-00.000040680000,   0.21000,
,,,-00.000040640000,   0.20600,
,,,-00.000040600000,   0.21000,
,,,-00.000040560000,   0.20800,
,,,-00.000040520000,   0.21200,
,,,-00.000040480000,   0.21000,
,,,-00.000040440000,   0.21400,
,,,-00.000040400000,   0.21200,
,,,-00.000040360000,   0.21400,
,,,-00.000040320000,   0.21800,
,,,-00.000040280000,   0.21800,
,,,-00.000040240000,   0.22000,
,,,-00.000040200000,   0.22400,
,,,-00.000040160000,   0.22200,
,,,-00.000040120000,   0.22200,
,,,-00.000040080000,   0.22600,
,,,-00.000040040000,   0.22600,
,,,-00.000040000000,   0.22800,
,,,-00.000039960000,   0.22800,
,,,-00.000039920000,   0.23200,
,,,-00.000039880000,   0.23000,
,,,-00.000039840000,   0.23200,
,,,-00.000039800000,   0.23400,
,,,-00.000039760000,   0.23200,
,,,-00.000039720000,   0.23400,
,,,-00.000039680000,   0.24000,
,,,-00.000039640000,   0.23800,
,,,-00.000039600000,   0.24200,
,,,-00.000039560000,   0.24000,
,,,-00.000039520000,   0.24200,
,,,-00.000039480000,   0.24400,
,,,-00.000039440000,   0.24200,
,,,-00.000039400000,   0.24600,
,,,-00.000039360000,   0.25000,
,,,-00.000039320000,   0.24600,
,,,-00.000039280000,   0.25000,
,,,-00.000039240000,   0.25000,
,,,-00.000039200000,   0.25000,
,,,-00.000039160000,   0.25000,
,,,-00.000039120000,   0.25200,
,,,-00.000039080000,   0.25200,
,,,-00.000039040000,   0.25200,
,,,-00.000039000000,   0.25200,
,,,-00.000038960000,   0.25200,
,,,-00.000038920000,   0.25200,
,,,-00.000038880000,   0.25200,
,,,-00.000038840000,   0.25200,
,,,-00.000038800000,   0.25200,
,,,-00.000038760000,   0.25200,
,,,-00.000038720000,   0.25200,
,,,-00.000038680000,   0.25200,
,,,-00.000038640000,   0.25200,
,,,-00.000038600000,   0.25200,
,,,-00.000038560000,   0.25200,
,,,-00.000038520000,   0.25200,
,,,-00.000038480000,   0.25200,
,,,-00.000038440000,   0.25200,
,,,-00.000038400000,   0.25200,
,,,-00.000038360000,   0.25200,
,,,-00.000038320000,   0.25200,
,,,-00.000038280000,   0.25200,
,,,-00.000038240000,   0.25200,
,,,-00.000038200000,   0.25200,
,,,-00.000038160000,   0.25200,
,,,-00.000038120000,   0.25200,
,,,-00.000038080000,   0.25200,
,,,-00.000038040000,   0.25200,
,,,-00.000038000000,   0.25200,
,,,-00.000037960000,   0.25200,
,,,-00.000037920000,   0.25200,
,,,-00.000037880000,   0.25200,
,,,-00.000037840000,   0.25200,
,,,-00.000037800000,   0.25200,
,,,-00.000037760000,   0.25200,
,,,-00.000037720000,   0.25200,
,,,-00.000037680000,   0.25200,
,,,-00.000037640000,   0.25200,
,,,-00.000037600000,   0.25200,
,,,-00.000037560000,   0.25200,
,,,-00.000037520000,   0.25200,
,,,-00.000037480000,   0.25200,
,,,-00.000037440000,   0.25200,
,,,-00.000037400000,   0.25200,
,,,-00.000037360000,   0.25200,
,,,-00.000037320000,   0.25200,
,,,-00.000037280000,   0.25200,
,,,-00.000037240000,   0.25200,
,,,-00.000037200000,   0.25200,
,,,-00.000037160000,   0.25200,
,,,-00.000037120000,   0.25200,
,,,-00.000037080000,   0.25200,
,,,-00.000037040000,   0.25200,
,,,-00.000037000000,   0.25200,
,,,-00.000036960000,   0.25200,
,,,-00.000036920000,   0.25200,
,,,-00.000036880000,   0.25200,
,,,-00.000036840000,   0.25200,
,,,-00.000036800000,   0.25200,
,,,-00.000036760000,   0.25200,
,,,-00.000036720000,   0.25200,
,,,-00.000036680000,   0.25200,
,,,-00.000036640000,   0.25200,
,,,-00.000036600000,   0.25200,
,,,-00.000036560000,   0.25200,
,,,-00.000036520000,   0.25200,
,,,-00.000036480000,   0.25200,
,,,-00.000036440000,   0.25200,
,,,-00.000036400000,   0.25200,
,,,-00.000036360000,   0.25200,
,,,-00.000036320000,   0.25200,
,,,-00.000036280000,   0.25200,
,,,-00.000036240000,   0.25200,
,,,-00.000036200000,   0.25200,
,,,-00.000036160000,   0.25200,
,,,-00.000036120000,   0.25200,
,,,-00.000036080000,   0.25200,
,,,-00.000036040000,   0.25200,
,,,-00.000036000000,   0.25200,
,,,-00.000035960000,   0.25200,
,,,-00.000035920000,   0.25200,
,,,-00.000035880000,   0.25200,
,,,-00.000035840000,   0.25200,
,,,-00.000035800000,   0.25200,
,,,-00.000035760000,   0.25200,
,,,-00.000035720000,   0.25200,
,,,-00.000035680000,   0.25200,
,,,-00.000035640000,   0.25200,
,,,-00.000035600000,   0.25200,
,,,-00.000035560000,   0.25200,
,,,-00.000035520000,   0.25200,
,,,-00.000035480000,   0.25200,
,,,-00.000035440000,   0.25200,
,,,-00.000035400000,   0.25200,
,,,-00.000035360000,   0.25200,
,,,-00.000035320000,   0.25200,
,,,-00.000035280000,   0.25200,
,,,-00.000035240000,   0.25200,
,,,-00.000035200000,   0.25200,
,,,-00.000035160000,   0.25200,
,,,-00.000035120000,   0.25200,
,,,-00.000035080000,   0.25200,
,,,-00.000035040000,   0.25200,
,,,-00.000035000000,   0.25200,
,,,-00.000034960000,   0.25200,
,,,-00.000034920000,   0.25200,
,,,-00.000034880000,   0.25200,
,,,-00.000034840000,   0.25200,
,,,-00.000034800000,   0.25200,
,,,-00.000034760000,   0.25200,
,,,-00.000034720000,   0.25200,
,,,-00.000034680000,   0.25200,
,,,-00.000034640000,   0.25200,
,,,-00.000034600000,   0.25200,
,,,-00.000034560000,   0.25200,
,,,-00.000034520000,   0.25200,
,,,-00.000034480000,   0.25200,
,,,-00.000034440000,   0.25200,
,,,-00.000034400000,   0.25200,
,,,-00.000034360000,   0.25200,
,,,-00.000034320000,   0.25200,
,,,-00.000034280000,   0.25200,
,,,-00.000034240000,   0.25200,
,,,-00.000034200000,   0.25200,
,,,-00.000034160000,   0.25200,
,,,-00.000034120000,   0.25200,
,,,-00.000034080000,   0.25200,
,,,-00.000034040000,   0.25200,
,,,-00.000034000000,   0.25200,
,,,-00.000033960000,   0.25200,
,,,-00.000033920000,   0.25200,
,,,-00.000033880000,   0.25200,
,,,-00.000033840000,   0.25200,
,,,-00.000033800000,   0.25200,
,,,-00.000033760000,   0.25200,
,,,-00.000033720000,   0.25200,
,,,-00.000033680000,   0.25200,
,,,-00.000033640000,   0.25200,
,,,-00.000033600000,   0.25200,
,,,-00.000033560000,   0.25200,
,,,-00.000033520000,   0.25200,
,,,-00.000033480000,   0.25200,
,,,-00.000033440000,   0.25200,
,,,-00.000033400000,   0.25200,
,,,-00.000033360000,   0.25200,
,,,-00.000033320000,   0.25200,
,,,-00.000033280000,   0.25200,
,,,-00.000033240000,   0.25200,
,,,-00.000033200000,   0.25200,
,,,-00.000033160000,   0.25200,
,,,-00.000033120000,   0.25200,
,,,-00.000033080000,   0.25200,
,,,-00.000033040000,   0.25200,
,,,-00.000033000000,   0.25200,
,,,-00.000032960000,   0.25200,
,,,-00.000032920000,   0.25200,
,,,-00.000032880000,   0.25200,
,,,-00.000032840000,   0.25200,
,,,-00.000032800000,   0.25200,
,,,-00.000032760000,   0.25200,
,,,-00.000032720000,   0.25200,
,,,-00.000032680000,   0.25200,
,,,-00.000032640000,   0.25200,
,,,-00.000032600000,   0.25200,
,,,-00.000032560000,   0.25200,
,,,-00.000032520000,   0.25200,
,,,-00.000032480000,   0.25200,
,,,-00.000032440000,   0.25200,
,,,-00.000032400000,   0.25200,
,,,-00.000032360000,   0.25200,
,,,-00.000032320000,   0.25200,
,,,-00.000032280000,   0.25200,
,,,-00.000032240000,   0.25200,
,,,-00.000032200000,   0.25200,
,,,-00.000032160000,   0.25200,
,,,-00.000032120000,   0.25200,
,,,-00.000032080000,   0.25200,
,,,-00.000032040000,   0.25200,
,,,-00.000032000000,   0.25200,
,,,-00.000031960000,   0.25200,
,,,-00.000031920000,   0.25200,
,,,-00.000031880000,   0.25200,
,,,-00.000031840000,   0.25200,
,,,-00.000031800000,   0.25200,
,,,-00.000031760000,   0.25200,
,,,-00.000031720000,   0.25200,
,,,-00.000031680000,   0.25200,
,,,-00.000031640000,   0.25200,
,,,-00.000031600000,   0.25200,
,,,-00.000031560000,   0.25200,
,,,-00.000031520000,   0.25200,
,,,-00.000031480000,   0.25200,
,,,-00.000031440000,   0.25200,
,,,-00.000031400000,   0.25200,
,,,-00.000031360000,   0.25200,
,,,-00.000031320000,   0.25200,
,,,-00.000031280000,   0.25200,
,,,-00.000031240000,   0.25200,
,,,-00.000031200000,   0.25200,
,,,-00.000031160000,   0.25200,
,,,-00.000031120000,   0.25200,
,,,-00.000031080000,   0.25200,
,,,-00.000031040000,   0.25200,
,,,-00.000031000000,   0.25200,
,,,-00.000030960000,   0.25200,
,,,-00.000030920000,   0.25200,
,,,-00.000030880000,   0.25200,
,,,-00.000030840000,   0.25200,
,,,-00.000030800000,   0.25200,
,,,-00.000030760000,   0.25200,
,,,-00.000030720000,   0.25200,
,,,-00.000030680000,   0.25200,
