gr5b/Mr_Stariy/laba/ALL0006/F0006MTH.CSV

Record Length,1.024000e+03,,          0.00000,  -6.96910,
Sample Interval,2.441406e+03,,       2441.40625,  -4.96910,
Trigger Point,0.000000000000e+00,,       4882.81250, -10.56910,
,,,       7324.21875, -26.56910,
,,,       9765.62500, -24.16910,
,,,      12207.03125, -25.36910,
Source,MATH,,      14648.43750, -32.56910,
Vertical Units,dB,,      17089.84375, -40.96910,
Vertical Scale,1.000000e+01,,      19531.25000, -40.96910,
Vertical Offset,0.000000e+00,,      21972.65625, -40.96910,
Horizontal Units,Hz,,      24414.06250, -40.96910,
Horizontal Scale,2.500000e+05,,      26855.46875, -38.56910,
Pt Fmt,Y,,      29296.87500, -40.96910,
Yzero,-9.691000e-01,,      31738.28125, -40.96910,
Probe Atten,1.000000e+00,,      34179.68750, -40.96910,
Model Number,TDS2024C,,      36621.09375, -35.36910,
Serial Number,C013728,,      39062.50000, -35.36910,
Firmware Version,FV:v24.15,,      41503.90625, -34.56910,
,,,43945.31250, -40.96910,
,,,46386.71875, -40.96910,
,,,48828.12500, -34.56910,
,,,51269.53125, -32.56910,
,,,53710.93750, -34.56910,
,,,56152.34375, -38.56910,
,,,58593.75000, -38.56910,
,,,61035.15625, -40.96910,
,,,63476.56250, -40.96910,
,,,65917.96875, -38.56910,
,,,68359.37500, -40.96910,
,,,70800.78125, -40.96910,
,,,73242.18750, -40.96910,
,,,75683.59375, -38.56910,
,,,78125.00000, -30.16910,
,,,80566.40625, -34.56910,
,,,83007.81250, -38.56910,
,,,85449.21875, -30.16910,
,,,87890.62500, -28.96910,
,,,90332.03125, -30.16910,
,,,92773.43750, -38.56910,
,,,95214.84375, -40.96910,
,,,97656.25000, -38.56910,
,,,100097.65625, -34.56910,
,,,102539.06250, -38.56910,
,,,104980.46875, -40.96910,
,,,107421.87500, -40.96910,
,,,109863.28125, -40.96910,
,,,112304.68750, -38.56910,
,,,114746.09375, -38.56910,
,,,117187.50000, -38.56910,
,,,119628.90625, -40.96910,
,,,122070.31250, -40.96910,
,,,124511.71875, -40.96910,
,,,126953.12500, -40.96910,
,,,129394.53125, -38.56910,
,,,131835.93750, -40.96910,
,,,134277.34375, -40.96910,
,,,136718.75000, -40.96910,
,,,139160.15625, -40.96910,
,,,141601.56250, -34.56910,
,,,144042.96875, -40.96910,
,,,146484.37500, -38.56910,
,,,148925.78125, -40.96910,
,,,151367.18750, -40.96910,
,,,153808.59375, -40.96910,
,,,156250.00000, -35.36910,
,,,158691.40625, -40.96910,
,,,161132.81250, -40.96910,
,,,163574.21875, -34.56910,
,,,166015.62500, -34.56910,
,,,168457.03125, -32.56910,
,,,170898.43750, -32.56910,
,,,173339.84375, -40.96910,
,,,175781.25000, -38.56910,
,,,178222.65625, -35.36910,
,,,180664.06250, -40.96910,
,,,183105.46875, -34.56910,
,,,185546.87500, -34.56910,
,,,187988.28125, -34.56910,
,,,190429.68750, -35.36910,
,,,192871.09375, -34.56910,
,,,195312.50000, -38.56910,
,,,197753.90625, -38.56910,
,,,200195.31250, -38.56910,
,,,202636.71875, -32.56910,
,,,205078.12500, -34.56910,
,,,207519.53125, -40.96910,
,,,209960.93750, -35.36910,
,,,212402.34375, -29.36910,
,,,214843.75000, -28.96910,
,,,217285.15625, -35.36910,
,,,219726.56250, -35.36910,
,,,222167.96875, -35.36910,
,,,224609.37500, -38.56910,
,,,227050.78125, -40.96910,
,,,229492.18750, -40.96910,
,,,231933.59375, -38.56910,
,,,234375.00000, -40.96910,
,,,236816.40625, -40.96910,
,,,239257.81250, -40.96910,
,,,241699.21875, -34.56910,
,,,244140.62500, -34.56910,
,,,246582.03125, -35.36910,
,,,249023.43750, -38.56910,
,,,251464.84375, -40.96910,
,,,253906.25000, -38.56910,
,,,256347.65625, -40.96910,
,,,258789.06250, -35.36910,
,,,261230.46875, -34.56910,
,,,263671.87500, -35.36910,
,,,266113.28125, -40.96910,
,,,268554.68750, -40.96910,
,,,270996.09375, -40.96910,
,,,273437.50000, -40.96910,
,,,275878.90625, -40.96910,
,,,278320.31250, -40.96910,
,,,280761.71875, -38.56910,
,,,283203.12500, -34.56910,
,,,285644.53125, -40.96910,
,,,288085.93750, -35.36910,
,,,290527.34375, -35.36910,
,,,292968.75000, -38.56910,
,,,295410.15625, -38.56910,
,,,297851.56250, -40.96910,
,,,300292.96875, -38.56910,
,,,302734.37500, -34.56910,
,,,305175.78125, -31.76910,
,,,307617.18750, -31.36910,
,,,310058.59375, -31.76910,
,,,312500.00000, -34.56910,
,,,314941.40625, -34.56910,
,,,317382.81250, -40.96910,
,,,319824.21875, -38.56910,
,,,322265.62500, -34.56910,
,,,324707.03125, -40.96910,
,,,327148.43750, -40.96910,
,,,329589.84375, -40.96910,
,,,332031.25000, -40.96910,
,,,334472.65625, -40.96910,
,,,336914.06250, -40.96910,
,,,339355.46875, -40.96910,
,,,341796.87500, -40.96910,
,,,344238.28125, -40.96910,
,,,346679.68750, -38.56910,
,,,349121.09375, -40.96910,
,,,351562.50000, -34.56910,
,,,354003.90625, -34.56910,
,,,356445.31250, -31.36910,
,,,358886.71875, -28.96910,
,,,361328.12500, -31.76910,
,,,363769.53125, -31.76910,
,,,366210.93750, -31.36910,
,,,368652.34375, -32.56910,
,,,371093.75000, -40.96910,
,,,373535.15625, -40.96910,
,,,375976.56250, -38.56910,
,,,378417.96875, -34.56910,
,,,380859.37500, -34.56910,
,,,383300.78125, -40.96910,
,,,385742.18750, -32.56910,
,,,388183.59375, -38.56910,
,,,390625.00000, -38.56910,
,,,393066.40625, -34.56910,
,,,395507.81250, -40.96910,
,,,397949.21875, -38.56910,
,,,400390.62500, -40.96910,
,,,402832.03125, -40.96910,
,,,405273.43750, -40.96910,
,,,407714.84375, -38.56910,
,,,410156.25000, -35.36910,
,,,412597.65625, -35.36910,
,,,415039.06250, -34.56910,
,,,417480.46875, -34.56910,
,,,419921.87500, -40.96910,
,,,422363.28125, -40.96910,
,,,424804.68750, -40.96910,
,,,427246.09375, -40.96910,
,,,429687.50000, -40.96910,
,,,432128.90625, -38.56910,
,,,434570.31250, -40.96910,
,,,437011.71875, -40.96910,
,,,439453.12500, -40.96910,
,,,441894.53125, -40.96910,
,,,444335.93750, -40.96910,
,,,446777.34375, -40.96910,
,,,449218.75000, -38.56910,
,,,451660.15625, -35.36910,
,,,454101.56250, -35.36910,
,,,456542.96875, -34.56910,
,,,458984.37500, -31.76910,
,,,461425.78125, -35.36910,
,,,463867.18750, -35.36910,
,,,466308.59375, -38.56910,
,,,468750.00000, -40.96910,
,,,471191.40625, -40.96910,
,,,473632.81250, -34.56910,
,,,476074.21875, -35.36910,
,,,478515.62500, -35.36910,
,,,480957.03125, -31.36910,
,,,483398.43750, -35.36910,
,,,485839.84375, -38.56910,
,,,488281.25000, -38.56910,
,,,490722.65625, -40.96910,
,,,493164.06250, -40.96910,
,,,495605.46875, -40.96910,
,,,498046.87500, -40.96910,
,,,500488.28125, -40.96910,
,,,502929.68750, -38.56910,
,,,505371.09375, -34.56910,
,,,507812.50000, -34.56910,
,,,510253.90625, -40.96910,
,,,512695.31250, -34.56910,
,,,515136.71875, -34.56910,
,,,517578.12500, -32.56910,
,,,520019.53125, -34.56910,
,,,522460.93750, -35.36910,
,,,524902.34375, -34.56910,
,,,527343.75000, -34.56910,
,,,529785.15625, -35.36910,
,,,532226.56250, -40.96910,
,,,534667.96875, -40.96910,
,,,537109.37500, -34.56910,
,,,539550.78125, -40.96910,
,,,541992.18750, -40.96910,
,,,544433.59375, -35.36910,
,,,546875.00000, -40.96910,
,,,549316.40625, -40.96910,
,,,551757.81250, -40.96910,
,,,554199.21875, -40.96910,
,,,556640.62500, -38.56910,
,,,559082.03125, -34.56910,
,,,561523.43750, -35.36910,
,,,563964.84375, -34.56910,
,,,566406.25000, -38.56910,
,,,568847.65625, -38.56910,
,,,571289.06250, -40.96910,
,,,573730.46875, -40.96910,
,,,576171.87500, -34.56910,
,,,578613.28125, -34.56910,
,,,581054.68750, -32.56910,
,,,583496.09375, -38.56910,
,,,585937.50000, -34.56910,
,,,588378.90625, -35.36910,
,,,590820.31250, -34.56910,
,,,593261.71875, -35.36910,
,,,595703.12500, -34.56910,
,,,598144.53125, -40.96910,
,,,600585.93750, -40.96910,
,,,603027.34375, -35.36910,
,,,605468.75000, -40.96910,
,,,607910.15625, -40.96910,
,,,610351.56250, -38.56910,
,,,612792.96875, -38.56910,
,,,615234.37500, -38.56910,
,,,617675.78125, -34.56910,
,,,620117.18750, -38.56910,
,,,622558.59375, -40.96910,
,,,625000.00000, -34.56910,
,,,627441.40625, -40.96910,
,,,629882.81250, -40.96910,
,,,632324.21875, -40.96910,
,,,634765.62500, -40.96910,
,,,637207.03125, -40.96910,
,,,639648.43750, -40.96910,
,,,642089.84375, -38.56910,
,,,644531.25000, -40.96910,
,,,646972.65625, -40.96910,
,,,649414.06250, -40.96910,
,,,651855.46875, -40.96910,
,,,654296.87500, -40.96910,
,,,656738.28125, -40.96910,
,,,659179.68750, -34.56910,
,,,661621.09375, -34.56910,
,,,664062.50000, -38.56910,
,,,666503.90625, -34.56910,
,,,668945.31250, -40.96910,
,,,671386.71875, -40.96910,
,,,673828.12500, -40.96910,
,,,676269.53125, -40.96910,
,,,678710.93750, -38.56910,
,,,681152.34375, -40.96910,
,,,683593.75000, -40.96910,
,,,686035.15625, -35.36910,
,,,688476.56250, -40.96910,
,,,690917.96875, -40.96910,
,,,693359.37500, -40.96910,
,,,695800.78125, -40.96910,
,,,698242.18750, -31.36910,
,,,700683.59375, -32.56910,
,,,703125.00000, -34.56910,
,,,705566.40625, -38.56910,
,,,708007.81250, -40.96910,
,,,710449.21875, -40.96910,
,,,712890.62500, -40.96910,
,,,715332.03125, -40.96910,
,,,717773.43750, -35.36910,
,,,720214.84375, -34.56910,
,,,722656.25000, -38.56910,
,,,725097.65625, -40.96910,
,,,727539.06250, -40.96910,
,,,729980.46875, -40.96910,
,,,732421.87500, -40.96910,
,,,734863.28125, -40.96910,
,,,737304.68750, -40.96910,
,,,739746.09375, -38.56910,
,,,742187.50000, -40.96910,
,,,744628.90625, -40.96910,
,,,747070.31250, -40.96910,
,,,749511.71875, -40.96910,
,,,751953.12500, -40.96910,
,,,754394.53125, -40.96910,
,,,756835.93750, -34.56910,
,,,759277.34375, -40.96910,
,,,761718.75000, -34.56910,
,,,764160.15625, -38.56910,
,,,766601.56250, -40.96910,
,,,769042.96875, -40.96910,
,,,771484.37500, -40.96910,
,,,773925.78125, -40.96910,
,,,776367.18750, -40.96910,
,,,778808.59375, -38.56910,
,,,781250.00000, -40.96910,
,,,783691.40625, -32.56910,
,,,786132.81250, -31.36910,
,,,788574.21875, -31.36910,
,,,791015.62500, -31.36910,
,,,793457.03125, -32.56910,
,,,795898.43750, -38.56910,
,,,798339.84375, -40.96910,
,,,800781.25000, -40.96910,
,,,803222.65625, -40.96910,
,,,805664.06250, -40.96910,
,,,808105.46875, -40.96910,
,,,810546.87500, -31.36910,
,,,812988.28125, -30.16910,
,,,815429.68750, -32.56910,
,,,817871.09375, -34.56910,
,,,820312.50000, -35.36910,
,,,822753.90625, -40.96910,
,,,825195.31250, -38.56910,
,,,827636.71875, -32.56910,
,,,830078.12500, -38.56910,
,,,832519.53125, -35.36910,
,,,834960.93750, -40.96910,
,,,837402.34375, -40.96910,
,,,839843.75000, -40.96910,
,,,842285.15625, -40.96910,
,,,844726.56250, -40.96910,
,,,847167.96875, -40.96910,
,,,849609.37500, -34.56910,
,,,852050.78125, -34.56910,
,,,854492.18750, -40.96910,
,,,856933.59375, -40.96910,
,,,859375.00000, -40.96910,
,,,861816.40625, -40.96910,
,,,864257.81250, -40.96910,
,,,866699.21875, -40.96910,
,,,869140.62500, -38.56910,
,,,871582.03125, -40.96910,
,,,874023.43750, -40.96910,
,,,876464.84375, -40.96910,
,,,878906.25000, -40.96910,
,,,881347.65625, -34.56910,
,,,883789.06250, -34.56910,
,,,886230.46875, -35.36910,
,,,888671.87500, -35.36910,
,,,891113.28125, -40.96910,
,,,893554.68750, -34.56910,
,,,895996.09375, -38.56910,
,,,898437.50000, -40.96910,
,,,900878.90625, -38.56910,
,,,903320.31250, -35.36910,
,,,905761.71875, -35.36910,
,,,908203.12500, -34.56910,
,,,910644.53125, -38.56910,
,,,913085.93750, -40.96910,
,,,915527.34375, -34.56910,
,,,917968.75000, -38.56910,
,,,920410.15625, -40.96910,
,,,922851.56250, -34.56910,
,,,925292.96875, -38.56910,
,,,927734.37500, -38.56910,
,,,930175.78125, -40.96910,
,,,932617.18750, -40.96910,
,,,935058.59375, -40.96910,
,,,937500.00000, -40.96910,
,,,939941.40625, -40.96910,
,,,942382.81250, -34.56910,
,,,944824.21875, -34.56910,
,,,947265.62500, -34.56910,
,,,949707.03125, -34.56910,
,,,952148.43750, -38.56910,
,,,954589.84375, -40.96910,
,,,957031.25000, -35.36910,
,,,959472.65625, -31.76910,
,,,961914.06250, -31.76910,
,,,964355.46875, -31.36910,
,,,966796.87500, -31.76910,
,,,969238.28125, -40.96910,
,,,971679.68750, -40.96910,
,,,974121.09375, -40.96910,
,,,976562.50000, -40.96910,
,,,979003.90625, -35.36910,
,,,981445.31250, -32.56910,
,,,983886.71875, -26.96910,
,,,986328.12500, -24.16910,
,,,988769.53125, -17.36910,
,,,991210.93750,  -9.36910,
,,,993652.34375,   5.83090,
,,,996093.75000,  21.83090,
,,,998535.15625,  24.63090,
,,,1000976.56250,  25.03090,
,,,1003417.96875,  23.03090,
,,,1005859.37500,  11.03090,
,,,1008300.78125,  -7.36910,
,,,1010742.18750, -15.36910,
,,,1013183.59375, -26.96910,
,,,1015625.00000, -24.16910,
,,,1018066.40625, -38.56910,
,,,1020507.81250, -40.96910,
,,,1022949.21875, -32.56910,
,,,1025390.62500, -38.56910,
,,,1027832.03125, -32.56910,
,,,1030273.43750, -38.56910,
,,,1032714.84375, -40.96910,
,,,1035156.25000, -40.96910,
,,,1037597.65625, -40.96910,
,,,1040039.06250, -31.76910,
,,,1042480.46875, -35.36910,
,,,1044921.87500, -35.36910,
,,,1047363.28125, -40.96910,
,,,1049804.68750, -38.56910,
,,,1052246.09375, -40.96910,
,,,1054687.50000, -40.96910,
,,,1057128.90625, -38.56910,
,,,1059570.31250, -40.96910,
,,,1062011.71875, -40.96910,
,,,1064453.12500, -40.96910,
,,,1066894.53125, -40.96910,
,,,1069335.93750, -40.96910,
,,,1071777.34375, -40.96910,
,,,1074218.75000, -40.96910,
,,,1076660.15625, -40.96910,
,,,1079101.56250, -38.56910,
,,,1081542.96875, -40.96910,
,,,1083984.37500, -40.96910,
,,,1086425.78125, -38.56910,
,,,1088867.18750, -40.96910,
,,,1091308.59375, -40.96910,
,,,1093750.00000, -38.56910,
,,,1096191.40625, -35.36910,
,,,1098632.81250, -35.36910,
,,,1101074.21875, -40.96910,
,,,1103515.62500, -40.96910,
,,,1105957.03125, -40.96910,
,,,1108398.43750, -38.56910,
,,,1110839.84375, -38.56910,
,,,1113281.25000, -40.96910,
,,,1115722.65625, -40.96910,
,,,1118164.06250, -40.96910,
,,,1120605.46875, -40.96910,
,,,1123046.87500, -38.56910,
,,,1125488.28125, -34.56910,
,,,1127929.68750, -38.56910,
,,,1130371.09375, -40.96910,
,,,1132812.50000, -40.96910,
,,,1135253.90625, -40.96910,
,,,1137695.31250, -38.56910,
,,,1140136.71875, -38.56910,
,,,1142578.12500, -40.96910,
,,,1145019.53125, -40.96910,
,,,1147460.93750, -40.96910,
,,,1149902.34375, -40.96910,
,,,1152343.75000, -40.96910,
,,,1154785.15625, -38.56910,
,,,1157226.56250, -40.96910,
,,,1159667.96875, -35.36910,
,,,1162109.37500, -40.96910,
,,,1164550.78125, -40.96910,
,,,1166992.18750, -40.96910,
,,,1169433.59375, -40.96910,
,,,1171875.00000, -35.36910,
,,,1174316.40625, -35.36910,
,,,1176757.81250, -38.56910,
,,,1179199.21875, -40.96910,
,,,1181640.62500, -40.96910,
,,,1184082.03125, -40.96910,
,,,1186523.43750, -40.96910,
,,,1188964.84375, -40.96910,
,,,1191406.25000, -40.96910,
,,,1193847.65625, -40.96910,
,,,1196289.06250, -40.96910,
,,,1198730.46875, -40.96910,
,,,1201171.87500, -40.96910,
,,,1203613.28125, -40.96910,
,,,1206054.68750, -38.56910,
,,,1208496.09375, -32.56910,
,,,1210937.50000, -32.56910,
,,,1213378.90625, -35.36910,
,,,1215820.31250, -31.76910,
,,,1218261.71875, -35.36910,
,,,1220703.12500, -35.36910,
,,,1223144.53125, -34.56910,
,,,1225585.93750, -38.56910,
,,,1228027.34375, -38.56910,
,,,1230468.75000, -34.56910,
,,,1232910.15625, -38.56910,
,,,1235351.56250, -40.96910,
,,,1237792.96875, -40.96910,
,,,1240234.37500, -40.96910,
,,,1242675.78125, -40.96910,
,,,1245117.18750, -38.56910,
,,,1247558.59375, -40.96910,
,,,1250000.00000, -38.56910,
,,,1252441.40625, -40.96910,
,,,1254882.81250, -38.56910,
,,,1257324.21875, -40.96910,
,,,1259765.62500, -38.56910,
,,,1262207.03125, -34.56910,
,,,1264648.43750, -35.36910,
,,,1267089.84375, -40.96910,
,,,1269531.25000, -38.56910,
,,,1271972.65625, -34.56910,
,,,1274414.06250, -34.56910,
,,,1276855.46875, -40.96910,
,,,1279296.87500, -40.96910,
,,,1281738.28125, -34.56910,
,,,1284179.68750, -34.56910,
,,,1286621.09375, -34.56910,
,,,1289062.50000, -34.56910,
,,,1291503.90625, -34.56910,
,,,1293945.31250, -40.96910,
,,,1296386.71875, -38.56910,
,,,1298828.12500, -38.56910,
,,,1301269.53125, -40.96910,
,,,1303710.93750, -40.96910,
,,,1306152.34375, -40.96910,
,,,1308593.75000, -35.36910,
,,,1311035.15625, -34.56910,
,,,1313476.56250, -34.56910,
,,,1315917.96875, -38.56910,
,,,1318359.37500, -40.96910,
,,,1320800.78125, -40.96910,
,,,1323242.18750, -40.96910,
,,,1325683.59375, -38.56910,
,,,1328125.00000, -40.96910,
,,,1330566.40625, -38.56910,
,,,1333007.81250, -38.56910,
,,,1335449.21875, -40.96910,
,,,1337890.62500, -40.96910,
,,,1340332.03125, -40.96910,
,,,1342773.43750, -40.96910,
,,,1345214.84375, -40.96910,
,,,1347656.25000, -38.56910,
,,,1350097.65625, -35.36910,
,,,1352539.06250, -31.36910,
,,,1354980.46875, -31.36910,
,,,1357421.87500, -32.56910,
,,,1359863.28125, -35.36910,
,,,1362304.68750, -40.96910,
,,,1364746.09375, -38.56910,
,,,1367187.50000, -34.56910,
,,,1369628.90625, -34.56910,
,,,1372070.31250, -35.36910,
,,,1374511.71875, -34.56910,
,,,1376953.12500, -35.36910,
,,,1379394.53125, -35.36910,
,,,1381835.93750, -38.56910,
,,,1384277.34375, -34.56910,
,,,1386718.75000, -34.56910,
,,,1389160.15625, -32.56910,
,,,1391601.56250, -40.96910,
,,,1394042.96875, -40.96910,
,,,1396484.37500, -38.56910,
,,,1398925.78125, -40.96910,
,,,1401367.18750, -35.36910,
,,,1403808.59375, -35.36910,
,,,1406250.00000, -35.36910,
,,,1408691.40625, -40.96910,
,,,1411132.81250, -40.96910,
,,,1413574.21875, -40.96910,
,,,1416015.62500, -35.36910,
,,,1418457.03125, -38.56910,
,,,1420898.43750, -40.96910,
,,,1423339.84375, -38.56910,
,,,1425781.25000, -35.36910,
,,,1428222.65625, -29.36910,
,,,1430664.06250, -31.76910,
,,,1433105.46875, -34.56910,
,,,1435546.87500, -34.56910,
,,,1437988.28125, -38.56910,
,,,1440429.68750, -38.56910,
,,,1442871.09375, -34.56910,
,,,1445312.50000, -34.56910,
,,,1447753.90625, -35.36910,
,,,1450195.31250, -34.56910,
,,,1452636.71875, -31.36910,
,,,1455078.12500, -40.96910,
,,,1457519.53125, -40.96910,
,,,1459960.93750, -34.56910,
,,,1462402.34375, -35.36910,
,,,1464843.75000, -35.36910,
,,,1467285.15625, -40.96910,
,,,1469726.56250, -40.96910,
,,,1472167.96875, -34.56910,
,,,1474609.37500, -32.56910,
,,,1477050.78125, -28.96910,
,,,1479492.18750, -31.36910,
,,,1481933.59375, -34.56910,
,,,1484375.00000, -38.56910,
,,,1486816.40625, -34.56910,
,,,1489257.81250, -35.36910,
,,,1491699.21875, -38.56910,
,,,1494140.62500, -35.36910,
,,,1496582.03125, -40.96910,
,,,1499023.43750, -35.36910,
,,,1501464.84375, -32.56910,
,,,1503906.25000, -40.96910,
,,,1506347.65625, -40.96910,
,,,1508789.06250, -40.96910,
,,,1511230.46875, -40.96910,
,,,1513671.87500, -34.56910,
,,,1516113.28125, -34.56910,
,,,1518554.68750, -31.36910,
,,,1520996.09375, -31.36910,
,,,1523437.50000, -38.56910,
,,,1525878.90625, -38.56910,
,,,1528320.31250, -38.56910,
,,,1530761.71875, -38.56910,
,,,1533203.12500, -35.36910,
,,,1535644.53125, -34.56910,
,,,1538085.93750, -35.36910,
,,,1540527.34375, -38.56910,
,,,1542968.75000, -35.36910,
,,,1545410.15625, -38.56910,
,,,1547851.56250, -38.56910,
,,,1550292.96875, -34.56910,
,,,1552734.37500, -40.96910,
,,,1555175.78125, -38.56910,
,,,1557617.18750, -35.36910,
,,,1560058.59375, -35.36910,
,,,1562500.00000, -40.96910,
,,,1564941.40625, -40.96910,
,,,1567382.81250, -40.96910,
,,,1569824.21875, -40.96910,
,,,1572265.62500, -40.96910,
,,,1574707.03125, -38.56910,
,,,1577148.43750, -38.56910,
,,,1579589.84375, -38.56910,
,,,1582031.25000, -34.56910,
,,,1584472.65625, -38.56910,
,,,1586914.06250, -40.96910,
,,,1589355.46875, -40.96910,
,,,1591796.87500, -35.36910,
,,,1594238.28125, -40.96910,
,,,1596679.68750, -38.56910,
,,,1599121.09375, -30.16910,
,,,1601562.50000, -32.56910,
,,,1604003.90625, -40.96910,
,,,1606445.31250, -40.96910,
,,,1608886.71875, -34.56910,
,,,1611328.12500, -38.56910,
,,,1613769.53125, -40.96910,
,,,1616210.93750, -40.96910,
,,,1618652.34375, -40.96910,
,,,1621093.75000, -40.96910,
,,,1623535.15625, -38.56910,
,,,1625976.56250, -40.96910,
,,,1628417.96875, -40.96910,
,,,1630859.37500, -34.56910,
,,,1633300.78125, -38.56910,
,,,1635742.18750, -40.96910,
,,,1638183.59375, -40.96910,
,,,1640625.00000, -38.56910,
,,,1643066.40625, -40.96910,
,,,1645507.81250, -38.56910,
,,,1647949.21875, -38.56910,
,,,1650390.62500, -38.56910,
,,,1652832.03125, -38.56910,
,,,1655273.43750, -40.96910,
,,,1657714.84375, -40.96910,
,,,1660156.25000, -40.96910,
,,,1662597.65625, -40.96910,
,,,1665039.06250, -40.96910,
,,,1667480.46875, -38.56910,
,,,1669921.87500, -40.96910,
,,,1672363.28125, -34.56910,
,,,1674804.68750, -35.36910,
,,,1677246.09375, -34.56910,
,,,1679687.50000, -31.36910,
,,,1682128.90625, -32.56910,
