gr5b/Olexandra_Hrytseniak/lab_1/screens/ALL0014/F0014MTH.CSV

Record Length,1.024000e+03,,          0.00000,  -6.54850,
Sample Interval,4.932134e+01,,         49.32134,  -4.94850,
Trigger Point,0.000000000000e+00,,         98.64268, -11.34850,
,,,        147.96402, -32.54850,
,,,        197.28535, -34.94850,
,,,        246.60669, -34.94850,
Source,MATH,,        295.92803, -29.34850,
Vertical Units,dB,,        345.24937, -34.94850,
Vertical Scale,1.000000e+01,,        394.57071, -34.94850,
Vertical Offset,0.000000e+00,,        443.89205, -34.94850,
Horizontal Units,Hz,,        493.21338, -34.94850,
Horizontal Scale,5.050505e+03,,        542.53472, -25.74850,
Pt Fmt,Y,,        591.85606, -25.74850,
Yzero,5.051500e+00,,        641.17740, -29.34850,
Probe Atten,1.000000e+00,,        690.49874, -25.34850,
Model Number,TDS1002B,,        739.82008, -23.34850,
Serial Number,C050789,,        789.14141, -21.34850,
Firmware Version,FV:v22.01,,        838.46275, -22.94850,
,,,887.78409, -28.54850,
,,,937.10543, -22.94850,
,,,986.42677, -18.54850,
,,,1035.74811, -18.54850,
,,,1085.06945, -19.74850,
,,,1134.39079, -25.74850,
,,,1183.71213, -34.94850,
,,,1233.03347, -28.54850,
,,,1282.35481, -32.54850,
,,,1331.67615, -32.54850,
,,,1380.99749, -34.94850,
,,,1430.31883, -34.94850,
,,,1479.64017, -34.94850,
,,,1528.96151, -32.54850,
,,,1578.28285, -34.94850,
,,,1627.60419, -34.94850,
,,,1676.92553, -32.54850,
,,,1726.24687, -28.54850,
,,,1775.56821, -24.14850,
,,,1824.88955, -24.14850,
,,,1874.21089, -24.14850,
,,,1923.53223, -29.34850,
,,,1972.85357, -21.34850,
,,,2022.17491, -22.54850,
,,,2071.49625, -20.94850,
,,,2120.81759, -24.14850,
,,,2170.13893, -34.94850,
,,,2219.46027, -22.54850,
,,,2268.78161, -20.94850,
,,,2318.10295, -20.14850,
,,,2367.42429, -22.54850,
,,,2416.74563, -34.94850,
,,,2466.06697, -34.94850,
,,,2515.38831, -34.94850,
,,,2564.70965, -34.94850,
,,,2614.03099, -34.94850,
,,,2663.35233, -34.94850,
,,,2712.67367, -34.94850,
,,,2761.99501, -34.94850,
,,,2811.31635, -29.34850,
,,,2860.63769, -25.34850,
,,,2909.95903, -29.34850,
,,,2959.28037, -22.94850,
,,,3008.60171, -11.34850,
,,,3057.92305, -10.54850,
,,,3107.24439, -10.14850,
,,,3156.56573, -13.74850,
,,,3205.88707, -34.94850,
,,,3255.20841, -34.94850,
,,,3304.52975, -34.94850,
,,,3353.85109, -34.94850,
,,,3403.17243, -34.94850,
,,,3452.49377, -34.94850,
,,,3501.81511, -34.94850,
,,,3551.13645, -34.94850,
,,,3600.45779, -32.54850,
,,,3649.77913, -34.94850,
,,,3699.10047, -28.54850,
,,,3748.42181, -34.94850,
,,,3797.74315, -29.34850,
,,,3847.06449, -29.34850,
,,,3896.38583, -29.34850,
,,,3945.70717, -28.54850,
,,,3995.02851, -34.94850,
,,,4044.34985, -28.54850,
,,,4093.67119, -25.34850,
,,,4142.99253, -22.94850,
,,,4192.31387, -29.34850,
,,,4241.63521, -34.94850,
,,,4290.95655, -34.94850,
,,,4340.27789, -29.34850,
,,,4389.59923, -29.34850,
,,,4438.92057, -34.94850,
,,,4488.24191, -34.94850,
,,,4537.56325, -34.94850,
,,,4586.88459, -34.94850,
,,,4636.20593, -34.94850,
,,,4685.52727, -34.94850,
,,,4734.84861, -34.94850,
,,,4784.16995, -34.94850,
,,,4833.49129, -32.54850,
,,,4882.81263, -32.54850,
,,,4932.13397, -32.54850,
,,,4981.45531, -34.94850,
,,,5030.77665, -34.94850,
,,,5080.09799, -29.34850,
,,,5129.41933, -34.94850,
,,,5178.74067, -34.94850,
,,,5228.06201, -34.94850,
,,,5277.38335, -28.54850,
,,,5326.70469, -26.54850,
,,,5376.02603, -22.54850,
,,,5425.34737, -25.34850,
,,,5474.66871, -29.34850,
,,,5523.99005, -34.94850,
,,,5573.31139, -34.94850,
,,,5622.63273, -34.94850,
,,,5671.95407, -29.34850,
,,,5721.27541, -32.54850,
,,,5770.59675, -34.94850,
,,,5819.91809, -34.94850,
,,,5869.23943, -34.94850,
,,,5918.56077, -34.94850,
,,,5967.88211, -29.34850,
,,,6017.20345, -28.54850,
,,,6066.52479, -29.34850,
,,,6115.84613, -25.34850,
,,,6165.16747, -23.34850,
,,,6214.48881, -22.94850,
,,,6263.81015, -34.94850,
,,,6313.13149, -34.94850,
,,,6362.45283, -32.54850,
,,,6411.77417, -32.54850,
,,,6461.09551, -29.34850,
,,,6510.41685, -32.54850,
,,,6559.73819, -29.34850,
,,,6609.05953, -32.54850,
,,,6658.38087, -34.94850,
,,,6707.70221, -32.54850,
,,,6757.02355, -32.54850,
,,,6806.34489, -34.94850,
,,,6855.66623, -25.74850,
,,,6904.98757, -21.34850,
,,,6954.30891, -19.74850,
,,,7003.63025, -21.34850,
,,,7052.95159, -32.54850,
,,,7102.27293, -23.34850,
,,,7151.59427, -23.34850,
,,,7200.91561, -22.94850,
,,,7250.23695, -25.34850,
,,,7299.55829, -28.54850,
,,,7348.87963, -34.94850,
,,,7398.20097, -32.54850,
,,,7447.52231, -32.54850,
,,,7496.84365, -34.94850,
,,,7546.16499, -34.94850,
,,,7595.48633, -34.94850,
,,,7644.80767, -25.74850,
,,,7694.12901, -25.34850,
,,,7743.45035, -28.54850,
,,,7792.77169, -25.34850,
,,,7842.09303, -13.74850,
,,,7891.41437,  -4.54850,
,,,7940.73571,  -3.74850,
,,,7990.05705,  -4.14850,
,,,8039.37839,  -8.94850,
,,,8088.69973, -28.54850,
,,,8138.02107, -22.94850,
,,,8187.34241, -23.34850,
,,,8236.66375, -25.74850,
,,,8285.98509, -34.94850,
,,,8335.30643, -34.94850,
,,,8384.62777, -28.54850,
,,,8433.94911, -32.54850,
,,,8483.27045, -32.54850,
,,,8532.59179, -34.94850,
,,,8581.91313, -32.54850,
,,,8631.23447, -25.34850,
,,,8680.55581, -19.74850,
,,,8729.87715, -18.54850,
,,,8779.19849, -18.54850,
,,,8828.51983, -25.34850,
,,,8877.84117, -22.54850,
,,,8927.16251, -16.94850,
,,,8976.48385, -18.14850,
,,,9025.80519, -20.94850,
,,,9075.12653, -28.54850,
,,,9124.44787, -32.54850,
,,,9173.76921, -32.54850,
,,,9223.09055, -32.54850,
,,,9272.41189, -28.54850,
,,,9321.73323, -34.94850,
,,,9371.05457, -34.94850,
,,,9420.37591, -34.94850,
,,,9469.69725, -32.54850,
,,,9519.01859, -34.94850,
,,,9568.33993, -34.94850,
,,,9617.66127, -34.94850,
,,,9666.98261, -34.94850,
,,,9716.30395, -28.54850,
,,,9765.62529, -29.34850,
,,,9814.94663, -34.94850,
,,,9864.26797, -29.34850,
,,,9913.58931, -21.34850,
,,,9962.91065, -17.34850,
,,,10012.23199, -16.54850,
,,,10061.55333, -18.14850,
,,,10110.87467, -25.74850,
,,,10160.19601, -25.34850,
,,,10209.51735, -24.14850,
,,,10258.83869, -25.34850,
,,,10308.16003, -29.34850,
,,,10357.48137, -34.94850,
,,,10406.80271, -34.94850,
,,,10456.12405, -34.94850,
,,,10505.44539, -34.94850,
,,,10554.76673, -34.94850,
,,,10604.08807, -32.54850,
,,,10653.40941, -34.94850,
,,,10702.73075, -34.94850,
,,,10752.05209, -26.54850,
,,,10801.37343, -34.94850,
,,,10850.69477, -22.94850,
,,,10900.01611, -10.94850,
,,,10949.33745,   3.05150,
,,,10998.65879,   5.45150,
,,,11047.98013,   5.45150,
,,,11097.30147,   3.05150,
,,,11146.62281, -11.74850,
,,,11195.94415, -22.54850,
,,,11245.26549, -34.94850,
,,,11294.58683, -34.94850,
,,,11343.90817, -34.94850,
,,,11393.22951, -32.54850,
,,,11442.55085, -34.94850,
,,,11491.87219, -32.54850,
,,,11541.19353, -34.94850,
,,,11590.51487, -29.34850,
,,,11639.83621, -34.94850,
,,,11689.15755, -34.94850,
,,,11738.47889, -22.94850,
,,,11787.80023, -21.34850,
,,,11837.12157, -21.34850,
,,,11886.44291, -25.74850,
,,,11935.76425, -25.34850,
,,,11985.08559, -18.94850,
,,,12034.40693, -18.94850,
,,,12083.72827, -20.94850,
,,,12133.04961, -25.34850,
,,,12182.37095, -34.94850,
,,,12231.69229, -34.94850,
,,,12281.01363, -34.94850,
,,,12330.33497, -29.34850,
,,,12379.65631, -32.54850,
,,,12428.97765, -29.34850,
,,,12478.29899, -34.94850,
,,,12527.62033, -34.94850,
,,,12576.94167, -34.94850,
,,,12626.26301, -29.34850,
,,,12675.58435, -34.94850,
,,,12724.90569, -25.34850,
,,,12774.22703, -19.34850,
,,,12823.54837, -19.34850,
,,,12872.86971, -19.74850,
,,,12922.19105, -22.94850,
,,,12971.51239, -32.54850,
,,,13020.83373, -22.94850,
,,,13070.15507, -22.54850,
,,,13119.47641, -22.54850,
,,,13168.79775, -24.14850,
,,,13218.11909, -28.54850,
,,,13267.44043, -22.54850,
,,,13316.76177, -22.94850,
,,,13366.08311, -22.54850,
,,,13415.40445, -28.54850,
,,,13464.72579, -34.94850,
,,,13514.04713, -34.94850,
,,,13563.36847, -34.94850,
,,,13612.68981, -34.94850,
,,,13662.01115, -32.54850,
,,,13711.33249, -34.94850,
,,,13760.65383, -28.54850,
,,,13809.97517, -32.54850,
,,,13859.29651, -28.54850,
,,,13908.61785, -29.34850,
,,,13957.93919, -29.34850,
,,,14007.26053, -21.34850,
,,,14056.58187, -16.14850,
,,,14105.90321, -15.34850,
,,,14155.22455, -16.94850,
,,,14204.54589, -25.34850,
,,,14253.86723, -34.94850,
,,,14303.18857, -34.94850,
,,,14352.50991, -34.94850,
,,,14401.83125, -34.94850,
,,,14451.15259, -34.94850,
,,,14500.47393, -34.94850,
,,,14549.79527, -34.94850,
,,,14599.11661, -34.94850,
,,,14648.43795, -34.94850,
,,,14697.75929, -34.94850,
,,,14747.08063, -34.94850,
,,,14796.40197, -34.94850,
,,,14845.72331, -34.94850,
,,,14895.04465, -34.94850,
,,,14944.36599, -34.94850,
,,,14993.68733, -32.54850,
,,,15043.00867, -26.54850,
,,,15092.33001, -28.54850,
,,,15141.65135, -29.34850,
,,,15190.97269, -34.94850,
,,,15240.29403, -34.94850,
,,,15289.61537, -34.94850,
,,,15338.93671, -34.94850,
,,,15388.25805, -32.54850,
,,,15437.57939, -34.94850,
,,,15486.90073, -34.94850,
,,,15536.22207, -34.94850,
,,,15585.54341, -34.94850,
,,,15634.86475, -32.54850,
,,,15684.18609, -34.94850,
,,,15733.50743, -32.54850,
,,,15782.82877, -34.94850,
,,,15832.15011, -20.94850,
,,,15881.47145, -19.34850,
,,,15930.79279, -18.94850,
,,,15980.11413, -22.54850,
,,,16029.43547, -34.94850,
,,,16078.75681, -34.94850,
,,,16128.07815, -32.54850,
,,,16177.39949, -34.94850,
,,,16226.72083, -34.94850,
,,,16276.04217, -24.14850,
,,,16325.36351, -16.54850,
,,,16374.68485, -15.74850,
,,,16424.00619, -17.34850,
,,,16473.32753, -22.54850,
,,,16522.64887, -34.94850,
,,,16571.97021, -32.54850,
,,,16621.29155, -29.34850,
,,,16670.61289, -25.74850,
,,,16719.93423, -29.34850,
,,,16769.25557, -29.34850,
,,,16818.57691, -28.54850,
,,,16867.89825, -20.14850,
,,,16917.21959, -20.14850,
,,,16966.54093, -19.34850,
,,,17015.86227, -26.54850,
,,,17065.18361, -34.94850,
,,,17114.50495, -22.54850,
,,,17163.82629, -19.34850,
,,,17213.14763, -21.34850,
,,,17262.46897, -28.54850,
,,,17311.79031, -34.94850,
,,,17361.11165, -32.54850,
,,,17410.43299, -28.54850,
,,,17459.75433, -26.54850,
,,,17509.07567, -28.54850,
,,,17558.39701, -32.54850,
,,,17607.71835, -29.34850,
,,,17657.03969, -29.34850,
,,,17706.36103, -34.94850,
,,,17755.68237, -34.94850,
,,,17805.00371, -34.94850,
,,,17854.32505, -32.54850,
,,,17903.64639, -21.34850,
,,,17952.96773, -18.54850,
,,,18002.28907, -20.14850,
,,,18051.61041, -25.34850,
,,,18100.93175, -22.54850,
,,,18150.25309, -22.54850,
,,,18199.57443, -21.34850,
,,,18248.89577, -24.14850,
,,,18298.21711, -32.54850,
,,,18347.53845, -34.94850,
,,,18396.85979, -34.94850,
,,,18446.18113, -34.94850,
,,,18495.50247, -32.54850,
,,,18544.82381, -34.94850,
,,,18594.14515, -34.94850,
,,,18643.46649, -28.54850,
,,,18692.78783, -25.74850,
,,,18742.10917, -28.54850,
,,,18791.43051, -25.34850,
,,,18840.75185, -18.94850,
,,,18890.07319,  -0.94850,
,,,18939.39453,   2.65150,
,,,18988.71587,   3.05150,
,,,19038.03721,   1.45150,
,,,19087.35855,  -8.54850,
,,,19136.67989, -29.34850,
,,,19186.00123, -29.34850,
,,,19235.32257, -34.94850,
,,,19284.64391, -34.94850,
,,,19333.96525, -34.94850,
,,,19383.28659, -34.94850,
,,,19432.60793, -25.74850,
,,,19481.92927, -29.34850,
,,,19531.25061, -25.74850,
,,,19580.57195, -29.34850,
,,,19629.89329, -34.94850,
,,,19679.21463, -28.54850,
,,,19728.53597, -25.34850,
,,,19777.85731, -25.74850,
,,,19827.17865, -28.54850,
,,,19876.49999, -32.54850,
,,,19925.82133, -21.34850,
,,,19975.14267, -16.94850,
,,,20024.46401, -16.54850,
,,,20073.78535, -19.34850,
,,,20123.10669, -34.94850,
,,,20172.42803, -32.54850,
,,,20221.74937, -28.54850,
,,,20271.07071, -32.54850,
,,,20320.39205, -32.54850,
,,,20369.71339, -34.94850,
,,,20419.03473, -34.94850,
,,,20468.35607, -34.94850,
,,,20517.67741, -34.94850,
,,,20566.99875, -34.94850,
,,,20616.32009, -34.94850,
,,,20665.64143, -32.54850,
,,,20714.96277, -28.54850,
,,,20764.28411, -25.34850,
,,,20813.60545, -25.74850,
,,,20862.92679, -29.34850,
,,,20912.24813, -29.34850,
,,,20961.56947, -18.54850,
,,,21010.89081, -18.54850,
,,,21060.21215, -18.54850,
,,,21109.53349, -22.94850,
,,,21158.85483, -23.34850,
,,,21208.17617, -19.34850,
,,,21257.49751, -19.34850,
,,,21306.81885, -19.34850,
,,,21356.14019, -24.14850,
,,,21405.46153, -34.94850,
,,,21454.78287, -32.54850,
,,,21504.10421, -34.94850,
,,,21553.42555, -29.34850,
,,,21602.74689, -32.54850,
,,,21652.06823, -34.94850,
,,,21701.38957, -34.94850,
,,,21750.71091, -28.54850,
,,,21800.03225, -29.34850,
,,,21849.35359, -29.34850,
,,,21898.67493, -29.34850,
,,,21947.99627,  -8.14850,
,,,21997.31761,  -1.74850,
,,,22046.63895,  -1.34850,
,,,22095.96029,  -2.14850,
,,,22145.28163,  -9.34850,
,,,22194.60297, -28.54850,
,,,22243.92431, -29.34850,
,,,22293.24565, -34.94850,
,,,22342.56699, -32.54850,
,,,22391.88833, -34.94850,
,,,22441.20967, -28.54850,
,,,22490.53101, -32.54850,
,,,22539.85235, -34.94850,
,,,22589.17369, -34.94850,
,,,22638.49503, -34.94850,
,,,22687.81637, -34.94850,
,,,22737.13771, -29.34850,
,,,22786.45905, -25.34850,
,,,22835.78039, -25.34850,
,,,22885.10173, -26.54850,
,,,22934.42307, -29.34850,
,,,22983.74441, -22.54850,
,,,23033.06575, -18.94850,
,,,23082.38709, -18.94850,
,,,23131.70843, -20.94850,
,,,23181.02977, -26.54850,
,,,23230.35111, -34.94850,
,,,23279.67245, -32.54850,
,,,23328.99379, -32.54850,
,,,23378.31513, -34.94850,
,,,23427.63647, -34.94850,
,,,23476.95781, -34.94850,
,,,23526.27915, -34.94850,
,,,23575.60049, -34.94850,
,,,23624.92183, -34.94850,
,,,23674.24317, -34.94850,
,,,23723.56451, -34.94850,
,,,23772.88585, -34.94850,
,,,23822.20719, -22.94850,
,,,23871.52853, -21.34850,
,,,23920.84987, -22.94850,
,,,23970.17121, -32.54850,
,,,24019.49255, -34.94850,
,,,24068.81389, -28.54850,
,,,24118.13523, -28.54850,
,,,24167.45657, -28.54850,
,,,24216.77791, -34.94850,
,,,24266.09925, -28.54850,
,,,24315.42059, -28.54850,
,,,24364.74193, -32.54850,
,,,24414.06327, -34.94850,
,,,24463.38461, -34.94850,
,,,24512.70595, -29.34850,
,,,24562.02729, -25.34850,
,,,24611.34863, -28.54850,
,,,24660.66997, -32.54850,
,,,24709.99131, -32.54850,
,,,24759.31265, -34.94850,
,,,24808.63399, -34.94850,
,,,24857.95533, -34.94850,
,,,24907.27667, -32.54850,
,,,24956.59801, -32.54850,
,,,25005.91935, -28.54850,
,,,25055.24069, -25.74850,
,,,25104.56203, -25.74850,
,,,25153.88337, -29.34850,
,,,25203.20471, -34.94850,
,,,25252.52605, -32.54850,
,,,25301.84739, -34.94850,
,,,25351.16873, -34.94850,
,,,25400.49007, -34.94850,
,,,25449.81141, -32.54850,
,,,25499.13275, -34.94850,
,,,25548.45409, -32.54850,
,,,25597.77543, -34.94850,
,,,25647.09677, -34.94850,
,,,25696.41811, -34.94850,
,,,25745.73945, -32.54850,
,,,25795.06079, -34.94850,
,,,25844.38213, -26.54850,
,,,25893.70347, -24.14850,
,,,25943.02481, -26.54850,
,,,25992.34615, -28.54850,
,,,26041.66749, -34.94850,
,,,26090.98883, -29.34850,
,,,26140.31017, -25.74850,
,,,26189.63151, -29.34850,
,,,26238.95285, -34.94850,
,,,26288.27419, -34.94850,
,,,26337.59553, -34.94850,
,,,26386.91687, -32.54850,
,,,26436.23821, -28.54850,
,,,26485.55955, -34.94850,
,,,26534.88089, -34.94850,
,,,26584.20223, -34.94850,
,,,26633.52357, -34.94850,
,,,26682.84491, -34.94850,
,,,26732.16625, -34.94850,
,,,26781.48759, -34.94850,
,,,26830.80893, -16.94850,
,,,26880.13027, -11.74850,
,,,26929.45161, -11.34850,
,,,26978.77295, -12.14850,
,,,27028.09429, -20.14850,
,,,27077.41563, -26.54850,
,,,27126.73697, -24.14850,
,,,27176.05831, -22.94850,
,,,27225.37965, -24.14850,
,,,27274.70099, -32.54850,
,,,27324.02233, -34.94850,
,,,27373.34367, -28.54850,
,,,27422.66501, -28.54850,
,,,27471.98635, -32.54850,
,,,27521.30769, -29.34850,
,,,27570.62903, -32.54850,
,,,27619.95037, -22.94850,
,,,27669.27171, -19.34850,
,,,27718.59305, -20.94850,
,,,27767.91439, -22.94850,
,,,27817.23573, -32.54850,
,,,27866.55707, -25.34850,
,,,27915.87841, -22.94850,
,,,27965.19975, -20.94850,
,,,28014.52109, -22.54850,
,,,28063.84243, -34.94850,
,,,28113.16377, -22.94850,
,,,28162.48511, -21.34850,
,,,28211.80645, -21.34850,
,,,28261.12779, -25.34850,
,,,28310.44913, -28.54850,
,,,28359.77047, -32.54850,
,,,28409.09181, -34.94850,
,,,28458.41315, -34.94850,
,,,28507.73449, -34.94850,
,,,28557.05583, -34.94850,
,,,28606.37717, -32.54850,
,,,28655.69851, -25.34850,
,,,28705.01985, -25.34850,
,,,28754.34119, -25.34850,
,,,28803.66253, -25.34850,
,,,28852.98387, -25.74850,
,,,28902.30521, -18.54850,
,,,28951.62655, -17.34850,
,,,29000.94789, -18.54850,
,,,29050.26923, -21.34850,
,,,29099.59057, -29.34850,
,,,29148.91191, -26.54850,
,,,29198.23325, -22.94850,
,,,29247.55459, -21.34850,
,,,29296.87593, -26.54850,
,,,29346.19727, -34.94850,
,,,29395.51861, -34.94850,
,,,29444.83995, -34.94850,
,,,29494.16129, -34.94850,
,,,29543.48263, -34.94850,
,,,29592.80397, -34.94850,
,,,29642.12531, -32.54850,
,,,29691.44665, -34.94850,
,,,29740.76799, -29.34850,
,,,29790.08933, -29.34850,
,,,29839.41067, -17.34850,
,,,29888.73201,   5.85150,
,,,29938.05335,  14.25150,
,,,29987.37469,  15.45150,
,,,30036.69603,  15.05150,
,,,30086.01737,  10.25150,
,,,30135.33871, -12.54850,
,,,30184.66005, -23.34850,
,,,30233.98139, -34.94850,
,,,30283.30273, -25.74850,
,,,30332.62407, -28.54850,
,,,30381.94541, -29.34850,
,,,30431.26675, -28.54850,
,,,30480.58809, -32.54850,
,,,30529.90943, -32.54850,
,,,30579.23077, -34.94850,
,,,30628.55211, -34.94850,
,,,30677.87345, -34.94850,
,,,30727.19479, -32.54850,
,,,30776.51613, -28.54850,
,,,30825.83747, -26.54850,
,,,30875.15881, -32.54850,
,,,30924.48015, -24.14850,
,,,30973.80149, -18.14850,
,,,31023.12283, -17.34850,
,,,31072.44417, -18.14850,
,,,31121.76551, -26.54850,
,,,31171.08685, -34.94850,
,,,31220.40819, -29.34850,
,,,31269.72953, -32.54850,
,,,31319.05087, -29.34850,
,,,31368.37221, -34.94850,
,,,31417.69355, -34.94850,
,,,31467.01489, -34.94850,
,,,31516.33623, -34.94850,
,,,31565.65757, -34.94850,
,,,31614.97891, -34.94850,
,,,31664.30025, -32.54850,
,,,31713.62159, -28.54850,
,,,31762.94293, -22.54850,
,,,31812.26427, -21.34850,
,,,31861.58561, -21.34850,
,,,31910.90695, -29.34850,
,,,31960.22829, -21.34850,
,,,32009.54963, -18.94850,
,,,32058.87097, -20.14850,
,,,32108.19231, -22.94850,
,,,32157.51365, -34.94850,
,,,32206.83499, -20.14850,
,,,32256.15633, -19.34850,
,,,32305.47767, -20.54850,
,,,32354.79901, -22.54850,
,,,32404.12035, -28.54850,
,,,32453.44169, -32.54850,
,,,32502.76303, -32.54850,
,,,32552.08437, -34.94850,
,,,32601.40571, -34.94850,
,,,32650.72705, -34.94850,
,,,32700.04839, -34.94850,
,,,32749.36973, -28.54850,
,,,32798.69107, -26.54850,
,,,32848.01241, -26.54850,
,,,32897.33375, -25.74850,
,,,32946.65509, -24.14850,
,,,32995.97643, -10.14850,
,,,33045.29777,  -7.74850,
,,,33094.61911,  -7.74850,
,,,33143.94045, -10.54850,
,,,33193.26179, -28.54850,
,,,33242.58313, -34.94850,
,,,33291.90447, -29.34850,
,,,33341.22581, -28.54850,
,,,33390.54715, -29.34850,
,,,33439.86849, -34.94850,
,,,33489.18983, -34.94850,
,,,33538.51117, -34.94850,
,,,33587.83251, -32.54850,
,,,33637.15385, -34.94850,
,,,33686.47519, -34.94850,
,,,33735.79653, -34.94850,
,,,33785.11787, -22.54850,
,,,33834.43921, -20.14850,
,,,33883.76055, -20.54850,
,,,33933.08189, -24.14850,
,,,33982.40323, -34.94850,
,,,34031.72457, -28.54850,
,,,34081.04591, -25.34850,
,,,34130.36725, -25.34850,
,,,34179.68859, -34.94850,
,,,34229.00993, -32.54850,
,,,34278.33127, -28.54850,
,,,34327.65261, -25.74850,
,,,34376.97395, -28.54850,
,,,34426.29529, -32.54850,
,,,34475.61663, -34.94850,
,,,34524.93797, -32.54850,
,,,34574.25931, -32.54850,
,,,34623.58065, -32.54850,
,,,34672.90199, -32.54850,
,,,34722.22333, -34.94850,
,,,34771.54467, -34.94850,
,,,34820.86601, -32.54850,
,,,34870.18735, -34.94850,
,,,34919.50869, -34.94850,
,,,34968.83003, -34.94850,
,,,35018.15137, -34.94850,
,,,35067.47271, -34.94850,
,,,35116.79405, -34.94850,
,,,35166.11539, -34.94850,
,,,35215.43673, -34.94850,
,,,35264.75807, -34.94850,
,,,35314.07941, -25.34850,
,,,35363.40075, -25.34850,
,,,35412.72209, -28.54850,
,,,35462.04343, -34.94850,
,,,35511.36477, -32.54850,
,,,35560.68611, -29.34850,
,,,35610.00745, -25.74850,
,,,35659.32879, -28.54850,
,,,35708.65013, -28.54850,
,,,35757.97147, -32.54850,
,,,35807.29281, -34.94850,
,,,35856.61415, -34.94850,
,,,35905.93549, -34.94850,
,,,35955.25683, -28.54850,
,,,36004.57817, -34.94850,
