gr5b/Syrota_Andrii/2lab/F0002MTH.CSV

Record Length,1.024000e+03,,          0.00000, -18.58970,
Sample Interval,1.233033e-01,,          0.12330, -16.18970,
Trigger Point,0.000000000000e+00,,          0.24661, -22.58970,
,,,          0.36991, -51.78970,
,,,          0.49321, -52.58970,
,,,          0.61652, -51.78970,
Source,MATH,,          0.73982, -52.18970,
Vertical Units,dB,,          0.86312, -50.58970,
Vertical Scale,1.000000e+01,,          0.98643, -51.38970,
Vertical Offset,0.000000e+00,,          1.10973, -51.38970,
Horizontal Units,Hz,,          1.23303, -50.98970,
Horizontal Scale,1.262626e+01,,          1.35634, -50.58970,
Pt Fmt,Y,,          1.47964, -49.78970,
Yzero,-2.698970e+01,,          1.60294, -48.18970,
Probe Atten,1.000000e+00,,          1.72625, -45.78970,
Model Number,TDS2024C,,          1.84955, -44.98970,
Serial Number,C013728,,          1.97285, -43.38970,
Firmware Version,FV:v24.15,,          2.09616, -41.78970,
,,,2.21946, -37.78970,
,,,2.34276, -36.18970,
,,,2.46606, -31.78970,
,,,2.58936, -29.38970,
,,,2.71266, -28.18970,
,,,2.83596, -30.58970,
,,,2.95926, -38.58970,
,,,3.08256, -42.18970,
,,,3.20586, -44.18970,
,,,3.32916, -44.98970,
,,,3.45246, -47.38970,
,,,3.57576, -48.58970,
,,,3.69906, -48.98970,
,,,3.82236, -50.58970,
,,,3.94566, -48.98970,
,,,4.06896, -50.98970,
,,,4.19226, -51.38970,
,,,4.31556, -53.38970,
,,,4.43886, -53.38970,
,,,4.56216, -53.38970,
,,,4.68546, -53.38970,
,,,4.80876, -54.98970,
,,,4.93206, -54.58970,
,,,5.05536, -57.78970,
,,,5.17866, -56.18970,
,,,5.30196, -54.58970,
,,,5.42526, -51.78970,
,,,5.54856, -52.18970,
,,,5.67186, -52.18970,
,,,5.79516, -53.38970,
,,,5.91846, -51.38970,
,,,6.04176, -51.78970,
,,,6.16506, -50.58970,
,,,6.28836, -50.18970,
,,,6.41166, -50.98970,
,,,6.53496, -51.38970,
,,,6.65826, -48.18970,
,,,6.78156, -46.58970,
,,,6.90486, -46.98970,
,,,7.02816, -44.18970,
,,,7.15146, -44.58970,
,,,7.27476, -40.58970,
,,,7.39806, -34.98970,
,,,7.52136, -26.18970,
,,,7.64466, -24.98970,
,,,7.76796, -25.78970,
,,,7.89126, -28.98970,
,,,8.01456, -36.58970,
,,,8.13786, -38.58970,
,,,8.26116, -41.78970,
,,,8.38446, -44.98970,
,,,8.50776, -46.98970,
,,,8.63106, -48.18970,
,,,8.75436, -48.98970,
,,,8.87766, -50.18970,
,,,9.00096, -49.38970,
,,,9.12426, -49.38970,
,,,9.24756, -49.38970,
,,,9.37086, -51.38970,
,,,9.49416, -52.98970,
,,,9.61746, -52.98970,
,,,9.74076, -50.18970,
,,,9.86406, -50.18970,
,,,9.98736, -51.78970,
,,,10.11066, -54.98970,
,,,10.23396, -54.98970,
,,,10.35726, -54.98970,
,,,10.48056, -52.98970,
,,,10.60386, -51.78970,
,,,10.72716, -52.98970,
,,,10.85046, -54.58970,
,,,10.97376, -53.38970,
,,,11.09706, -53.38970,
,,,11.22036, -52.98970,
,,,11.34366, -54.58970,
,,,11.46696, -51.38970,
,,,11.59026, -49.38970,
,,,11.71356, -49.78970,
,,,11.83686, -49.38970,
,,,11.96016, -49.38970,
,,,12.08346, -46.18970,
,,,12.20676, -44.58970,
,,,12.33006, -42.18970,
,,,12.45336, -40.18970,
,,,12.57666, -35.78970,
,,,12.69996, -34.98970,
,,,12.82326, -33.38970,
,,,12.94656, -32.18970,
,,,13.06986, -30.98970,
,,,13.19316, -34.58970,
,,,13.31646, -39.78970,
,,,13.43976, -42.18970,
,,,13.56306, -44.58970,
,,,13.68636, -46.58970,
,,,13.80966, -46.58970,
,,,13.93296, -47.38970,
,,,14.05626, -49.38970,
,,,14.17956, -52.98970,
,,,14.30286, -52.98970,
,,,14.42616, -51.38970,
,,,14.54946, -50.58970,
,,,14.67276, -51.78970,
,,,14.79606, -51.38970,
,,,14.91936, -53.38970,
,,,15.04266, -53.38970,
,,,15.16596, -54.58970,
,,,15.28926, -53.38970,
,,,15.41256, -53.38970,
,,,15.53586, -52.58970,
,,,15.65916, -53.38970,
,,,15.78246, -52.58970,
,,,15.90576, -51.78970,
,,,16.02906, -49.38970,
,,,16.15236, -50.18970,
,,,16.27566, -52.18970,
,,,16.39896, -54.58970,
,,,16.52226, -54.58970,
,,,16.64556, -52.18970,
,,,16.76886, -51.78970,
,,,16.89216, -49.78970,
,,,17.01546, -48.18970,
,,,17.13876, -45.38970,
,,,17.26206, -45.38970,
,,,17.38536, -42.58970,
,,,17.50866, -42.98970,
,,,17.63196, -38.98970,
,,,17.75526, -25.78970,
,,,17.87856, -18.18970,
,,,18.00186, -17.38970,
,,,18.12516, -17.78970,
,,,18.24846, -22.98970,
,,,18.37176, -37.78970,
,,,18.49506, -41.38970,
,,,18.61836, -42.18970,
,,,18.74166, -45.38970,
,,,18.86496, -44.98970,
,,,18.98826, -46.98970,
,,,19.11156, -46.98970,
,,,19.23486, -47.78970,
,,,19.35816, -47.38970,
,,,19.48146, -48.98970,
,,,19.60476, -49.38970,
,,,19.72806, -52.58970,
,,,19.85136, -51.78970,
,,,19.97466, -52.18970,
,,,20.09796, -52.18970,
,,,20.22126, -51.78970,
,,,20.34456, -52.98970,
,,,20.46786, -57.38970,
,,,20.59116, -54.58970,
,,,20.71446, -52.18970,
,,,20.83776, -54.58970,
,,,20.96106, -54.58970,
,,,21.08436, -53.38970,
,,,21.20766, -50.18970,
,,,21.33096, -49.78970,
,,,21.45426, -49.78970,
,,,21.57756, -49.38970,
,,,21.70086, -49.78970,
,,,21.82416, -48.98970,
,,,21.94746, -48.18970,
,,,22.07076, -49.78970,
,,,22.19406, -48.18970,
,,,22.31736, -46.58970,
,,,22.44066, -44.98970,
,,,22.56396, -44.98970,
,,,22.68726, -41.78970,
,,,22.81056, -38.98970,
,,,22.93386, -33.78970,
,,,23.05716, -34.18970,
,,,23.18046, -34.18970,
,,,23.30376, -33.78970,
,,,23.42706, -32.98970,
,,,23.55036, -37.78970,
,,,23.67366, -41.38970,
,,,23.79696, -44.58970,
,,,23.92026, -44.18970,
,,,24.04356, -46.18970,
,,,24.16686, -46.18970,
,,,24.29016, -48.98970,
,,,24.41346, -48.98970,
,,,24.53676, -50.18970,
,,,24.66006, -51.78970,
,,,24.78336, -51.38970,
,,,24.90666, -52.18970,
,,,25.02996, -53.38970,
,,,25.15326, -54.58970,
,,,25.27656, -57.78970,
,,,25.39986, -54.58970,
,,,25.52316, -53.38970,
,,,25.64646, -54.58970,
,,,25.76976, -53.38970,
,,,25.89306, -57.38970,
,,,26.01636, -57.38970,
,,,26.13966, -56.18970,
,,,26.26296, -51.78970,
,,,26.38626, -51.38970,
,,,26.50956, -50.58970,
,,,26.63286, -54.58970,
,,,26.75616, -52.98970,
,,,26.87946, -52.18970,
,,,27.00276, -50.58970,
,,,27.12606, -52.98970,
,,,27.24936, -51.38970,
,,,27.37266, -49.38970,
,,,27.49596, -45.78970,
,,,27.61926, -45.78970,
,,,27.74256, -42.98970,
,,,27.86586, -42.98970,
,,,27.98916, -38.98970,
,,,28.11246, -16.58970,
,,,28.23576, -10.58970,
,,,28.35906, -10.18970,
,,,28.48236, -10.58970,
,,,28.60566, -17.78970,
,,,28.72896, -38.58970,
,,,28.85226, -42.18970,
,,,28.97556, -42.98970,
,,,29.09886, -46.58970,
,,,29.22216, -46.58970,
,,,29.34546, -48.58970,
,,,29.46876, -48.18970,
,,,29.59206, -50.18970,
,,,29.71536, -49.78970,
,,,29.83866, -51.38970,
,,,29.96196, -52.58970,
,,,30.08526, -51.78970,
,,,30.20856, -51.38970,
,,,30.33186, -52.18970,
,,,30.45516, -51.78970,
,,,30.57846, -52.98970,
,,,30.70176, -53.38970,
,,,30.82506, -54.98970,
,,,30.94836, -53.38970,
,,,31.07166, -53.38970,
,,,31.19496, -53.38970,
,,,31.31826, -53.38970,
,,,31.44156, -55.38970,
,,,31.56486, -54.98970,
,,,31.68816, -54.98970,
,,,31.81146, -49.78970,
,,,31.93476, -48.98970,
,,,32.05806, -47.78970,
,,,32.18136, -49.38970,
,,,32.30466, -47.78970,
,,,32.42796, -49.38970,
,,,32.55126, -47.38970,
,,,32.67456, -46.98970,
,,,32.79786, -45.78970,
,,,32.92116, -44.18970,
,,,33.04446, -40.98970,
,,,33.16776, -35.78970,
,,,33.29106, -31.78970,
,,,33.41436, -32.98970,
,,,33.53766, -33.78970,
,,,33.66096, -34.58970,
,,,33.78426, -34.98970,
,,,33.90756, -40.18970,
,,,34.03086, -43.38970,
,,,34.15416, -46.18970,
,,,34.27746, -44.98970,
,,,34.40076, -46.98970,
,,,34.52406, -47.78970,
,,,34.64736, -48.98970,
,,,34.77066, -49.78970,
,,,34.89396, -51.78970,
,,,35.01726, -52.18970,
,,,35.14056, -50.98970,
,,,35.26386, -49.38970,
,,,35.38716, -50.18970,
,,,35.51046, -49.78970,
,,,35.63376, -51.78970,
,,,35.75706, -54.58970,
,,,35.88036, -54.58970,
,,,36.00366, -54.98970,
,,,36.12696, -52.18970,
,,,36.25026, -53.38970,
,,,36.37356, -51.38970,
,,,36.49686, -54.98970,
,,,36.62016, -60.58970,
,,,36.74346, -60.58970,
,,,36.86676, -53.38970,
,,,36.99006, -53.38970,
,,,37.11336, -50.18970,
,,,37.23666, -50.58970,
,,,37.35996, -48.58970,
,,,37.48326, -47.78970,
,,,37.60656, -44.98970,
,,,37.72986, -46.58970,
,,,37.85316, -44.98970,
,,,37.97646, -44.98970,
,,,38.09976, -42.18970,
,,,38.22306, -40.58970,
,,,38.34636, -37.38970,
,,,38.46966, -27.38970,
,,,38.59296, -23.38970,
,,,38.71626, -22.58970,
,,,38.83956, -23.38970,
,,,38.96286, -32.18970,
,,,39.08616, -40.58970,
,,,39.20946, -44.98970,
,,,39.33276, -46.58970,
,,,39.45606, -47.78970,
,,,39.57936, -46.58970,
,,,39.70266, -47.38970,
,,,39.82596, -46.98970,
,,,39.94926, -49.78970,
,,,40.07256, -50.18970,
,,,40.19586, -52.98970,
,,,40.31916, -56.18970,
,,,40.44246, -53.38970,
,,,40.56576, -50.18970,
,,,40.68906, -50.18970,
,,,40.81236, -51.78970,
,,,40.93566, -54.58970,
,,,41.05896, -57.38970,
,,,41.18226, -58.58970,
,,,41.30556, -54.98970,
,,,41.42886, -51.38970,
,,,41.55216, -51.38970,
,,,41.67546, -50.98970,
,,,41.79876, -53.38970,
,,,41.92206, -53.38970,
,,,42.04536, -54.98970,
,,,42.16866, -53.38970,
,,,42.29196, -54.98970,
,,,42.41526, -50.58970,
,,,42.53856, -48.98970,
,,,42.66186, -47.38970,
,,,42.78516, -48.18970,
,,,42.90846, -48.58970,
,,,43.03176, -47.38970,
,,,43.15506, -45.38970,
,,,43.27836, -42.58970,
,,,43.40166, -39.38970,
,,,43.52496, -32.18970,
,,,43.64826, -29.38970,
,,,43.77156, -30.98970,
,,,43.89486, -32.58970,
,,,44.01816, -35.78970,
,,,44.14146, -36.58970,
,,,44.26476, -40.98970,
,,,44.38806, -42.58970,
,,,44.51136, -46.58970,
,,,44.63466, -46.18970,
,,,44.75796, -46.98970,
,,,44.88126, -46.58970,
,,,45.00456, -50.18970,
,,,45.12786, -52.98970,
,,,45.25116, -52.18970,
,,,45.37446, -52.98970,
,,,45.49776, -49.38970,
,,,45.62106, -50.98970,
,,,45.74436, -50.98970,
,,,45.86766, -51.78970,
,,,45.99096, -52.98970,
,,,46.11426, -56.18970,
,,,46.23756, -57.38970,
,,,46.36086, -56.18970,
,,,46.48416, -53.38970,
,,,46.60746, -52.18970,
,,,46.73076, -53.38970,
,,,46.85406, -53.38970,
,,,46.97736, -52.98970,
,,,47.10066, -53.38970,
,,,47.22396, -53.38970,
,,,47.34726, -56.18970,
,,,47.47056, -53.38970,
,,,47.59386, -50.98970,
,,,47.71716, -49.78970,
,,,47.84046, -49.38970,
,,,47.96376, -47.78970,
,,,48.08706, -46.58970,
,,,48.21036, -45.78970,
,,,48.33366, -44.58970,
,,,48.45696, -42.18970,
,,,48.58026, -38.18970,
,,,48.70356, -36.58970,
,,,48.82686, -30.98970,
,,,48.95016, -28.18970,
,,,49.07346, -26.98970,
,,,49.19676, -28.98970,
,,,49.32006, -37.38970,
,,,49.44336, -40.98970,
,,,49.56666, -44.58970,
,,,49.68996, -44.98970,
,,,49.81326, -46.98970,
,,,49.93656, -48.18970,
,,,50.05986, -48.58970,
,,,50.18316, -49.78970,
,,,50.30646, -48.18970,
,,,50.42976, -49.38970,
,,,50.55306, -48.58970,
,,,50.67636, -51.38970,
,,,50.79966, -52.18970,
,,,50.92296, -52.98970,
,,,51.04626, -53.38970,
,,,51.16956, -54.58970,
,,,51.29286, -54.58970,
,,,51.41616, -54.58970,
,,,51.53946, -54.98970,
,,,51.66276, -57.78970,
,,,51.78606, -53.38970,
,,,51.90936, -52.98970,
,,,52.03266, -51.78970,
,,,52.15596, -54.98970,
,,,52.27926, -53.38970,
,,,52.40256, -52.98970,
,,,52.52586, -50.18970,
,,,52.64916, -50.58970,
,,,52.77246, -50.98970,
,,,52.89576, -47.78970,
,,,53.01906, -48.98970,
,,,53.14236, -49.38970,
,,,53.26566, -48.58970,
,,,53.38896, -46.18970,
,,,53.51226, -44.98970,
,,,53.63556, -41.38970,
,,,53.75886, -36.98970,
,,,53.88216, -28.18970,
,,,54.00546, -26.58970,
,,,54.12876, -27.38970,
,,,54.25206, -30.58970,
,,,54.37536, -36.58970,
,,,54.49866, -38.98970,
,,,54.62196, -42.98970,
,,,54.74526, -44.58970,
,,,54.86856, -46.58970,
,,,54.99186, -49.38970,
,,,55.11516, -48.98970,
,,,55.23846, -48.18970,
,,,55.36176, -48.98970,
,,,55.48506, -50.58970,
,,,55.60836, -49.78970,
,,,55.73166, -51.38970,
,,,55.85496, -50.58970,
,,,55.97826, -52.58970,
,,,56.10156, -51.78970,
,,,56.22486, -54.58970,
,,,56.34816, -52.98970,
,,,56.47146, -52.98970,
,,,56.59476, -52.18970,
,,,56.71806, -50.58970,
,,,56.84136, -51.38970,
,,,56.96466, -52.58970,
,,,57.08796, -53.38970,
,,,57.21126, -51.38970,
,,,57.33456, -50.58970,
,,,57.45786, -51.38970,
,,,57.58116, -52.98970,
,,,57.70446, -51.38970,
,,,57.82776, -48.18970,
,,,57.95106, -47.78970,
,,,58.07436, -48.58970,
,,,58.19766, -48.98970,
,,,58.32096, -48.18970,
,,,58.44426, -45.78970,
,,,58.56756, -44.98970,
,,,58.69086, -42.98970,
,,,58.81416, -40.98970,
,,,58.93746, -36.18970,
,,,59.06076, -35.38970,
,,,59.18406, -32.98970,
,,,59.30736, -31.38970,
,,,59.43066, -30.18970,
,,,59.55396, -33.38970,
,,,59.67726, -39.78970,
,,,59.80056, -41.78970,
,,,59.92386, -43.78970,
,,,60.04716, -45.38970,
,,,60.17046, -46.58970,
,,,60.29376, -48.98970,
,,,60.41706, -48.58970,
,,,60.54036, -49.38970,
,,,60.66366, -48.58970,
,,,60.78696, -49.78970,
,,,60.91026, -50.18970,
,,,61.03356, -50.58970,
,,,61.15686, -49.78970,
,,,61.28016, -51.78970,
,,,61.40346, -53.38970,
,,,61.52676, -55.38970,
,,,61.65006, -52.18970,
,,,61.77336, -52.18970,
,,,61.89666, -53.38970,
,,,62.01996, -52.98970,
,,,62.14326, -53.38970,
,,,62.26656, -53.38970,
,,,62.38986, -51.38970,
,,,62.51316, -52.58970,
,,,62.63646, -51.78970,
,,,62.75976, -52.18970,
,,,62.88306, -49.78970,
,,,63.00636, -49.38970,
,,,63.12966, -50.18970,
,,,63.25296, -49.38970,
,,,63.37626, -48.58970,
,,,63.49956, -46.58970,
,,,63.62286, -47.38970,
,,,63.74616, -43.38970,
,,,63.86946, -43.38970,
,,,63.99276, -39.38970,
,,,64.11606, -30.58970,
,,,64.23936, -22.18970,
,,,64.36266, -20.98970,
,,,64.48596, -21.78970,
,,,64.60926, -26.18970,
,,,64.73256, -36.98970,
,,,64.85586, -40.18970,
,,,64.97916, -42.98970,
,,,65.10246, -45.78970,
,,,65.22576, -46.18970,
,,,65.34906, -49.38970,
,,,65.47236, -48.58970,
,,,65.59566, -50.18970,
,,,65.71896, -50.58970,
,,,65.84226, -52.18970,
,,,65.96556, -50.18970,
,,,66.08886, -50.58970,
,,,66.21216, -49.78970,
,,,66.33546, -52.18970,
,,,66.45876, -51.78970,
,,,66.58206, -53.38970,
,,,66.70536, -52.98970,
,,,66.82866, -54.98970,
,,,66.95196, -54.98970,
,,,67.07526, -57.78970,
,,,67.19856, -54.58970,
,,,67.32186, -51.78970,
,,,67.44516, -50.18970,
,,,67.56846, -51.38970,
,,,67.69176, -52.98970,
,,,67.81506, -51.38970,
,,,67.93836, -49.78970,
,,,68.06166, -49.38970,
,,,68.18496, -51.38970,
,,,68.30826, -49.38970,
,,,68.43156, -50.58970,
,,,68.55486, -46.98970,
,,,68.67816, -47.78970,
,,,68.80146, -45.78970,
,,,68.92476, -45.78970,
,,,69.04806, -42.18970,
,,,69.17136, -39.38970,
,,,69.29466, -34.58970,
,,,69.41796, -34.58970,
,,,69.54126, -34.18970,
,,,69.66456, -32.98970,
,,,69.78786, -31.78970,
,,,69.91116, -36.18970,
,,,70.03446, -40.98970,
,,,70.15776, -43.38970,
,,,70.28106, -44.58970,
,,,70.40436, -47.38970,
,,,70.52766, -47.38970,
,,,70.65096, -49.78970,
,,,70.77426, -48.98970,
,,,70.89756, -50.58970,
,,,71.02086, -48.98970,
,,,71.14416, -50.18970,
,,,71.26746, -50.18970,
,,,71.39076, -51.38970,
,,,71.51406, -53.38970,
,,,71.63736, -54.58970,
,,,71.76066, -53.38970,
,,,71.88396, -53.38970,
,,,72.00726, -52.18970,
,,,72.13056, -52.98970,
,,,72.25386, -53.38970,
,,,72.37716, -52.58970,
,,,72.50046, -52.98970,
,,,72.62376, -53.38970,
,,,72.74706, -54.98970,
,,,72.87036, -51.78970,
,,,72.99366, -50.18970,
,,,73.11696, -52.58970,
,,,73.24026, -54.98970,
,,,73.36356, -52.18970,
,,,73.48686, -50.58970,
,,,73.61016, -46.98970,
,,,73.73346, -47.38970,
,,,73.85676, -44.98970,
,,,73.98006, -45.38970,
,,,74.10336, -42.58970,
,,,74.22666, -42.58970,
,,,74.34996, -38.58970,
,,,74.47326,  -7.78970,
,,,74.59656,  -0.98970,
,,,74.71986,  -0.58970,
,,,74.84316,  -0.98970,
,,,74.96646,  -7.38970,
,,,75.08976, -38.58970,
,,,75.21306, -42.18970,
,,,75.33636, -42.98970,
,,,75.45966, -46.18970,
,,,75.58296, -45.78970,
,,,75.70626, -48.18970,
,,,75.82956, -48.58970,
,,,75.95286, -50.98970,
,,,76.07616, -50.58970,
,,,76.19946, -52.58970,
,,,76.32276, -53.38970,
,,,76.44606, -53.38970,
,,,76.56936, -51.78970,
,,,76.69266, -51.38970,
,,,76.81596, -52.58970,
,,,76.93926, -55.38970,
,,,77.06256, -52.18970,
,,,77.18586, -51.38970,
,,,77.30916, -53.38970,
,,,77.43246, -51.38970,
,,,77.55576, -52.18970,
,,,77.67906, -51.78970,
,,,77.80236, -50.98970,
,,,77.92566, -52.18970,
,,,78.04896, -51.78970,
,,,78.17226, -52.18970,
,,,78.29556, -53.38970,
,,,78.41886, -52.98970,
,,,78.54216, -51.38970,
,,,78.66546, -48.18970,
,,,78.78876, -50.18970,
,,,78.91206, -48.58970,
,,,79.03536, -48.18970,
,,,79.15866, -45.38970,
,,,79.28196, -43.78970,
,,,79.40526, -40.98970,
,,,79.52856, -36.58970,
,,,79.65186, -32.18970,
,,,79.77516, -33.38970,
,,,79.89846, -34.18970,
,,,80.02176, -34.58970,
,,,80.14506, -33.78970,
,,,80.26836, -38.98970,
,,,80.39166, -41.78970,
,,,80.51496, -44.18970,
,,,80.63826, -45.38970,
,,,80.76156, -47.38970,
,,,80.88486, -47.78970,
,,,81.00816, -49.38970,
,,,81.13146, -49.38970,
,,,81.25476, -51.38970,
,,,81.37806, -51.38970,
,,,81.50136, -53.38970,
,,,81.62466, -56.18970,
,,,81.74796, -54.98970,
,,,81.87126, -52.58970,
,,,81.99456, -51.38970,
,,,82.11786, -50.58970,
,,,82.24116, -51.78970,
,,,82.36446, -52.98970,
,,,82.48776, -57.38970,
,,,82.61106, -56.18970,
,,,82.73436, -53.38970,
,,,82.85766, -53.38970,
,,,82.98096, -52.18970,
,,,83.10426, -50.58970,
,,,83.22756, -48.98970,
,,,83.35086, -51.38970,
,,,83.47416, -51.38970,
,,,83.59746, -52.18970,
,,,83.72076, -50.98970,
,,,83.84406, -50.18970,
,,,83.96736, -48.18970,
,,,84.09066, -47.78970,
,,,84.21396, -45.78970,
,,,84.33726, -45.78970,
,,,84.46056, -42.58970,
,,,84.58386, -40.98970,
,,,84.70716, -37.38970,
,,,84.83046, -24.98970,
,,,84.95376, -20.18970,
,,,85.07706, -19.38970,
,,,85.20036, -20.18970,
,,,85.32366, -28.58970,
,,,85.44696, -38.98970,
,,,85.57026, -43.38970,
,,,85.69356, -42.98970,
,,,85.81686, -45.38970,
,,,85.94016, -46.58970,
,,,86.06346, -49.38970,
,,,86.18676, -49.38970,
,,,86.31006, -50.18970,
,,,86.43336, -51.38970,
,,,86.55666, -51.78970,
,,,86.67996, -49.78970,
,,,86.80326, -49.78970,
,,,86.92656, -51.78970,
,,,87.04986, -52.98970,
,,,87.17316, -54.58970,
,,,87.29646, -54.98970,
,,,87.41976, -54.98970,
,,,87.54306, -54.98970,
,,,87.66636, -53.38970,
,,,87.78966, -52.58970,
,,,87.91296, -53.38970,
,,,88.03626, -51.38970,
,,,88.15956, -51.38970,
,,,88.28286, -52.98970,
,,,88.40616, -54.58970,
,,,88.52946, -51.38970,
,,,88.65276, -51.78970,
,,,88.77606, -50.58970,
,,,88.89936, -50.58970,
,,,89.02266, -48.98970,
,,,89.14596, -47.38970,
,,,89.26926, -45.78970,
,,,89.39256, -44.58970,
,,,89.51586, -43.78970,
,,,89.63916, -43.38970,
,,,89.76246, -40.58970,
,,,89.88576, -33.78970,
,,,90.00906, -30.58970,
,,,90.13236, -31.78970,
,,,90.25566, -33.38970,
,,,90.37896, -35.78970,
,,,90.50226, -36.18970,
,,,90.62556, -40.58970,
,,,90.74886, -42.18970,
,,,90.87216, -45.38970,
,,,90.99546, -46.18970,
,,,91.11876, -47.78970,
,,,91.24206, -46.98970,
,,,91.36536, -49.38970,
,,,91.48866, -50.18970,
,,,91.61196, -50.18970,
,,,91.73526, -51.78970,
,,,91.85856, -52.58970,
,,,91.98186, -53.38970,
,,,92.10516, -51.38970,
,,,92.22846, -52.18970,
,,,92.35176, -52.98970,
,,,92.47506, -53.38970,
,,,92.59836, -54.58970,
,,,92.72166, -58.58970,
,,,92.84496, -60.58970,
,,,92.96826, -60.58970,
,,,93.09156, -54.58970,
,,,93.21486, -54.58970,
,,,93.33816, -51.78970,
,,,93.46146, -51.38970,
,,,93.58476, -50.18970,
,,,93.70806, -51.78970,
,,,93.83136, -50.98970,
,,,93.95466, -50.98970,
,,,94.07796, -49.38970,
,,,94.20126, -48.58970,
,,,94.32456, -48.98970,
,,,94.44786, -47.78970,
,,,94.57116, -45.78970,
,,,94.69446, -44.58970,
,,,94.81776, -42.18970,
,,,94.94106, -38.98970,
,,,95.06436, -36.98970,
,,,95.18766, -29.78970,
,,,95.31096, -26.58970,
,,,95.43426, -25.38970,
,,,95.55756, -26.98970,
,,,95.68086, -36.18970,
,,,95.80416, -40.98970,
,,,95.92746, -44.58970,
,,,96.05076, -45.38970,
,,,96.17406, -47.38970,
,,,96.29736, -48.58970,
,,,96.42066, -48.58970,
,,,96.54396, -49.38970,
,,,96.66726, -50.18970,
,,,96.79056, -51.38970,
,,,96.91386, -50.98970,
,,,97.03716, -52.58970,
,,,97.16046, -53.38970,
,,,97.28376, -53.38970,
,,,97.40706, -51.38970,
,,,97.53036, -53.38970,
,,,97.65366, -53.38970,
,,,97.77696, -56.18970,
,,,97.90026, -57.38970,
,,,98.02356, -54.98970,
,,,98.14686, -53.38970,
,,,98.27016, -52.18970,
,,,98.39346, -52.18970,
,,,98.51676, -51.78970,
,,,98.64006, -51.38970,
,,,98.76336, -50.18970,
,,,98.88666, -48.18970,
,,,99.00996, -50.18970,
,,,99.13326, -50.18970,
,,,99.25656, -50.18970,
,,,99.37986, -48.18970,
,,,99.50316, -46.58970,
,,,99.62646, -46.18970,
,,,99.74976, -44.98970,
,,,99.87306, -44.58970,
,,,99.99636, -41.38970,
,,,100.11966, -38.18970,
,,,100.24296, -29.78970,
,,,100.36626, -27.78970,
