gr5b/Yevhenii Padniuk/lab 2/fourier sin/ALL0000/F0000MTH.CSV

Record Length,1.024000e+03,,          0.00000, -63.34850,
Sample Interval,1.233033e+01,,         12.33033, -38.14850,
Trigger Point,0.000000000000e+00,,         24.66067, -29.34850,
,,,         36.99100, -28.54850,
,,,         49.32134, -28.54850,
,,,         61.65167, -33.74850,
Source,MATH,,         73.98201, -56.94850,
Vertical Units,dB,,         86.31234, -69.74850,
Vertical Scale,1.000000e+01,,         98.64268, -77.34850,
Vertical Offset,0.000000e+00,,        110.97301, -85.34850,
Horizontal Units,Hz,,        123.30335, -84.14850,
Horizontal Scale,1.262626e+03,,        135.63368, -84.14850,
Pt Fmt,Y,,        147.96402, -84.14850,
Yzero,-5.494850e+01,,        160.29435, -82.94850,
Probe Atten,1.000000e+00,,        172.62468, -88.54850,
Model Number,TDS2024C,,        184.95502, -84.14850,
Serial Number,C013728,,        197.28535, -88.54850,
Firmware Version,FV:v24.15,,        209.61569, -89.34850,
,,,221.94602, -85.34850,
,,,234.27635, -89.34850,
,,,246.60668, -94.94850,
,,,258.93701, -94.94850,
,,,271.26734, -94.94850,
,,,283.59767, -92.54850,
,,,295.92800, -86.54850,
,,,308.25833, -85.34850,
,,,320.58866, -94.94850,
,,,332.91899, -94.94850,
,,,345.24932, -92.54850,
,,,357.57965, -89.34850,
,,,369.90998, -89.34850,
,,,382.24031, -92.54850,
,,,394.57064, -94.94850,
,,,406.90097, -94.94850,
,,,419.23130, -88.54850,
,,,431.56163, -88.54850,
,,,443.89196, -88.54850,
,,,456.22229, -85.34850,
,,,468.55262, -85.34850,
,,,480.88295, -82.54850,
,,,493.21328, -82.94850,
,,,505.54361, -86.54850,
,,,517.87394, -85.34850,
,,,530.20427, -89.34850,
,,,542.53460, -92.54850,
,,,554.86493, -92.54850,
,,,567.19526, -88.54850,
,,,579.52559, -92.54850,
,,,591.85592, -92.54850,
,,,604.18625, -89.34850,
,,,616.51658, -94.94850,
,,,628.84691, -88.54850,
,,,641.17724, -76.54850,
,,,653.50757, -70.94850,
,,,665.83790, -68.54850,
,,,678.16823, -68.94850,
,,,690.49856, -71.74850,
,,,702.82889, -77.74850,
,,,715.15922, -89.34850,
,,,727.48955, -94.94850,
,,,739.81988, -94.94850,
,,,752.15021, -78.94850,
,,,764.48054, -73.74850,
,,,776.81087, -74.14850,
,,,789.14120, -75.34850,
,,,801.47153, -82.94850,
,,,813.80186, -85.34850,
,,,826.13219, -94.94850,
,,,838.46252, -88.54850,
,,,850.79285, -88.54850,
,,,863.12318, -92.54850,
,,,875.45351, -88.54850,
,,,887.78384, -92.54850,
,,,900.11417, -92.54850,
,,,912.44450, -94.94850,
,,,924.77483, -94.94850,
,,,937.10516, -94.94850,
,,,949.43549, -94.94850,
,,,961.76582, -94.94850,
,,,974.09615, -85.74850,
,,,986.42648, -78.94850,
,,,998.75681, -78.94850,
,,,1011.08714, -77.74850,
,,,1023.41747, -82.54850,
,,,1035.74780, -92.54850,
,,,1048.07813, -94.94850,
,,,1060.40846, -94.94850,
,,,1072.73879, -92.54850,
,,,1085.06912, -92.54850,
,,,1097.39945, -89.34850,
,,,1109.72978, -88.54850,
,,,1122.06011, -92.54850,
,,,1134.39044, -94.94850,
,,,1146.72077, -88.54850,
,,,1159.05110, -86.54850,
,,,1171.38143, -94.94850,
,,,1183.71176, -92.54850,
,,,1196.04209, -94.94850,
,,,1208.37242, -94.94850,
,,,1220.70275, -92.54850,
,,,1233.03308, -92.54850,
,,,1245.36341, -94.94850,
,,,1257.69374, -94.94850,
,,,1270.02407, -92.54850,
,,,1282.35440, -89.34850,
,,,1294.68473, -88.54850,
,,,1307.01506, -72.54850,
,,,1319.34539, -66.14850,
,,,1331.67572, -65.34850,
,,,1344.00605, -66.14850,
,,,1356.33638, -72.94850,
,,,1368.66671, -94.94850,
,,,1380.99704, -89.34850,
,,,1393.32737, -89.34850,
,,,1405.65770, -88.54850,
,,,1417.98803, -88.54850,
,,,1430.31836, -92.54850,
,,,1442.64869, -94.94850,
,,,1454.97902, -94.94850,
,,,1467.30935, -88.54850,
,,,1479.63968, -85.74850,
,,,1491.97001, -89.34850,
,,,1504.30034, -92.54850,
,,,1516.63067, -82.54850,
,,,1528.96100, -67.74850,
,,,1541.29133, -64.54850,
,,,1553.62166, -64.54850,
,,,1565.95199, -66.14850,
,,,1578.28232, -75.74850,
,,,1590.61265, -88.54850,
,,,1602.94298, -94.94850,
,,,1615.27331, -92.54850,
,,,1627.60364, -94.94850,
,,,1639.93397, -86.54850,
,,,1652.26430, -76.54850,
,,,1664.59463, -77.34850,
,,,1676.92496, -78.94850,
,,,1689.25529, -85.74850,
,,,1701.58562, -88.54850,
,,,1713.91595, -92.54850,
,,,1726.24628, -92.54850,
,,,1738.57661, -92.54850,
,,,1750.90694, -92.54850,
,,,1763.23727, -94.94850,
,,,1775.56760, -88.54850,
,,,1787.89793, -94.94850,
,,,1800.22826, -94.94850,
,,,1812.55859, -94.94850,
,,,1824.88892, -92.54850,
,,,1837.21925, -94.94850,
,,,1849.54958, -92.54850,
,,,1861.87991, -92.54850,
,,,1874.21024, -92.54850,
,,,1886.54057, -88.54850,
,,,1898.87090, -88.54850,
,,,1911.20123, -94.94850,
,,,1923.53156, -92.54850,
,,,1935.86189, -94.94850,
,,,1948.19222, -94.94850,
,,,1960.52255, -94.94850,
,,,1972.85288, -80.94850,
,,,1985.18321, -76.94850,
,,,1997.51354, -79.74850,
,,,2009.84387, -85.34850,
,,,2022.17420, -88.54850,
,,,2034.50453, -86.54850,
,,,2046.83486, -92.54850,
,,,2059.16519, -92.54850,
,,,2071.49552, -94.94850,
,,,2083.82585, -85.74850,
,,,2096.15618, -88.54850,
,,,2108.48651, -89.34850,
,,,2120.81684, -94.94850,
,,,2133.14717, -89.34850,
,,,2145.47750, -89.34850,
,,,2157.80783, -89.34850,
,,,2170.13816, -92.54850,
,,,2182.46849, -94.94850,
,,,2194.79882, -94.94850,
,,,2207.12915, -94.94850,
,,,2219.45948, -92.54850,
,,,2231.78981, -88.54850,
,,,2244.12014, -85.74850,
,,,2256.45047, -83.34850,
,,,2268.78080, -83.34850,
,,,2281.11113, -85.74850,
,,,2293.44146, -82.94850,
,,,2305.77179, -71.74850,
,,,2318.10212, -69.74850,
,,,2330.43245, -70.54850,
,,,2342.76278, -74.14850,
,,,2355.09311, -94.94850,
,,,2367.42344, -92.54850,
,,,2379.75377, -89.34850,
,,,2392.08410, -85.74850,
,,,2404.41443, -82.94850,
,,,2416.74476, -88.54850,
,,,2429.07509, -94.94850,
,,,2441.40542, -94.94850,
,,,2453.73575, -88.54850,
,,,2466.06608, -89.34850,
,,,2478.39641, -94.94850,
,,,2490.72674, -94.94850,
,,,2503.05707, -88.54850,
,,,2515.38740, -92.54850,
,,,2527.71773, -94.94850,
,,,2540.04806, -94.94850,
,,,2552.37839, -92.54850,
,,,2564.70872, -86.54850,
,,,2577.03905, -86.54850,
,,,2589.36938, -86.54850,
,,,2601.69971, -89.34850,
,,,2614.03004, -94.94850,
,,,2626.36037, -88.54850,
,,,2638.69070, -89.34850,
,,,2651.02103, -82.94850,
,,,2663.35136, -80.94850,
,,,2675.68169, -80.14850,
,,,2688.01202, -82.54850,
,,,2700.34235, -85.74850,
,,,2712.67268, -88.54850,
,,,2725.00301, -94.94850,
,,,2737.33334, -94.94850,
,,,2749.66367, -88.54850,
,,,2761.99400, -82.54850,
,,,2774.32433, -82.54850,
,,,2786.65466, -92.54850,
,,,2798.98499, -94.94850,
,,,2811.31532, -94.94850,
,,,2823.64565, -92.54850,
,,,2835.97598, -94.94850,
,,,2848.30631, -92.54850,
,,,2860.63664, -88.54850,
,,,2872.96697, -88.54850,
,,,2885.29730, -89.34850,
,,,2897.62763, -89.34850,
,,,2909.95796, -92.54850,
,,,2922.28829, -94.94850,
,,,2934.61862, -92.54850,
,,,2946.94895, -92.54850,
,,,2959.27928, -88.54850,
,,,2971.60961, -85.34850,
,,,2983.93994, -81.34850,
,,,2996.27027, -81.34850,
,,,3008.60060, -83.34850,
,,,3020.93093, -86.54850,
,,,3033.26126, -85.74850,
,,,3045.59159, -82.94850,
,,,3057.92192, -85.34850,
,,,3070.25225, -94.94850,
,,,3082.58258, -94.94850,
,,,3094.91291, -92.54850,
,,,3107.24324, -94.94850,
,,,3119.57357, -92.54850,
,,,3131.90390, -94.94850,
,,,3144.23423, -92.54850,
,,,3156.56456, -92.54850,
,,,3168.89489, -92.54850,
,,,3181.22522, -88.54850,
,,,3193.55555, -89.34850,
,,,3205.88588, -89.34850,
,,,3218.21621, -94.94850,
,,,3230.54654, -94.94850,
,,,3242.87687, -89.34850,
,,,3255.20720, -88.54850,
,,,3267.53753, -92.54850,
,,,3279.86786, -89.34850,
,,,3292.19819, -85.74850,
,,,3304.52852, -88.54850,
,,,3316.85885, -76.94850,
,,,3329.18918, -74.14850,
,,,3341.51951, -74.94850,
,,,3353.84984, -79.74850,
,,,3366.18017, -92.54850,
,,,3378.51050, -86.54850,
,,,3390.84083, -88.54850,
,,,3403.17116, -89.34850,
,,,3415.50149, -92.54850,
,,,3427.83182, -88.54850,
,,,3440.16215, -85.74850,
,,,3452.49248, -82.94850,
,,,3464.82281, -85.74850,
,,,3477.15314, -92.54850,
,,,3489.48347, -89.34850,
,,,3501.81380, -86.54850,
,,,3514.14413, -89.34850,
,,,3526.47446, -94.94850,
,,,3538.80479, -82.54850,
,,,3551.13512, -80.14850,
,,,3563.46545, -79.34850,
,,,3575.79578, -81.34850,
,,,3588.12611, -88.54850,
,,,3600.45644, -94.94850,
,,,3612.78677, -89.34850,
,,,3625.11710, -76.94850,
,,,3637.44743, -67.74850,
,,,3649.77776, -66.14850,
,,,3662.10809, -65.74850,
,,,3674.43842, -70.54850,
,,,3686.76875, -89.34850,
,,,3699.09908, -89.34850,
,,,3711.42941, -94.94850,
,,,3723.75974, -94.94850,
,,,3736.09007, -84.14850,
,,,3748.42040, -82.54850,
,,,3760.75073, -80.14850,
,,,3773.08106, -82.54850,
,,,3785.41139, -83.34850,
,,,3797.74172, -82.54850,
,,,3810.07205, -85.34850,
,,,3822.40238, -94.94850,
,,,3834.73271, -89.34850,
,,,3847.06304, -92.54850,
,,,3859.39337, -92.54850,
,,,3871.72370, -94.94850,
,,,3884.05403, -94.94850,
,,,3896.38436, -94.94850,
,,,3908.71469, -92.54850,
,,,3921.04502, -89.34850,
,,,3933.37535, -81.34850,
,,,3945.70568, -78.54850,
,,,3958.03601, -76.54850,
,,,3970.36634, -71.34850,
,,,3982.69667, -70.94850,
,,,3995.02700, -72.54850,
,,,4007.35733, -77.34850,
,,,4019.68766, -94.94850,
,,,4032.01799, -92.54850,
,,,4044.34832, -94.94850,
,,,4056.67865, -89.34850,
,,,4069.00898, -84.14850,
,,,4081.33931, -80.94850,
,,,4093.66964, -81.34850,
,,,4105.99997, -79.74850,
,,,4118.33030, -82.54850,
,,,4130.66063, -86.54850,
,,,4142.99096, -88.54850,
,,,4155.32129, -92.54850,
,,,4167.65162, -92.54850,
,,,4179.98195, -86.54850,
,,,4192.31228, -88.54850,
,,,4204.64261, -88.54850,
,,,4216.97294, -88.54850,
,,,4229.30327, -82.94850,
,,,4241.63360, -80.14850,
,,,4253.96393, -79.34850,
,,,4266.29426, -79.34850,
,,,4278.62459, -79.34850,
,,,4290.95492, -78.94850,
,,,4303.28525, -77.34850,
,,,4315.61558, -75.74850,
,,,4327.94591, -76.54850,
,,,4340.27624, -79.34850,
,,,4352.60657, -83.34850,
,,,4364.93690, -94.94850,
,,,4377.26723, -78.54850,
,,,4389.59756, -76.14850,
,,,4401.92789, -76.54850,
,,,4414.25822, -78.14850,
,,,4426.58855, -81.34850,
,,,4438.91888, -84.14850,
,,,4451.24921, -94.94850,
,,,4463.57954, -85.34850,
,,,4475.90987, -82.54850,
,,,4488.24020, -82.54850,
,,,4500.57053, -88.54850,
,,,4512.90086, -94.94850,
,,,4525.23119, -81.34850,
,,,4537.56152, -74.14850,
,,,4549.89185, -73.74850,
,,,4562.22218, -76.14850,
,,,4574.55251, -88.54850,
,,,4586.88284, -84.14850,
,,,4599.21317, -82.54850,
,,,4611.54350, -85.74850,
,,,4623.87383, -79.74850,
,,,4636.20416, -70.54850,
,,,4648.53449, -68.94850,
,,,4660.86482, -68.54850,
,,,4673.19515, -74.94850,
,,,4685.52548, -82.94850,
,,,4697.85581, -78.54850,
,,,4710.18614, -76.94850,
,,,4722.51647, -79.34850,
,,,4734.84680, -82.94850,
,,,4747.17713, -88.54850,
,,,4759.50746, -89.34850,
,,,4771.83779, -88.54850,
,,,4784.16812, -85.34850,
,,,4796.49845, -88.54850,
,,,4808.82878, -92.54850,
,,,4821.15911, -84.14850,
,,,4833.48944, -77.74850,
,,,4845.81977, -76.54850,
,,,4858.15010, -77.74850,
,,,4870.48043, -84.14850,
,,,4882.81076, -92.54850,
,,,4895.14109, -88.54850,
,,,4907.47142, -92.54850,
,,,4919.80175, -94.94850,
,,,4932.13208, -92.54850,
,,,4944.46241, -94.94850,
,,,4956.79274, -92.54850,
,,,4969.12307, -88.54850,
,,,4981.45340, -81.34850,
,,,4993.78373, -82.54850,
,,,5006.11406, -80.94850,
,,,5018.44439, -88.54850,
,,,5030.77472, -92.54850,
,,,5043.10505, -88.54850,
,,,5055.43538, -89.34850,
,,,5067.76571, -92.54850,
,,,5080.09604, -92.54850,
,,,5092.42637, -85.74850,
,,,5104.75670, -79.74850,
,,,5117.08703, -79.74850,
,,,5129.41736, -78.14850,
,,,5141.74769, -78.54850,
,,,5154.07802, -78.54850,
,,,5166.40835, -78.94850,
,,,5178.73868, -81.34850,
,,,5191.06901, -88.54850,
,,,5203.39934, -88.54850,
,,,5215.72967, -84.14850,
,,,5228.06000, -81.34850,
,,,5240.39033, -83.34850,
,,,5252.72066, -89.34850,
,,,5265.05099, -94.94850,
,,,5277.38132, -94.94850,
,,,5289.71165, -94.94850,
,,,5302.04198, -94.94850,
,,,5314.37231, -88.54850,
,,,5326.70264, -88.54850,
,,,5339.03297, -85.74850,
,,,5351.36330, -88.54850,
,,,5363.69363, -94.94850,
,,,5376.02396, -88.54850,
,,,5388.35429, -89.34850,
,,,5400.68462, -92.54850,
,,,5413.01495, -89.34850,
,,,5425.34528, -85.74850,
,,,5437.67561, -89.34850,
,,,5450.00594, -88.54850,
,,,5462.33627, -88.54850,
,,,5474.66660, -88.54850,
,,,5486.99693, -94.94850,
,,,5499.32726, -85.74850,
,,,5511.65759, -88.54850,
,,,5523.98792, -92.54850,
,,,5536.31825, -88.54850,
,,,5548.64858, -94.94850,
,,,5560.97891, -94.94850,
,,,5573.30924, -86.54850,
,,,5585.63957, -78.14850,
,,,5597.96990, -76.14850,
,,,5610.30023, -75.34850,
,,,5622.63056, -85.34850,
,,,5634.96089, -76.94850,
,,,5647.29122, -74.14850,
,,,5659.62155, -74.54850,
,,,5671.95188, -80.54850,
,,,5684.28221, -82.94850,
,,,5696.61254, -82.94850,
,,,5708.94287, -85.74850,
,,,5721.27320, -79.34850,
,,,5733.60353, -76.54850,
,,,5745.93386, -77.34850,
,,,5758.26419, -77.34850,
,,,5770.59452, -80.94850,
,,,5782.92485, -94.94850,
,,,5795.25518, -94.94850,
,,,5807.58551, -94.94850,
,,,5819.91584, -94.94850,
,,,5832.24617, -94.94850,
,,,5844.57650, -94.94850,
,,,5856.90683, -92.54850,
,,,5869.23716, -88.54850,
,,,5881.56749, -78.94850,
,,,5893.89782, -76.54850,
,,,5906.22815, -75.34850,
,,,5918.55848, -77.74850,
,,,5930.88881, -85.34850,
,,,5943.21914, -94.94850,
,,,5955.54947, -88.54850,
,,,5967.87980, -75.34850,
,,,5980.21013, -71.74850,
,,,5992.54046, -71.34850,
,,,6004.87079, -72.94850,
,,,6017.20112, -81.34850,
,,,6029.53145, -85.74850,
,,,6041.86178, -79.74850,
,,,6054.19211, -77.34850,
,,,6066.52244, -78.54850,
,,,6078.85277, -81.34850,
,,,6091.18310, -86.54850,
,,,6103.51343, -82.94850,
,,,6115.84376, -82.94850,
,,,6128.17409, -84.14850,
,,,6140.50442, -86.54850,
,,,6152.83475, -88.54850,
,,,6165.16508, -86.54850,
,,,6177.49541, -85.74850,
,,,6189.82574, -84.14850,
,,,6202.15607, -84.14850,
,,,6214.48640, -86.54850,
,,,6226.81673, -94.94850,
,,,6239.14706, -92.54850,
,,,6251.47739, -88.54850,
,,,6263.80772, -82.94850,
,,,6276.13805, -83.34850,
,,,6288.46838, -74.94850,
,,,6300.79871, -67.74850,
,,,6313.12904, -66.94850,
,,,6325.45937, -67.34850,
,,,6337.78970, -72.54850,
,,,6350.12003, -82.94850,
,,,6362.45036, -84.14850,
,,,6374.78069, -84.14850,
,,,6387.11102, -88.54850,
,,,6399.44135, -85.34850,
,,,6411.77168, -89.34850,
,,,6424.10201, -92.54850,
,,,6436.43234, -92.54850,
,,,6448.76267, -94.94850,
,,,6461.09300, -94.94850,
,,,6473.42333, -89.34850,
,,,6485.75366, -84.14850,
,,,6498.08399, -82.94850,
,,,6510.41432, -82.94850,
,,,6522.74465, -89.34850,
,,,6535.07498, -89.34850,
,,,6547.40531, -88.54850,
,,,6559.73564, -88.54850,
,,,6572.06597, -92.54850,
,,,6584.39630, -92.54850,
,,,6596.72663, -94.94850,
,,,6609.05696, -94.94850,
,,,6621.38729, -92.54850,
,,,6633.71762, -77.34850,
,,,6646.04795, -75.34850,
,,,6658.37828, -75.34850,
,,,6670.70861, -77.74850,
,,,6683.03894, -85.74850,
,,,6695.36927, -85.34850,
,,,6707.69960, -88.54850,
,,,6720.02993, -88.54850,
,,,6732.36026, -89.34850,
,,,6744.69059, -84.14850,
,,,6757.02092, -86.54850,
,,,6769.35125, -92.54850,
,,,6781.68158, -82.94850,
,,,6794.01191, -77.34850,
,,,6806.34224, -75.74850,
,,,6818.67257, -76.54850,
,,,6831.00290, -84.14850,
,,,6843.33323, -92.54850,
,,,6855.66356, -85.34850,
,,,6867.99389, -84.14850,
,,,6880.32422, -86.54850,
,,,6892.65455, -85.74850,
,,,6904.98488, -88.54850,
,,,6917.31521, -89.34850,
,,,6929.64554, -88.54850,
,,,6941.97587, -85.74850,
,,,6954.30620, -86.54850,
,,,6966.63653, -88.54850,
,,,6978.96686, -86.54850,
,,,6991.29719, -85.74850,
,,,7003.62752, -92.54850,
,,,7015.95785, -85.34850,
,,,7028.28818, -88.54850,
,,,7040.61851, -94.94850,
,,,7052.94884, -94.94850,
,,,7065.27917, -88.54850,
,,,7077.60950, -92.54850,
,,,7089.93983, -89.34850,
,,,7102.27016, -85.74850,
,,,7114.60049, -85.34850,
,,,7126.93082, -88.54850,
,,,7139.26115, -81.34850,
,,,7151.59148, -79.74850,
,,,7163.92181, -81.34850,
,,,7176.25214, -85.34850,
,,,7188.58247, -92.54850,
,,,7200.91280, -88.54850,
,,,7213.24313, -85.34850,
,,,7225.57346, -88.54850,
,,,7237.90379, -78.54850,
,,,7250.23412, -76.94850,
,,,7262.56445, -74.94850,
,,,7274.89478, -78.94850,
,,,7287.22511, -68.14850,
,,,7299.55544, -65.34850,
,,,7311.88577, -65.34850,
,,,7324.21610, -67.34850,
,,,7336.54643, -79.74850,
,,,7348.87676, -94.94850,
,,,7361.20709, -92.54850,
,,,7373.53742, -94.94850,
,,,7385.86775, -82.94850,
,,,7398.19808, -78.14850,
,,,7410.52841, -77.74850,
,,,7422.85874, -79.34850,
,,,7435.18907, -92.54850,
,,,7447.51940, -82.54850,
,,,7459.84973, -80.94850,
,,,7472.18006, -82.94850,
,,,7484.51039, -88.54850,
,,,7496.84072, -92.54850,
,,,7509.17105, -89.34850,
,,,7521.50138, -88.54850,
,,,7533.83171, -88.54850,
,,,7546.16204, -94.94850,
,,,7558.49237, -88.54850,
,,,7570.82270, -88.54850,
,,,7583.15303, -82.94850,
,,,7595.48336, -76.94850,
,,,7607.81369, -76.94850,
,,,7620.14402, -80.54850,
,,,7632.47435, -94.94850,
,,,7644.80468, -85.34850,
,,,7657.13501, -88.54850,
,,,7669.46534, -92.54850,
,,,7681.79567, -88.54850,
,,,7694.12600, -80.14850,
,,,7706.45633, -77.74850,
,,,7718.78666, -76.94850,
,,,7731.11699, -77.74850,
,,,7743.44732, -76.94850,
,,,7755.77765, -76.94850,
,,,7768.10798, -76.14850,
,,,7780.43831, -78.54850,
,,,7792.76864, -85.74850,
,,,7805.09897, -89.34850,
,,,7817.42930, -94.94850,
,,,7829.75963, -85.34850,
,,,7842.08996, -76.14850,
,,,7854.42029, -72.94850,
,,,7866.75062, -72.54850,
,,,7879.08095, -76.14850,
,,,7891.41128, -94.94850,
,,,7903.74161, -81.34850,
,,,7916.07194, -80.94850,
,,,7928.40227, -85.34850,
,,,7940.73260, -86.54850,
,,,7953.06293, -84.14850,
,,,7965.39326, -88.54850,
,,,7977.72359, -82.94850,
,,,7990.05392, -78.14850,
,,,8002.38425, -79.34850,
,,,8014.71458, -80.14850,
,,,8027.04491, -82.54850,
,,,8039.37524, -81.34850,
,,,8051.70557, -79.34850,
,,,8064.03590, -80.14850,
,,,8076.36623, -84.14850,
,,,8088.69656, -94.94850,
,,,8101.02689, -84.14850,
,,,8113.35722, -82.94850,
,,,8125.68755, -84.14850,
,,,8138.01788, -92.54850,
,,,8150.34821, -85.74850,
,,,8162.67854, -81.34850,
,,,8175.00887, -80.94850,
,,,8187.33920, -78.94850,
,,,8199.66953, -77.34850,
,,,8211.99986, -77.34850,
,,,8224.33019, -79.34850,
,,,8236.66052, -84.14850,
,,,8248.99085, -85.74850,
,,,8261.32118, -92.54850,
,,,8273.65151, -85.34850,
,,,8285.98184, -76.14850,
,,,8298.31217, -72.54850,
,,,8310.64250, -72.54850,
,,,8322.97283, -75.34850,
,,,8335.30316, -88.54850,
,,,8347.63349, -82.94850,
,,,8359.96382, -82.94850,
,,,8372.29415, -79.74850,
,,,8384.62448, -82.94850,
,,,8396.95481, -85.34850,
,,,8409.28514, -92.54850,
,,,8421.61547, -88.54850,
,,,8433.94580, -92.54850,
,,,8446.27613, -85.34850,
,,,8458.60646, -82.54850,
,,,8470.93679, -82.94850,
,,,8483.26712, -88.54850,
,,,8495.59745, -88.54850,
,,,8507.92778, -94.94850,
,,,8520.25811, -94.94850,
,,,8532.58844, -89.34850,
,,,8544.91877, -94.94850,
,,,8557.24910, -92.54850,
,,,8569.57943, -94.94850,
,,,8581.90976, -88.54850,
,,,8594.24009, -89.34850,
,,,8606.57042, -83.34850,
,,,8618.90075, -70.94850,
,,,8631.23108, -68.94850,
,,,8643.56141, -68.94850,
,,,8655.89174, -70.94850,
,,,8668.22207, -79.34850,
,,,8680.55240, -89.34850,
,,,8692.88273, -94.94850,
,,,8705.21306, -88.54850,
,,,8717.54339, -85.74850,
,,,8729.87372, -92.54850,
,,,8742.20405, -80.14850,
,,,8754.53438, -75.34850,
,,,8766.86471, -74.54850,
,,,8779.19504, -78.14850,
,,,8791.52537, -83.34850,
,,,8803.85570, -78.94850,
,,,8816.18603, -78.14850,
,,,8828.51636, -78.94850,
,,,8840.84669, -80.14850,
,,,8853.17702, -84.14850,
,,,8865.50735, -85.34850,
,,,8877.83768, -92.54850,
,,,8890.16801, -88.54850,
,,,8902.49834, -83.34850,
,,,8914.82867, -82.94850,
,,,8927.15900, -80.94850,
,,,8939.48933, -92.54850,
,,,8951.81966, -72.94850,
,,,8964.14999, -69.74850,
,,,8976.48032, -69.74850,
,,,8988.81065, -71.34850,
,,,9001.14098, -81.34850,
,,,9013.47131, -88.54850,
,,,9025.80164, -92.54850,
,,,9038.13197, -92.54850,
,,,9050.46230, -82.94850,
,,,9062.79263, -82.94850,
,,,9075.12296, -84.14850,
,,,9087.45329, -84.14850,
,,,9099.78362, -82.94850,
,,,9112.11395, -81.34850,
,,,9124.44428, -81.34850,
,,,9136.77461, -85.34850,
,,,9149.10494, -83.34850,
,,,9161.43527, -89.34850,
,,,9173.76560, -94.94850,
,,,9186.09593, -88.54850,
,,,9198.42626, -78.54850,
,,,9210.75659, -75.34850,
,,,9223.08692, -74.14850,
,,,9235.41725, -80.14850,
,,,9247.74758, -84.14850,
,,,9260.07791, -80.54850,
,,,9272.40824, -82.54850,
,,,9284.73857, -92.54850,
