gr5a/Kovalenko_Danylo/lab2/1_OLD/F0000CH1.CSV

Record Length,2.500000e+03,,  -0.000004600000,  -4.32000,
Sample Interval,2.000000e-08,,  -0.000004580000,  -4.32000,
Trigger Point,2.300000000000e+02,,  -0.000004560000,  -4.40000,
,,,  -0.000004540000,  -4.32000,
,,,  -0.000004520000,  -4.40000,
,,,  -0.000004500000,  -4.40000,
Source,CH1,,  -0.000004480000,  -4.40000,
Vertical Units,V,,  -0.000004460000,  -4.32000,
Vertical Scale,2.000000e+00,,  -0.000004440000,  -4.32000,
Vertical Offset,3.200000e-01,,  -0.000004420000,  -4.32000,
Horizontal Units,s,,  -0.000004400000,  -4.40000,
Horizontal Scale,5.000000e-06,,  -0.000004380000,  -4.48000,
Pt Fmt,Y,,  -0.000004360000,  -4.40000,
Yzero,0.000000e+00,,  -0.000004340000,  -4.40000,
Probe Atten,1.000000e+01,,  -0.000004320000,  -4.40000,
Model Number,TDS1002B,,  -0.000004300000,  -4.40000,
Serial Number,C050789,,  -0.000004280000,  -4.32000,
Firmware Version,FV:v22.01,,  -0.000004260000,  -4.40000,
,,,-00.000004240000,  -4.32000,
,,,-00.000004220000,  -4.40000,
,,,-00.000004200000,  -4.48000,
,,,-00.000004180000,  -4.32000,
,,,-00.000004160000,  -4.40000,
,,,-00.000004140000,  -4.40000,
,,,-00.000004120000,  -4.40000,
,,,-00.000004100000,  -4.48000,
,,,-00.000004080000,  -4.48000,
,,,-00.000004060000,  -4.32000,
,,,-00.000004040000,  -4.40000,
,,,-00.000004020000,  -4.32000,
,,,-00.000004000000,  -4.40000,
,,,-00.000003980000,  -4.40000,
,,,-00.000003960000,  -4.32000,
,,,-00.000003940000,  -4.32000,
,,,-00.000003920000,  -4.40000,
,,,-00.000003900000,  -4.40000,
,,,-00.000003880000,  -4.32000,
,,,-00.000003860000,  -4.40000,
,,,-00.000003840000,  -4.48000,
,,,-00.000003820000,  -4.32000,
,,,-00.000003800000,  -4.32000,
,,,-00.000003780000,  -4.32000,
,,,-00.000003760000,  -4.40000,
,,,-00.000003740000,  -4.24000,
,,,-00.000003720000,  -4.40000,
,,,-00.000003700000,  -4.32000,
,,,-00.000003680000,  -4.40000,
,,,-00.000003660000,  -4.32000,
,,,-00.000003640000,  -4.24000,
,,,-00.000003620000,  -4.32000,
,,,-00.000003600000,  -4.32000,
,,,-00.000003580000,  -4.32000,
,,,-00.000003560000,  -4.40000,
,,,-00.000003540000,  -4.32000,
,,,-00.000003520000,  -4.48000,
,,,-00.000003500000,  -4.40000,
,,,-00.000003480000,  -4.40000,
,,,-00.000003460000,  -4.40000,
,,,-00.000003440000,  -4.40000,
,,,-00.000003420000,  -4.40000,
,,,-00.000003400000,  -4.48000,
,,,-00.000003380000,  -4.40000,
,,,-00.000003360000,  -4.24000,
,,,-00.000003340000,  -4.32000,
,,,-00.000003320000,  -4.40000,
,,,-00.000003300000,  -4.40000,
,,,-00.000003280000,  -4.40000,
,,,-00.000003260000,  -4.48000,
,,,-00.000003240000,  -4.32000,
,,,-00.000003220000,  -4.24000,
,,,-00.000003200000,  -4.32000,
,,,-00.000003180000,  -4.24000,
,,,-00.000003160000,  -4.48000,
,,,-00.000003140000,  -4.24000,
,,,-00.000003120000,  -4.24000,
,,,-00.000003100000,  -4.16000,
,,,-00.000003080000,  -4.24000,
,,,-00.000003060000,  -4.24000,
,,,-00.000003040000,  -4.24000,
,,,-00.000003020000,  -4.16000,
,,,-00.000003000000,  -4.24000,
,,,-00.000002980000,  -4.16000,
,,,-00.000002960000,  -4.16000,
,,,-00.000002940000,  -4.08000,
,,,-00.000002920000,  -4.08000,
,,,-00.000002900000,  -4.00000,
,,,-00.000002880000,  -4.08000,
,,,-00.000002860000,  -4.08000,
,,,-00.000002840000,  -4.00000,
,,,-00.000002820000,  -3.92000,
,,,-00.000002800000,  -3.84000,
,,,-00.000002780000,  -3.92000,
,,,-00.000002760000,  -3.84000,
,,,-00.000002740000,  -3.84000,
,,,-00.000002720000,  -3.84000,
,,,-00.000002700000,  -3.84000,
,,,-00.000002680000,  -3.76000,
,,,-00.000002660000,  -3.68000,
,,,-00.000002640000,  -3.60000,
,,,-00.000002620000,  -3.60000,
,,,-00.000002600000,  -3.68000,
,,,-00.000002580000,  -3.52000,
,,,-00.000002560000,  -3.52000,
,,,-00.000002540000,  -3.52000,
,,,-00.000002520000,  -3.44000,
,,,-00.000002500000,  -3.28000,
,,,-00.000002480000,  -3.36000,
,,,-00.000002460000,  -3.20000,
,,,-00.000002440000,  -3.20000,
,,,-00.000002420000,  -3.28000,
,,,-00.000002400000,  -3.20000,
,,,-00.000002380000,  -3.20000,
,,,-00.000002360000,  -3.12000,
,,,-00.000002340000,  -3.12000,
,,,-00.000002320000,  -3.12000,
,,,-00.000002300000,  -2.96000,
,,,-00.000002280000,  -2.96000,
,,,-00.000002260000,  -2.96000,
,,,-00.000002240000,  -2.96000,
,,,-00.000002220000,  -2.88000,
,,,-00.000002200000,  -2.88000,
,,,-00.000002180000,  -2.80000,
,,,-00.000002160000,  -2.72000,
,,,-00.000002140000,  -2.80000,
,,,-00.000002120000,  -2.72000,
,,,-00.000002100000,  -2.72000,
,,,-00.000002080000,  -2.72000,
,,,-00.000002060000,  -2.56000,
,,,-00.000002040000,  -2.56000,
,,,-00.000002020000,  -2.64000,
,,,-00.000002000000,  -2.56000,
,,,-00.000001980000,  -2.56000,
,,,-00.000001960000,  -2.48000,
,,,-00.000001940000,  -2.56000,
,,,-00.000001920000,  -2.40000,
,,,-00.000001900000,  -2.48000,
,,,-00.000001880000,  -2.48000,
,,,-00.000001860000,  -2.40000,
,,,-00.000001840000,  -2.40000,
,,,-00.000001820000,  -2.24000,
,,,-00.000001800000,  -2.24000,
,,,-00.000001780000,  -2.32000,
,,,-00.000001760000,  -2.08000,
,,,-00.000001740000,  -2.32000,
,,,-00.000001720000,  -2.08000,
,,,-00.000001700000,  -2.16000,
,,,-00.000001680000,  -2.16000,
,,,-00.000001660000,  -2.08000,
,,,-00.000001640000,  -2.00000,
,,,-00.000001620000,  -1.92000,
,,,-00.000001600000,  -2.00000,
,,,-00.000001580000,  -2.00000,
,,,-00.000001560000,  -1.84000,
,,,-00.000001540000,  -1.92000,
,,,-00.000001520000,  -1.84000,
,,,-00.000001500000,  -1.76000,
,,,-00.000001480000,  -1.76000,
,,,-00.000001460000,  -1.84000,
,,,-00.000001440000,  -1.76000,
,,,-00.000001420000,  -1.76000,
,,,-00.000001400000,  -1.68000,
,,,-00.000001380000,  -1.60000,
,,,-00.000001360000,  -1.60000,
,,,-00.000001340000,  -1.60000,
,,,-00.000001320000,  -1.60000,
,,,-00.000001300000,  -1.52000,
,,,-00.000001280000,  -1.68000,
,,,-00.000001260000,  -1.52000,
,,,-00.000001240000,  -1.52000,
,,,-00.000001220000,  -1.52000,
,,,-00.000001200000,  -1.36000,
,,,-00.000001180000,  -1.36000,
,,,-00.000001160000,  -1.36000,
,,,-00.000001140000,  -1.36000,
,,,-00.000001120000,  -1.20000,
,,,-00.000001100000,  -1.28000,
,,,-00.000001080000,  -1.36000,
,,,-00.000001060000,  -1.28000,
,,,-00.000001040000,  -1.20000,
,,,-00.000001020000,  -1.20000,
,,,-00.000001000000,  -1.20000,
,,,-00.000000980000,  -1.12000,
,,,-00.000000960000,  -1.12000,
,,,-00.000000940000,  -1.04000,
,,,-00.000000920000,  -0.96000,
,,,-00.000000900000,  -1.12000,
,,,-00.000000880000,  -1.04000,
,,,-00.000000860000,  -0.96000,
,,,-00.000000840000,  -1.04000,
,,,-00.000000820000,  -0.88000,
,,,-00.000000800000,  -0.96000,
,,,-00.000000780000,  -0.80000,
,,,-00.000000760000,  -0.80000,
,,,-00.000000740000,  -0.80000,
,,,-00.000000720000,  -0.80000,
,,,-00.000000700000,  -0.80000,
,,,-00.000000680000,  -0.72000,
,,,-00.000000660000,  -0.80000,
,,,-00.000000640000,  -0.80000,
,,,-00.000000620000,  -0.72000,
,,,-00.000000600000,  -0.72000,
,,,-00.000000580000,  -0.64000,
,,,-00.000000560000,  -0.64000,
,,,-00.000000540000,  -0.72000,
,,,-00.000000520000,  -0.56000,
,,,-00.000000500000,  -0.56000,
,,,-00.000000480000,  -0.56000,
,,,-00.000000460000,  -0.56000,
,,,-00.000000440000,  -0.56000,
,,,-00.000000420000,  -0.48000,
,,,-00.000000400000,  -0.40000,
,,,-00.000000380000,  -0.48000,
,,,-00.000000360000,  -0.48000,
,,,-00.000000340000,  -0.48000,
,,,-00.000000320000,  -0.32000,
,,,-00.000000300000,  -0.40000,
,,,-00.000000280000,  -0.32000,
,,,-00.000000260000,  -0.32000,
,,,-00.000000240000,  -0.40000,
,,,-00.000000220000,  -0.24000,
,,,-00.000000200000,  -0.32000,
,,,-00.000000180000,  -0.24000,
,,,-00.000000160000,  -0.24000,
,,,-00.000000140000,  -0.16000,
,,,-00.000000120000,  -0.16000,
,,,-00.000000100000,  -0.08000,
,,,-00.000000080000,  -0.16000,
,,,-00.000000060000,  -0.08000,
,,,-00.000000040000,  -0.16000,
,,,-00.000000020000,  -0.08000,
,,,-00.000000000000,  -0.08000,
,,,00.000000020000,   0.08000,
,,,00.000000040000,   0.00000,
,,,00.000000060000,   0.00000,
,,,00.000000080000,   0.08000,
,,,00.000000100000,   0.00000,
,,,00.000000120000,   0.08000,
,,,00.000000140000,   0.16000,
,,,00.000000160000,   0.24000,
,,,00.000000180000,   0.16000,
,,,00.000000200000,   0.16000,
,,,00.000000220000,   0.32000,
,,,00.000000240000,   0.16000,
,,,00.000000260000,   0.32000,
,,,00.000000280000,   0.16000,
,,,00.000000300000,   0.24000,
,,,00.000000320000,   0.24000,
,,,00.000000340000,   0.24000,
,,,00.000000360000,   0.40000,
,,,00.000000380000,   0.32000,
,,,00.000000400000,   0.32000,
,,,00.000000420000,   0.40000,
,,,00.000000440000,   0.40000,
,,,00.000000460000,   0.40000,
,,,00.000000480000,   0.48000,
,,,00.000000500000,   0.48000,
,,,00.000000520000,   0.48000,
,,,00.000000540000,   0.56000,
,,,00.000000560000,   0.56000,
,,,00.000000580000,   0.48000,
,,,00.000000600000,   0.56000,
,,,00.000000620000,   0.56000,
,,,00.000000640000,   0.56000,
,,,00.000000660000,   0.56000,
,,,00.000000680000,   0.64000,
,,,00.000000700000,   0.72000,
,,,00.000000720000,   0.64000,
,,,00.000000740000,   0.64000,
,,,00.000000760000,   0.80000,
,,,00.000000780000,   0.72000,
,,,00.000000800000,   0.80000,
,,,00.000000820000,   0.80000,
,,,00.000000840000,   0.80000,
,,,00.000000860000,   0.80000,
,,,00.000000880000,   0.88000,
,,,00.000000900000,   0.88000,
,,,00.000000920000,   0.88000,
,,,00.000000940000,   0.80000,
,,,00.000000960000,   0.88000,
,,,00.000000980000,   0.96000,
,,,00.000001000000,   0.96000,
,,,00.000001020000,   0.96000,
,,,00.000001040000,   1.04000,
,,,00.000001060000,   0.96000,
,,,00.000001080000,   1.04000,
,,,00.000001100000,   1.12000,
,,,00.000001120000,   1.04000,
,,,00.000001140000,   1.04000,
,,,00.000001160000,   1.12000,
,,,00.000001180000,   0.96000,
,,,00.000001200000,   1.12000,
,,,00.000001220000,   1.04000,
,,,00.000001240000,   1.04000,
,,,00.000001260000,   1.12000,
,,,00.000001280000,   1.04000,
,,,00.000001300000,   1.12000,
,,,00.000001320000,   1.20000,
,,,00.000001340000,   1.28000,
,,,00.000001360000,   1.20000,
,,,00.000001380000,   1.28000,
,,,00.000001400000,   1.20000,
,,,00.000001420000,   1.20000,
,,,00.000001440000,   1.28000,
,,,00.000001460000,   1.20000,
,,,00.000001480000,   1.20000,
,,,00.000001500000,   1.36000,
,,,00.000001520000,   1.28000,
,,,00.000001540000,   1.28000,
,,,00.000001560000,   1.36000,
,,,00.000001580000,   1.36000,
,,,00.000001600000,   1.36000,
,,,00.000001620000,   1.44000,
,,,00.000001640000,   1.52000,
,,,00.000001660000,   1.44000,
,,,00.000001680000,   1.52000,
,,,00.000001700000,   1.52000,
,,,00.000001720000,   1.52000,
,,,00.000001740000,   1.44000,
,,,00.000001760000,   1.52000,
,,,00.000001780000,   1.52000,
,,,00.000001800000,   1.52000,
,,,00.000001820000,   1.52000,
,,,00.000001840000,   1.52000,
,,,00.000001860000,   1.60000,
,,,00.000001880000,   1.60000,
,,,00.000001900000,   1.60000,
,,,00.000001920000,   1.68000,
,,,00.000001940000,   1.60000,
,,,00.000001960000,   1.68000,
,,,00.000001980000,   1.60000,
,,,00.000002000000,   1.76000,
,,,00.000002020000,   1.68000,
,,,00.000002040000,   1.68000,
,,,00.000002060000,   1.60000,
,,,00.000002080000,   1.60000,
,,,00.000002100000,   1.84000,
,,,00.000002120000,   1.76000,
,,,00.000002140000,   1.84000,
,,,00.000002160000,   1.76000,
,,,00.000002180000,   1.84000,
,,,00.000002200000,   1.92000,
,,,00.000002220000,   1.76000,
,,,00.000002240000,   1.92000,
,,,00.000002260000,   1.92000,
,,,00.000002280000,   1.84000,
,,,00.000002300000,   1.84000,
,,,00.000002320000,   1.92000,
,,,00.000002340000,   1.84000,
,,,00.000002360000,   1.92000,
,,,00.000002380000,   1.92000,
,,,00.000002400000,   2.00000,
,,,00.000002420000,   1.92000,
,,,00.000002440000,   2.00000,
,,,00.000002460000,   2.00000,
,,,00.000002480000,   2.00000,
,,,00.000002500000,   2.08000,
,,,00.000002520000,   2.00000,
,,,00.000002540000,   2.00000,
,,,00.000002560000,   2.08000,
,,,00.000002580000,   2.08000,
,,,00.000002600000,   2.08000,
,,,00.000002620000,   2.16000,
,,,00.000002640000,   2.08000,
,,,00.000002660000,   2.08000,
,,,00.000002680000,   2.08000,
,,,00.000002700000,   2.16000,
,,,00.000002720000,   2.24000,
,,,00.000002740000,   2.24000,
,,,00.000002760000,   2.32000,
,,,00.000002780000,   2.24000,
,,,00.000002800000,   2.32000,
,,,00.000002820000,   2.24000,
,,,00.000002840000,   2.32000,
,,,00.000002860000,   2.32000,
,,,00.000002880000,   2.32000,
,,,00.000002900000,   2.24000,
,,,00.000002920000,   2.32000,
,,,00.000002940000,   2.32000,
,,,00.000002960000,   2.40000,
,,,00.000002980000,   2.48000,
,,,00.000003000000,   2.40000,
,,,00.000003020000,   2.40000,
,,,00.000003040000,   2.40000,
,,,00.000003060000,   2.40000,
,,,00.000003080000,   2.56000,
,,,00.000003100000,   2.32000,
,,,00.000003120000,   2.40000,
,,,00.000003140000,   2.40000,
,,,00.000003160000,   2.40000,
,,,00.000003180000,   2.48000,
,,,00.000003200000,   2.40000,
,,,00.000003220000,   2.40000,
,,,00.000003240000,   2.48000,
,,,00.000003260000,   2.48000,
,,,00.000003280000,   2.40000,
,,,00.000003300000,   2.56000,
,,,00.000003320000,   2.56000,
,,,00.000003340000,   2.48000,
,,,00.000003360000,   2.56000,
,,,00.000003380000,   2.48000,
,,,00.000003400000,   2.56000,
,,,00.000003420000,   2.56000,
,,,00.000003440000,   2.56000,
,,,00.000003460000,   2.64000,
,,,00.000003480000,   2.56000,
,,,00.000003500000,   2.56000,
,,,00.000003520000,   2.64000,
,,,00.000003540000,   2.64000,
,,,00.000003560000,   2.64000,
,,,00.000003580000,   2.64000,
,,,00.000003600000,   2.48000,
,,,00.000003620000,   2.72000,
,,,00.000003640000,   2.72000,
,,,00.000003660000,   2.72000,
,,,00.000003680000,   2.64000,
,,,00.000003700000,   2.72000,
,,,00.000003720000,   2.64000,
,,,00.000003740000,   2.80000,
,,,00.000003760000,   2.80000,
,,,00.000003780000,   2.80000,
,,,00.000003800000,   2.72000,
,,,00.000003820000,   2.80000,
,,,00.000003840000,   2.72000,
,,,00.000003860000,   2.88000,
,,,00.000003880000,   2.72000,
,,,00.000003900000,   2.88000,
,,,00.000003920000,   2.80000,
,,,00.000003940000,   2.88000,
,,,00.000003960000,   2.80000,
,,,00.000003980000,   2.96000,
,,,00.000004000000,   2.72000,
,,,00.000004020000,   2.96000,
,,,00.000004040000,   2.80000,
,,,00.000004060000,   2.88000,
,,,00.000004080000,   2.88000,
,,,00.000004100000,   2.88000,
,,,00.000004120000,   3.04000,
,,,00.000004140000,   2.96000,
,,,00.000004160000,   2.88000,
,,,00.000004180000,   2.96000,
,,,00.000004200000,   2.96000,
,,,00.000004220000,   2.96000,
,,,00.000004240000,   3.04000,
,,,00.000004260000,   2.96000,
,,,00.000004280000,   2.96000,
,,,00.000004300000,   2.88000,
,,,00.000004320000,   3.04000,
,,,00.000004340000,   3.04000,
,,,00.000004360000,   3.04000,
,,,00.000004380000,   3.12000,
,,,00.000004400000,   3.04000,
,,,00.000004420000,   2.96000,
,,,00.000004440000,   3.04000,
,,,00.000004460000,   3.12000,
,,,00.000004480000,   3.12000,
,,,00.000004500000,   3.12000,
,,,00.000004520000,   3.12000,
,,,00.000004540000,   3.12000,
,,,00.000004560000,   3.12000,
,,,00.000004580000,   3.04000,
,,,00.000004600000,   3.20000,
,,,00.000004620000,   3.04000,
,,,00.000004640000,   3.20000,
,,,00.000004660000,   3.20000,
,,,00.000004680000,   3.20000,
,,,00.000004700000,   3.12000,
,,,00.000004720000,   3.28000,
,,,00.000004740000,   3.20000,
,,,00.000004760000,   3.28000,
,,,00.000004780000,   3.36000,
,,,00.000004800000,   3.28000,
,,,00.000004820000,   3.28000,
,,,00.000004840000,   3.36000,
,,,00.000004860000,   3.28000,
,,,00.000004880000,   3.28000,
,,,00.000004900000,   3.28000,
,,,00.000004920000,   3.28000,
,,,00.000004940000,   3.36000,
,,,00.000004960000,   3.36000,
,,,00.000004980000,   3.28000,
,,,00.000005000000,   3.36000,
,,,00.000005020000,   3.36000,
,,,00.000005040000,   3.28000,
,,,00.000005060000,   3.44000,
,,,00.000005080000,   3.44000,
,,,00.000005100000,   3.36000,
,,,00.000005120000,   3.44000,
,,,00.000005140000,   3.36000,
,,,00.000005160000,   3.52000,
,,,00.000005180000,   3.36000,
,,,00.000005200000,   3.44000,
,,,00.000005220000,   3.44000,
,,,00.000005240000,   3.36000,
,,,00.000005260000,   3.44000,
,,,00.000005280000,   3.36000,
,,,00.000005300000,   3.44000,
,,,00.000005320000,   3.36000,
,,,00.000005340000,   3.36000,
,,,00.000005360000,   3.36000,
,,,00.000005380000,   3.44000,
,,,00.000005400000,   3.36000,
,,,00.000005420000,   3.28000,
,,,00.000005440000,   3.44000,
,,,00.000005460000,   3.60000,
,,,00.000005480000,   3.44000,
,,,00.000005500000,   3.52000,
,,,00.000005520000,   3.60000,
,,,00.000005540000,   3.52000,
,,,00.000005560000,   3.52000,
,,,00.000005580000,   3.52000,
,,,00.000005600000,   3.52000,
,,,00.000005620000,   3.52000,
,,,00.000005640000,   3.52000,
,,,00.000005660000,   3.52000,
,,,00.000005680000,   3.60000,
,,,00.000005700000,   3.52000,
,,,00.000005720000,   3.52000,
,,,00.000005740000,   3.52000,
,,,00.000005760000,   3.60000,
,,,00.000005780000,   3.60000,
,,,00.000005800000,   3.60000,
,,,00.000005820000,   3.68000,
,,,00.000005840000,   3.52000,
,,,00.000005860000,   3.60000,
,,,00.000005880000,   3.60000,
,,,00.000005900000,   3.60000,
,,,00.000005920000,   3.60000,
,,,00.000005940000,   3.68000,
,,,00.000005960000,   3.76000,
,,,00.000005980000,   3.60000,
,,,00.000006000000,   3.76000,
,,,00.000006020000,   3.68000,
,,,00.000006040000,   3.60000,
,,,00.000006060000,   3.68000,
,,,00.000006080000,   3.76000,
,,,00.000006100000,   3.92000,
,,,00.000006120000,   3.68000,
,,,00.000006140000,   3.68000,
,,,00.000006160000,   3.76000,
,,,00.000006180000,   3.76000,
,,,00.000006200000,   3.84000,
,,,00.000006220000,   3.76000,
,,,00.000006240000,   3.76000,
,,,00.000006260000,   3.68000,
,,,00.000006280000,   3.84000,
,,,00.000006300000,   3.76000,
,,,00.000006320000,   3.76000,
,,,00.000006340000,   3.84000,
,,,00.000006360000,   3.76000,
,,,00.000006380000,   3.92000,
,,,00.000006400000,   3.76000,
,,,00.000006420000,   3.68000,
,,,00.000006440000,   3.84000,
,,,00.000006460000,   3.84000,
,,,00.000006480000,   3.92000,
,,,00.000006500000,   3.76000,
,,,00.000006520000,   3.92000,
,,,00.000006540000,   3.76000,
,,,00.000006560000,   3.84000,
,,,00.000006580000,   3.92000,
,,,00.000006600000,   3.76000,
,,,00.000006620000,   3.76000,
,,,00.000006640000,   3.92000,
,,,00.000006660000,   3.84000,
,,,00.000006680000,   3.92000,
,,,00.000006700000,   3.92000,
,,,00.000006720000,   3.92000,
,,,00.000006740000,   4.00000,
,,,00.000006760000,   4.00000,
,,,00.000006780000,   3.84000,
,,,00.000006800000,   3.92000,
,,,00.000006820000,   4.00000,
,,,00.000006840000,   4.08000,
,,,00.000006860000,   3.92000,
,,,00.000006880000,   3.92000,
,,,00.000006900000,   4.00000,
,,,00.000006920000,   3.92000,
,,,00.000006940000,   4.16000,
,,,00.000006960000,   4.00000,
,,,00.000006980000,   4.08000,
,,,00.000007000000,   4.08000,
,,,00.000007020000,   3.92000,
,,,00.000007040000,   4.16000,
,,,00.000007060000,   4.00000,
,,,00.000007080000,   4.00000,
,,,00.000007100000,   4.08000,
,,,00.000007120000,   3.92000,
,,,00.000007140000,   4.08000,
,,,00.000007160000,   4.00000,
,,,00.000007180000,   4.00000,
,,,00.000007200000,   4.16000,
,,,00.000007220000,   4.08000,
,,,00.000007240000,   4.08000,
,,,00.000007260000,   3.92000,
,,,00.000007280000,   3.92000,
,,,00.000007300000,   4.00000,
,,,00.000007320000,   4.00000,
,,,00.000007340000,   4.00000,
,,,00.000007360000,   4.00000,
,,,00.000007380000,   4.08000,
,,,00.000007400000,   3.92000,
,,,00.000007420000,   4.08000,
,,,00.000007440000,   4.16000,
,,,00.000007460000,   4.00000,
,,,00.000007480000,   4.08000,
,,,00.000007500000,   4.16000,
,,,00.000007520000,   4.16000,
,,,00.000007540000,   4.08000,
,,,00.000007560000,   4.08000,
,,,00.000007580000,   4.08000,
,,,00.000007600000,   4.16000,
,,,00.000007620000,   4.08000,
,,,00.000007640000,   4.16000,
,,,00.000007660000,   4.16000,
,,,00.000007680000,   4.16000,
,,,00.000007700000,   4.08000,
,,,00.000007720000,   4.16000,
,,,00.000007740000,   4.16000,
,,,00.000007760000,   4.16000,
,,,00.000007780000,   4.16000,
,,,00.000007800000,   4.16000,
,,,00.000007820000,   4.24000,
,,,00.000007840000,   4.16000,
,,,00.000007860000,   4.24000,
,,,00.000007880000,   4.16000,
,,,00.000007900000,   4.16000,
