gr5a/Volodymyr Svintozelskyi/Lab 2/SSSSS/ALL0007/F0007MTH.CSV

Record Length,1.024000e+03,,          0.00000,  36.61030,
Sample Interval,4.932134e-02,,          0.04932,  39.41030,
Trigger Point,0.000000000000e+00,,          0.09864,  32.61030,
,,,          0.14796, -24.58970,
,,,          0.19729, -26.98970,
,,,          0.24661, -24.58970,
Source,MATH,,          0.29593, -26.98970,
Vertical Units,dB,,          0.34525, -24.58970,
Vertical Scale,1.000000e+01,,          0.39457, -26.98970,
Vertical Offset,0.000000e+00,,          0.44389, -26.98970,
Horizontal Units,Hz,,          0.49321, -26.98970,
Horizontal Scale,5.050505e+00,,          0.54253, -24.58970,
Pt Fmt,Y,,          0.59186, -26.98970,
Yzero,1.301030e+01,,          0.64118, -26.98970,
Probe Atten,1.000000e+00,,          0.69050, -26.98970,
Model Number,TDS1002B,,          0.73982, -26.98970,
Serial Number,C040425,,          0.78914, -26.98970,
Firmware Version,FV:v22.01,,          0.83846, -26.98970,
,,,0.88778, -26.98970,
,,,0.93710, -26.98970,
,,,0.98642, -26.98970,
,,,1.03574, -26.98970,
,,,1.08506, -26.98970,
,,,1.13438, -26.98970,
,,,1.18370, -26.98970,
,,,1.23302, -26.98970,
,,,1.28234, -26.98970,
,,,1.33166, -26.98970,
,,,1.38098, -26.98970,
,,,1.43030, -26.98970,
,,,1.47962, -26.98970,
,,,1.52894, -26.98970,
,,,1.57826, -26.98970,
,,,1.62758, -26.98970,
,,,1.67690, -20.58970,
,,,1.72622, -20.58970,
,,,1.77554, -21.38970,
,,,1.82486, -26.98970,
,,,1.87418, -26.98970,
,,,1.92350, -26.98970,
,,,1.97282, -24.58970,
,,,2.02214, -26.98970,
,,,2.07146, -26.98970,
,,,2.12078, -24.58970,
,,,2.17010, -26.98970,
,,,2.21942, -24.58970,
,,,2.26874, -26.98970,
,,,2.31806, -26.98970,
,,,2.36738, -26.98970,
,,,2.41670, -26.98970,
,,,2.46602, -24.58970,
,,,2.51534, -26.98970,
,,,2.56466, -26.98970,
,,,2.61398, -26.98970,
,,,2.66330, -24.58970,
,,,2.71262, -26.98970,
,,,2.76194, -26.98970,
,,,2.81126, -26.98970,
,,,2.86058, -26.98970,
,,,2.90990, -26.98970,
,,,2.95922, -26.98970,
,,,3.00854, -26.98970,
,,,3.05786, -26.98970,
,,,3.10718, -26.98970,
,,,3.15650, -26.98970,
,,,3.20582, -24.58970,
,,,3.25514, -26.98970,
,,,3.30446, -26.98970,
,,,3.35378, -26.98970,
,,,3.40310, -24.58970,
,,,3.45242, -26.98970,
,,,3.50174, -26.98970,
,,,3.55106, -26.98970,
,,,3.60038, -24.58970,
,,,3.64970, -26.98970,
,,,3.69902, -26.98970,
,,,3.74834, -24.58970,
,,,3.79766, -26.98970,
,,,3.84698, -26.98970,
,,,3.89630, -26.98970,
,,,3.94562, -26.98970,
,,,3.99494, -26.98970,
,,,4.04426, -26.98970,
,,,4.09358, -26.98970,
,,,4.14290, -26.98970,
,,,4.19222, -26.98970,
,,,4.24154, -26.98970,
,,,4.29086, -26.98970,
,,,4.34018, -26.98970,
,,,4.38950, -26.98970,
,,,4.43882, -26.98970,
,,,4.48814, -26.98970,
,,,4.53746, -26.98970,
,,,4.58678, -26.98970,
,,,4.63610, -26.98970,
,,,4.68542, -26.98970,
,,,4.73474, -26.98970,
,,,4.78406, -26.98970,
,,,4.83338, -26.98970,
,,,4.88270, -24.58970,
,,,4.93202, -24.58970,
,,,4.98134, -26.98970,
,,,5.03066, -24.58970,
,,,5.07998, -26.98970,
,,,5.12930, -26.98970,
,,,5.17862, -24.58970,
,,,5.22794, -20.58970,
,,,5.27726, -20.58970,
,,,5.32658, -24.58970,
,,,5.37590, -26.98970,
,,,5.42522, -26.98970,
,,,5.47454, -26.98970,
,,,5.52386, -26.98970,
,,,5.57318, -26.98970,
,,,5.62250, -26.98970,
,,,5.67182, -26.98970,
,,,5.72114, -26.98970,
,,,5.77046, -26.98970,
,,,5.81978, -26.98970,
,,,5.86910, -26.98970,
,,,5.91842, -26.98970,
,,,5.96774, -26.98970,
,,,6.01706, -26.98970,
,,,6.06638, -26.98970,
,,,6.11570, -26.98970,
,,,6.16502, -26.98970,
,,,6.21434, -26.98970,
,,,6.26366, -26.98970,
,,,6.31298, -24.58970,
,,,6.36230, -26.98970,
,,,6.41162, -26.98970,
,,,6.46094, -26.98970,
,,,6.51026, -26.98970,
,,,6.55958, -24.58970,
,,,6.60890, -24.58970,
,,,6.65822, -24.58970,
,,,6.70754, -26.98970,
,,,6.75686, -26.98970,
,,,6.80618, -26.98970,
,,,6.85550, -26.98970,
,,,6.90482, -26.98970,
,,,6.95414, -26.98970,
,,,7.00346, -26.98970,
,,,7.05278, -26.98970,
,,,7.10210, -24.58970,
,,,7.15142, -21.38970,
,,,7.20074, -26.98970,
,,,7.25006, -26.98970,
,,,7.29938, -26.98970,
,,,7.34870, -26.98970,
,,,7.39802, -26.98970,
,,,7.44734, -26.98970,
,,,7.49666, -26.98970,
,,,7.54598, -20.58970,
,,,7.59530, -16.18970,
,,,7.64462, -16.18970,
,,,7.69394, -16.18970,
,,,7.74326, -26.98970,
,,,7.79258, -26.98970,
,,,7.84190, -24.58970,
,,,7.89122, -26.98970,
,,,7.94054, -20.58970,
,,,7.98986, -26.98970,
,,,8.03918, -26.98970,
,,,8.08850, -26.98970,
,,,8.13782, -26.98970,
,,,8.18714, -26.98970,
,,,8.23646, -26.98970,
,,,8.28578, -26.98970,
,,,8.33510, -26.98970,
,,,8.38442, -26.98970,
,,,8.43374, -26.98970,
,,,8.48306, -26.98970,
,,,8.53238, -26.98970,
,,,8.58170, -26.98970,
,,,8.63102, -26.98970,
,,,8.68034, -18.58970,
,,,8.72966,  -7.38970,
,,,8.77898,  -5.38970,
,,,8.82830,  -5.78970,
,,,8.87762,  -8.58970,
,,,8.92694, -21.38970,
,,,8.97626, -26.98970,
,,,9.02558, -26.98970,
,,,9.07490, -26.98970,
,,,9.12422, -26.98970,
,,,9.17354, -26.98970,
,,,9.22286, -26.98970,
,,,9.27218, -26.98970,
,,,9.32150, -26.98970,
,,,9.37082, -26.98970,
,,,9.42014, -24.58970,
,,,9.46946, -26.98970,
,,,9.51878, -26.98970,
,,,9.56810, -26.98970,
,,,9.61742, -26.98970,
,,,9.66674, -20.58970,
,,,9.71606, -24.58970,
,,,9.76538, -12.98970,
,,,9.81470,  -7.38970,
,,,9.86402,  11.41030,
,,,9.91334,  23.41030,
,,,9.96266,  25.01030,
,,,10.01198,  25.01030,
,,,10.06130,  21.81030,
,,,10.11062,   5.81030,
,,,10.15994,  -8.18970,
,,,10.20926, -20.58970,
,,,10.25858, -20.58970,
,,,10.30790, -26.98970,
,,,10.35722, -26.98970,
,,,10.40654, -26.98970,
,,,10.45586, -26.98970,
,,,10.50518, -26.98970,
,,,10.55450, -26.98970,
,,,10.60382, -26.98970,
,,,10.65314, -26.98970,
,,,10.70246, -26.98970,
,,,10.75178, -26.98970,
,,,10.80110, -26.98970,
,,,10.85042, -26.98970,
,,,10.89974, -26.98970,
,,,10.94906, -26.98970,
,,,10.99838, -26.98970,
,,,11.04770, -14.98970,
,,,11.09702,  -3.78970,
,,,11.14634,  -1.78970,
,,,11.19566,  -2.18970,
,,,11.24498,  -5.78970,
,,,11.29430, -20.58970,
,,,11.34362, -26.98970,
,,,11.39294, -26.98970,
,,,11.44226, -26.98970,
,,,11.49158, -26.98970,
,,,11.54090, -26.98970,
,,,11.59022, -26.98970,
,,,11.63954, -26.98970,
,,,11.68886, -26.98970,
,,,11.73818, -26.98970,
,,,11.78750, -26.98970,
,,,11.83682, -26.98970,
,,,11.88614, -26.98970,
,,,11.93546, -26.98970,
,,,11.98478, -26.98970,
,,,12.03410, -26.98970,
,,,12.08342, -26.98970,
,,,12.13274, -26.98970,
,,,12.18206, -26.98970,
,,,12.23138, -26.98970,
,,,12.28070, -15.38970,
,,,12.33002, -13.38970,
,,,12.37934, -14.98970,
,,,12.42866, -20.58970,
,,,12.47798, -26.98970,
,,,12.52730, -26.98970,
,,,12.57662, -26.98970,
,,,12.62594, -26.98970,
,,,12.67526, -26.98970,
,,,12.72458, -26.98970,
,,,12.77390, -26.98970,
,,,12.82322, -26.98970,
,,,12.87254, -26.98970,
,,,12.92186, -26.98970,
,,,12.97118, -26.98970,
,,,13.02050, -26.98970,
,,,13.06982, -24.58970,
,,,13.11914, -26.98970,
,,,13.16846, -26.98970,
,,,13.21778, -26.98970,
,,,13.26710, -26.98970,
,,,13.31642, -26.98970,
,,,13.36574, -26.98970,
,,,13.41506, -26.98970,
,,,13.46438, -26.98970,
,,,13.51370, -21.38970,
,,,13.56302, -26.98970,
,,,13.61234, -26.98970,
,,,13.66166, -26.98970,
,,,13.71098, -26.98970,
,,,13.76030, -24.58970,
,,,13.80962, -24.58970,
,,,13.85894, -26.98970,
,,,13.90826, -26.98970,
,,,13.95758, -26.98970,
,,,14.00690, -26.98970,
,,,14.05622, -26.98970,
,,,14.10554, -26.98970,
,,,14.15486, -26.98970,
,,,14.20418, -26.98970,
,,,14.25350, -24.58970,
,,,14.30282, -26.98970,
,,,14.35214, -26.98970,
,,,14.40146, -24.58970,
,,,14.45078, -26.98970,
,,,14.50010, -26.98970,
,,,14.54942, -26.98970,
,,,14.59874, -26.98970,
,,,14.64806, -24.58970,
,,,14.69738, -20.58970,
,,,14.74670, -20.58970,
,,,14.79602, -20.58970,
,,,14.84534, -26.98970,
,,,14.89466, -26.98970,
,,,14.94398, -26.98970,
,,,14.99330, -24.58970,
,,,15.04262, -26.98970,
,,,15.09194, -26.98970,
,,,15.14126, -26.98970,
,,,15.19058, -26.98970,
,,,15.23990, -26.98970,
,,,15.28922, -26.98970,
,,,15.33854, -26.98970,
,,,15.38786, -26.98970,
,,,15.43718, -26.98970,
,,,15.48650, -26.98970,
,,,15.53582, -26.98970,
,,,15.58514, -26.98970,
,,,15.63446, -26.98970,
,,,15.68378, -24.58970,
,,,15.73310, -26.98970,
,,,15.78242, -26.98970,
,,,15.83174, -24.58970,
,,,15.88106, -26.98970,
,,,15.93038, -26.98970,
,,,15.97970, -26.98970,
,,,16.02902, -26.98970,
,,,16.07834, -26.98970,
,,,16.12766, -26.98970,
,,,16.17698, -26.98970,
,,,16.22630, -26.98970,
,,,16.27562, -26.98970,
,,,16.32494, -26.98970,
,,,16.37426, -26.98970,
,,,16.42358, -26.98970,
,,,16.47290, -26.98970,
,,,16.52222, -24.58970,
,,,16.57154, -24.58970,
,,,16.62086, -26.98970,
,,,16.67018, -24.58970,
,,,16.71950, -24.58970,
,,,16.76882, -24.58970,
,,,16.81814, -26.98970,
,,,16.86746, -26.98970,
,,,16.91678, -26.98970,
,,,16.96610, -26.98970,
,,,17.01542, -24.58970,
,,,17.06474, -20.58970,
,,,17.11406, -18.58970,
,,,17.16338, -24.58970,
,,,17.21270, -26.98970,
,,,17.26202, -26.98970,
,,,17.31134, -26.98970,
,,,17.36066, -26.98970,
,,,17.40998, -26.98970,
,,,17.45930, -26.98970,
,,,17.50862, -26.98970,
,,,17.55794, -26.98970,
,,,17.60726, -24.58970,
,,,17.65658, -26.98970,
,,,17.70590, -26.98970,
,,,17.75522, -26.98970,
,,,17.80454, -26.98970,
,,,17.85386, -26.98970,
,,,17.90318, -26.98970,
,,,17.95250, -26.98970,
,,,18.00182, -24.58970,
,,,18.05114, -26.98970,
,,,18.10046, -26.98970,
,,,18.14978, -24.58970,
,,,18.19910, -18.58970,
,,,18.24842, -24.58970,
,,,18.29774, -26.98970,
,,,18.34706, -26.98970,
,,,18.39638, -26.98970,
,,,18.44570, -26.98970,
,,,18.49502, -26.98970,
,,,18.54434, -26.98970,
,,,18.59366, -26.98970,
,,,18.64298, -26.98970,
,,,18.69230, -26.98970,
,,,18.74162, -26.98970,
,,,18.79094, -26.98970,
,,,18.84026, -26.98970,
,,,18.88958, -26.98970,
,,,18.93890, -24.58970,
,,,18.98822, -26.98970,
,,,19.03754, -26.98970,
,,,19.08686, -26.98970,
,,,19.13618, -26.98970,
,,,19.18550, -26.98970,
,,,19.23482, -24.58970,
,,,19.28414, -26.98970,
,,,19.33346, -26.98970,
,,,19.38278, -26.98970,
,,,19.43210, -26.98970,
,,,19.48142, -26.98970,
,,,19.53074, -26.98970,
,,,19.58006, -26.98970,
,,,19.62938, -26.98970,
,,,19.67870, -21.38970,
,,,19.72802, -26.98970,
,,,19.77734, -26.98970,
,,,19.82666, -26.98970,
,,,19.87598, -21.38970,
,,,19.92530, -21.38970,
,,,19.97462, -26.98970,
,,,20.02394, -21.38970,
,,,20.07326, -26.98970,
,,,20.12258, -26.98970,
,,,20.17190, -24.58970,
,,,20.22122, -26.98970,
,,,20.27054, -26.98970,
,,,20.31986, -26.98970,
,,,20.36918, -26.98970,
,,,20.41850, -26.98970,
,,,20.46782, -26.98970,
,,,20.51714, -26.98970,
,,,20.56646, -26.98970,
,,,20.61578, -26.98970,
,,,20.66510, -26.98970,
,,,20.71442, -26.98970,
,,,20.76374, -26.98970,
,,,20.81306, -24.58970,
,,,20.86238, -24.58970,
,,,20.91170, -26.98970,
,,,20.96102, -26.98970,
,,,21.01034, -26.98970,
,,,21.05966, -26.98970,
,,,21.10898, -24.58970,
,,,21.15830, -24.58970,
,,,21.20762, -26.98970,
,,,21.25694, -26.98970,
,,,21.30626, -26.98970,
,,,21.35558, -26.98970,
,,,21.40490, -26.98970,
,,,21.45422, -26.98970,
,,,21.50354, -26.98970,
,,,21.55286, -24.58970,
,,,21.60218, -24.58970,
,,,21.65150, -24.58970,
,,,21.70082, -26.98970,
,,,21.75014, -26.98970,
,,,21.79946, -26.98970,
,,,21.84878, -24.58970,
,,,21.89810, -26.98970,
,,,21.94742, -26.98970,
,,,21.99674, -26.98970,
,,,22.04606, -24.58970,
,,,22.09538, -24.58970,
,,,22.14470, -26.98970,
,,,22.19402, -26.98970,
,,,22.24334, -26.98970,
,,,22.29266, -26.98970,
,,,22.34198, -26.98970,
,,,22.39130, -26.98970,
,,,22.44062, -26.98970,
,,,22.48994, -26.98970,
,,,22.53926, -26.98970,
,,,22.58858, -26.98970,
,,,22.63790, -26.98970,
,,,22.68722, -26.98970,
,,,22.73654, -26.98970,
,,,22.78586, -24.58970,
,,,22.83518, -26.98970,
,,,22.88450, -21.38970,
,,,22.93382, -26.98970,
,,,22.98314, -26.98970,
,,,23.03246, -26.98970,
,,,23.08178, -26.98970,
,,,23.13110, -26.98970,
,,,23.18042, -26.98970,
,,,23.22974, -26.98970,
,,,23.27906, -26.98970,
,,,23.32838, -26.98970,
,,,23.37770, -24.58970,
,,,23.42702, -24.58970,
,,,23.47634, -26.98970,
,,,23.52566, -24.58970,
,,,23.57498, -24.58970,
,,,23.62430, -26.98970,
,,,23.67362, -26.98970,
,,,23.72294, -26.98970,
,,,23.77226, -26.98970,
,,,23.82158, -26.98970,
,,,23.87090, -26.98970,
,,,23.92022, -26.98970,
,,,23.96954, -24.58970,
,,,24.01886, -21.38970,
,,,24.06818, -21.38970,
,,,24.11750, -21.38970,
,,,24.16682, -20.58970,
,,,24.21614, -20.58970,
,,,24.26546, -26.98970,
,,,24.31478, -26.98970,
,,,24.36410, -26.98970,
,,,24.41342, -26.98970,
,,,24.46274, -26.98970,
,,,24.51206, -26.98970,
,,,24.56138, -26.98970,
,,,24.61070, -26.98970,
,,,24.66002, -24.58970,
,,,24.70934, -26.98970,
,,,24.75866, -26.98970,
,,,24.80798, -26.98970,
,,,24.85730, -26.98970,
,,,24.90662, -26.98970,
,,,24.95594, -26.98970,
,,,25.00526, -26.98970,
,,,25.05458, -26.98970,
,,,25.10390, -26.98970,
,,,25.15322, -26.98970,
,,,25.20254, -26.98970,
,,,25.25186, -26.98970,
,,,25.30118, -26.98970,
,,,25.35050, -26.98970,
,,,25.39982, -26.98970,
,,,25.44914, -26.98970,
,,,25.49846, -26.98970,
,,,25.54778, -26.98970,
,,,25.59710, -26.98970,
,,,25.64642, -26.98970,
,,,25.69574, -24.58970,
,,,25.74506, -26.98970,
,,,25.79438, -26.98970,
,,,25.84370, -26.98970,
,,,25.89302, -26.98970,
,,,25.94234, -24.58970,
,,,25.99166, -26.98970,
,,,26.04098, -26.98970,
,,,26.09030, -26.98970,
,,,26.13962, -26.98970,
,,,26.18894, -26.98970,
,,,26.23826, -26.98970,
,,,26.28758, -26.98970,
,,,26.33690, -24.58970,
,,,26.38622, -20.58970,
,,,26.43554, -20.58970,
,,,26.48486, -26.98970,
,,,26.53418, -26.98970,
,,,26.58350, -24.58970,
,,,26.63282, -24.58970,
,,,26.68214, -26.98970,
,,,26.73146, -26.98970,
,,,26.78078, -24.58970,
,,,26.83010, -26.98970,
,,,26.87942, -26.98970,
,,,26.92874, -26.98970,
,,,26.97806, -26.98970,
,,,27.02738, -26.98970,
,,,27.07670, -26.98970,
,,,27.12602, -26.98970,
,,,27.17534, -26.98970,
,,,27.22466, -26.98970,
,,,27.27398, -26.98970,
,,,27.32330, -26.98970,
,,,27.37262, -26.98970,
,,,27.42194, -26.98970,
,,,27.47126, -26.98970,
,,,27.52058, -20.58970,
,,,27.56990, -17.38970,
,,,27.61922, -17.78970,
,,,27.66854, -26.98970,
,,,27.71786, -21.38970,
,,,27.76718, -24.58970,
,,,27.81650, -26.98970,
,,,27.86582, -26.98970,
,,,27.91514, -26.98970,
,,,27.96446, -26.98970,
,,,28.01378, -26.98970,
,,,28.06310, -26.98970,
,,,28.11242, -26.98970,
,,,28.16174, -26.98970,
,,,28.21106, -26.98970,
,,,28.26038, -26.98970,
,,,28.30970, -26.98970,
,,,28.35902, -26.98970,
,,,28.40834, -24.58970,
,,,28.45766, -24.58970,
,,,28.50698, -26.98970,
,,,28.55630, -26.98970,
,,,28.60562, -26.98970,
,,,28.65494, -21.38970,
,,,28.70426, -10.18970,
,,,28.75358,  -8.18970,
,,,28.80290,  -8.98970,
,,,28.85222, -12.98970,
,,,28.90154, -26.98970,
,,,28.95086, -26.98970,
,,,29.00018, -26.98970,
,,,29.04950, -26.98970,
,,,29.09882, -24.58970,
,,,29.14814, -24.58970,
,,,29.19746, -26.98970,
,,,29.24678, -24.58970,
,,,29.29610, -26.98970,
,,,29.34542, -26.98970,
,,,29.39474, -26.98970,
,,,29.44406, -26.98970,
,,,29.49338, -26.98970,
,,,29.54270, -26.98970,
,,,29.59202, -26.98970,
,,,29.64134, -26.98970,
,,,29.69066, -24.58970,
,,,29.73998, -26.98970,
,,,29.78930, -18.58970,
,,,29.83862,   3.01030,
,,,29.88794,  12.21030,
,,,29.93726,  13.41030,
,,,29.98658,  13.41030,
,,,30.03590,   8.61030,
,,,30.08522, -12.58970,
,,,30.13454, -26.98970,
,,,30.18386, -24.58970,
,,,30.23318, -26.98970,
,,,30.28250, -26.98970,
,,,30.33182, -26.98970,
,,,30.38114, -26.98970,
,,,30.43046, -26.98970,
,,,30.47978, -26.98970,
,,,30.52910, -26.98970,
,,,30.57842, -24.58970,
,,,30.62774, -26.98970,
,,,30.67706, -26.98970,
,,,30.72638, -26.98970,
,,,30.77570, -26.98970,
,,,30.82502, -21.38970,
,,,30.87434, -26.98970,
,,,30.92366, -26.98970,
,,,30.97298, -24.58970,
,,,31.02230,  -8.18970,
,,,31.07162,   0.61030,
,,,31.12094,   1.41030,
,,,31.17026,   1.41030,
,,,31.21958,  -3.38970,
,,,31.26890, -20.58970,
,,,31.31822, -26.98970,
,,,31.36754, -26.98970,
,,,31.41686, -26.98970,
,,,31.46618, -26.98970,
,,,31.51550, -26.98970,
,,,31.56482, -26.98970,
,,,31.61414, -26.98970,
,,,31.66346, -26.98970,
,,,31.71278, -26.98970,
,,,31.76210, -26.98970,
,,,31.81142, -26.98970,
,,,31.86074, -26.98970,
,,,31.91006, -26.98970,
,,,31.95938, -26.98970,
,,,32.00870, -26.98970,
,,,32.05802, -26.98970,
,,,32.10734, -26.98970,
,,,32.15666, -24.58970,
,,,32.20598, -21.38970,
,,,32.25530, -14.58970,
,,,32.30462, -13.38970,
,,,32.35394, -14.58970,
,,,32.40326, -18.58970,
,,,32.45258, -26.98970,
,,,32.50190, -26.98970,
,,,32.55122, -26.98970,
,,,32.60054, -26.98970,
,,,32.64986, -26.98970,
,,,32.69918, -26.98970,
,,,32.74850, -26.98970,
,,,32.79782, -26.98970,
,,,32.84714, -26.98970,
,,,32.89646, -26.98970,
,,,32.94578, -26.98970,
,,,32.99510, -26.98970,
,,,33.04442, -26.98970,
,,,33.09374, -26.98970,
,,,33.14306, -26.98970,
,,,33.19238, -26.98970,
,,,33.24170, -24.58970,
,,,33.29102, -24.58970,
,,,33.34034, -26.98970,
,,,33.38966, -20.58970,
,,,33.43898, -18.58970,
,,,33.48830, -18.58970,
,,,33.53762, -20.58970,
,,,33.58694, -21.38970,
,,,33.63626, -26.98970,
,,,33.68558, -26.98970,
,,,33.73490, -26.98970,
,,,33.78422, -24.58970,
,,,33.83354, -26.98970,
,,,33.88286, -26.98970,
,,,33.93218, -26.98970,
,,,33.98150, -26.98970,
,,,34.03082, -26.98970,
,,,34.08014, -26.98970,
,,,34.12946, -26.98970,
,,,34.17878, -26.98970,
,,,34.22810, -26.98970,
,,,34.27742, -26.98970,
,,,34.32674, -26.98970,
,,,34.37606, -26.98970,
,,,34.42538, -26.98970,
,,,34.47470, -26.98970,
,,,34.52402, -26.98970,
,,,34.57334, -26.98970,
,,,34.62266, -24.58970,
,,,34.67198, -26.98970,
,,,34.72130, -26.98970,
,,,34.77062, -26.98970,
,,,34.81994, -26.98970,
,,,34.86926, -26.98970,
,,,34.91858, -26.98970,
,,,34.96790, -26.98970,
,,,35.01722, -26.98970,
,,,35.06654, -26.98970,
,,,35.11586, -26.98970,
,,,35.16518, -24.58970,
,,,35.21450, -24.58970,
,,,35.26382, -26.98970,
,,,35.31314, -26.98970,
,,,35.36246, -26.98970,
,,,35.41178, -24.58970,
,,,35.46110, -26.98970,
,,,35.51042, -26.98970,
,,,35.55974, -26.98970,
,,,35.60906, -26.98970,
,,,35.65838, -26.98970,
,,,35.70770, -26.98970,
,,,35.75702, -26.98970,
,,,35.80634, -26.98970,
,,,35.85566, -24.58970,
,,,35.90498, -26.98970,
,,,35.95430, -26.98970,
,,,36.00362, -26.98970,
,,,36.05294, -26.98970,
,,,36.10226, -26.98970,
,,,36.15158, -26.98970,
,,,36.20090, -26.98970,
,,,36.25022, -26.98970,
,,,36.29954, -26.98970,
,,,36.34886, -26.98970,
,,,36.39818, -26.98970,
,,,36.44750, -24.58970,
,,,36.49682, -24.58970,
,,,36.54614, -26.98970,
,,,36.59546, -24.58970,
,,,36.64478, -24.58970,
,,,36.69410, -26.98970,
,,,36.74342, -26.98970,
,,,36.79274, -26.98970,
,,,36.84206, -26.98970,
,,,36.89138, -26.98970,
,,,36.94070, -24.58970,
,,,36.99002, -26.98970,
,,,37.03934, -26.98970,
,,,37.08866, -24.58970,
,,,37.13798, -26.98970,
,,,37.18730, -26.98970,
,,,37.23662, -26.98970,
,,,37.28594, -26.98970,
,,,37.33526, -26.98970,
,,,37.38458, -26.98970,
,,,37.43390, -26.98970,
,,,37.48322, -26.98970,
,,,37.53254, -26.98970,
,,,37.58186, -26.98970,
,,,37.63118, -26.98970,
,,,37.68050, -26.98970,
,,,37.72982, -26.98970,
,,,37.77914, -26.98970,
,,,37.82846, -26.98970,
,,,37.87778, -26.98970,
,,,37.92710, -24.58970,
,,,37.97642, -26.98970,
,,,38.02574, -26.98970,
,,,38.07506, -26.98970,
,,,38.12438, -24.58970,
,,,38.17370, -21.38970,
,,,38.22302, -26.98970,
,,,38.27234, -26.98970,
,,,38.32166, -24.58970,
,,,38.37098, -26.98970,
,,,38.42030, -24.58970,
,,,38.46962, -26.98970,
,,,38.51894, -26.98970,
,,,38.56826, -26.98970,
,,,38.61758, -26.98970,
,,,38.66690, -26.98970,
,,,38.71622, -26.98970,
,,,38.76554, -26.98970,
,,,38.81486, -26.98970,
,,,38.86418, -26.98970,
,,,38.91350, -26.98970,
,,,38.96282, -26.98970,
,,,39.01214, -26.98970,
,,,39.06146, -26.98970,
,,,39.11078, -26.98970,
,,,39.16010, -26.98970,
,,,39.20942, -26.98970,
,,,39.25874, -26.98970,
,,,39.30806, -24.58970,
,,,39.35738, -24.58970,
,,,39.40670, -26.98970,
,,,39.45602, -24.58970,
,,,39.50534, -26.98970,
,,,39.55466, -26.98970,
,,,39.60398, -24.58970,
,,,39.65330, -26.98970,
,,,39.70262, -26.98970,
,,,39.75194, -26.98970,
,,,39.80126, -26.98970,
,,,39.85058, -24.58970,
,,,39.89990, -20.58970,
,,,39.94922, -26.98970,
,,,39.99854, -26.98970,
,,,40.04786, -26.98970,
,,,40.09718, -26.98970,
,,,40.14650, -26.98970,
,,,40.19582, -26.98970,
,,,40.24514, -26.98970,
,,,40.29446, -26.98970,
,,,40.34378, -26.98970,
,,,40.39310, -26.98970,
