gr5a/lysenko_ivan/lab_2/RC/500-1000Hz_step_100Hz/ALL0011/F0011CH1.CSV

Record Length,2.500000e+03,,   0.003000000000,  -0.01400,;;;;
Sample Interval,4.000000e-06,,   0.003004000000,  -0.01200,;;;;
Trigger Point,-7.500000000000e+02,,   0.003008000000,  -0.01200,;;;;
,,,   0.003012000000,  -0.01400,;;;;
,,,   0.003016000000,  -0.01200,;;;;
,,,   0.003020000000,  -0.01400,;;;;
Source,CH1,,   0.003024000000,  -0.01400,;;;;
Vertical Units,V,,   0.003028000000,  -0.01200,;;;;
Vertical Scale,5.000000e-02,,   0.003032000000,  -0.01200,;;;;
Vertical Offset,8.000000e-03,,   0.003036000000,  -0.01400,;;;;
Horizontal Units,s,,   0.003040000000,  -0.01400,;;;;
Horizontal Scale,1.000000e-03,,   0.003044000000,  -0.01400,;;;;
Pt Fmt,Y,,   0.003048000000,  -0.01400,;;;;
Yzero,0.000000e+00,,   0.003052000000,  -0.01200,;;;;
Probe Atten,1.000000e+00,,   0.003056000000,  -0.01400,;;;;
Model Number,TDS2024C,,   0.003060000000,  -0.01400,;;;;
Serial Number,C013728,,   0.003064000000,  -0.01600,;;;;
Firmware Version,FV:v24.15,,   0.003068000000,  -0.01400,;;;;
;;;0.003072;-0.014
;;;0.003076;-0.014
;;;0.00308;-0.014
;;;0.003084;-0.014
;;;0.003088;-0.014
;;;0.003092;-0.014
;;;0.003096;-0.016
;;;0.0031;-0.012
;;;0.003104;-0.014
;;;0.003108;-0.014
;;;0.003112;-0.014
;;;0.003116;-0.014
;;;0.00312;-0.014
;;;0.003124;-0.014
;;;0.003128;-0.014
;;;0.003132;-0.012
;;;0.003136;-0.014
;;;0.00314;-0.014
;;;0.003144;-0.014
;;;0.003148;-0.014
;;;0.003152;-0.014
;;;0.003156;-0.014
;;;0.00316;-0.012
;;;0.003164;-0.014
;;;0.003168;-0.014
;;;0.003172;-0.012
;;;0.003176;-0.014
;;;0.00318;-0.012
;;;0.003184;-0.014
;;;0.003188;-0.014
;;;0.003192;-0.014
;;;0.003196;-0.014
;;;0.0032;-0.014
;;;0.003204;-0.014
;;;0.003208;-0.014
;;;0.003212;-0.012
;;;0.003216;-0.012
;;;0.00322;-0.014
;;;0.003224;-0.014
;;;0.003228;-0.012
;;;0.003232;-0.014
;;;0.003236;-0.014
;;;0.00324;-0.012
;;;0.003244;-0.012
;;;0.003248;-0.012
;;;0.003252;-0.012
;;;0.003256;-0.012
;;;0.00326;-0.01
;;;0.003264;-0.012
;;;0.003268;-0.014
;;;0.003272;-0.012
;;;0.003276;-0.014
;;;0.00328;-0.012
;;;0.003284;-0.012
;;;0.003288;-0.01
;;;0.003292;-0.012
;;;0.003296;-0.014
;;;0.0033;-0.01
;;;0.003304;-0.012
;;;0.003308;-0.01
;;;0.003312;-0.01
;;;0.003316;-0.012
;;;0.00332;-0.01
;;;0.003324;-0.012
;;;0.003328;-0.012
;;;0.003332;-0.012
;;;0.003336;-0.008
;;;0.00334;-0.008
;;;0.003344;-0.012
;;;0.003348;-0.008
;;;0.003352;-0.01
;;;0.003356;-0.01
;;;0.00336;-0.01
;;;0.003364;-0.01
;;;0.003368;-0.01
;;;0.003372;-0.008
;;;0.003376;-0.01
;;;0.00338;-0.008
;;;0.003384;-0.01
;;;0.003388;-0.006
;;;0.003392;-0.008
;;;0.003396;-0.008
;;;0.0034;-0.01
;;;0.003404;-0.01
;;;0.003408;-0.006
;;;0.003412;-0.008
;;;0.003416;-0.008
;;;0.00342;-0.006
;;;0.003424;-0.008
;;;0.003428;-0.006
;;;0.003432;-0.008
;;;0.003436;-0.008
;;;0.00344;-0.008
;;;0.003444;-0.006
;;;0.003448;-0.006
;;;0.003452;-0.008
;;;0.003456;-0.008
;;;0.00346;-0.008
;;;0.003464;-0.006
;;;0.003468;-0.006
;;;0.003472;-0.006
;;;0.003476;-0.006
;;;0.00348;-0.004
;;;0.003484;-0.006
;;;0.003488;-0.006
;;;0.003492;-0.006
;;;0.003496;-0.006
;;;0.0035;-0.004
;;;0.003504;-0.006
;;;0.003508;-0.004
;;;0.003512;-0.004
;;;0.003516;-0.004
;;;0.00352;-0.006
;;;0.003524;-0.004
;;;0.003528;-0.004
;;;0.003532;-0.004
;;;0.003536;-0.004
;;;0.00354;-0.004
;;;0.003544;-0.004
;;;0.003548;-0.004
;;;0.003552;-0.004
;;;0.003556;-0.004
;;;0.00356;-0.002
;;;0.003564;-0.004
;;;0.003568;-0.002
;;;0.003572;-0.002
;;;0.003576;-0.002
;;;0.00358;0
;;;0.003584;-0.002
;;;0.003588;-0.004
;;;0.003592;-0.002
;;;0.003596;0
;;;0.0036;0
;;;0.003604;-0.002
;;;0.003608;0
;;;0.003612;-0.002
;;;0.003616;0
;;;0.00362;0
;;;0.003624;0
;;;0.003628;0
;;;0.003632;0.002
;;;0.003636;0.002
;;;0.00364;0
;;;0.003644;0.002
;;;0.003648;0.002
;;;0.003652;0
;;;0.003656;0.002
;;;0.00366;0.002
;;;0.003664;0.002
;;;0.003668;0.002
;;;0.003672;0.002
;;;0.003676;0.004
;;;0.00368;0.004
;;;0.003684;0.004
;;;0.003688;0.002
;;;0.003692;0.004
;;;0.003696;0.002
;;;0.0037;0.004
;;;0.003704;0.004
;;;0.003708;0.004
;;;0.003712;0.004
;;;0.003716;0.002
;;;0.00372;0.002
;;;0.003724;0.006
;;;0.003728;0.004
;;;0.003732;0.006
;;;0.003736;0.002
;;;0.00374;0.006
;;;0.003744;0.004
;;;0.003748;0.006
;;;0.003752;0.004
;;;0.003756;0.004
;;;0.00376;0.006
;;;0.003764;0.006
;;;0.003768;0.004
;;;0.003772;0.006
;;;0.003776;0.004
;;;0.00378;0.006
;;;0.003784;0.006
;;;0.003788;0.004
;;;0.003792;0.006
;;;0.003796;0.006
;;;0.0038;0.006
;;;0.003804;0.008
;;;0.003808;0.008
;;;0.003812;0.006
;;;0.003816;0.006
;;;0.00382;0.006
;;;0.003824;0.008
;;;0.003828;0.008
;;;0.003832;0.008
;;;0.003836;0.01
;;;0.00384;0.008
;;;0.003844;0.008
;;;0.003848;0.01
;;;0.003852;0.01
;;;0.003856;0.012
;;;0.00386;0.008
;;;0.003864;0.008
;;;0.003868;0.01
;;;0.003872;0.01
;;;0.003876;0.01
;;;0.00388;0.012
;;;0.003884;0.01
;;;0.003888;0.01
;;;0.003892;0.008
;;;0.003896;0.008
;;;0.0039;0.012
;;;0.003904;0.008
;;;0.003908;0.01
;;;0.003912;0.012
;;;0.003916;0.008
;;;0.00392;0.008
;;;0.003924;0.01
;;;0.003928;0.01
;;;0.003932;0.012
;;;0.003936;0.01
;;;0.00394;0.012
;;;0.003944;0.012
;;;0.003948;0.01
;;;0.003952;0.012
;;;0.003956;0.01
;;;0.00396;0.01
;;;0.003964;0.012
;;;0.003968;0.012
;;;0.003972;0.012
;;;0.003976;0.008
;;;0.00398;0.01
;;;0.003984;0.012
;;;0.003988;0.012
;;;0.003992;0.012
;;;0.003996;0.012
;;;0.004;0.012
;;;0.004004;0.014
;;;0.004008;0.012
;;;0.004012;0.014
;;;0.004016;0.012
;;;0.00402;0.012
;;;0.004024;0.012
;;;0.004028;0.012
;;;0.004032;0.012
;;;0.004036;0.014
;;;0.00404;0.01
;;;0.004044;0.014
;;;0.004048;0.012
;;;0.004052;0.012
;;;0.004056;0.01
;;;0.00406;0.012
;;;0.004064;0.016
;;;0.004068;0.012
;;;0.004072;0.012
;;;0.004076;0.012
;;;0.00408;0.012
;;;0.004084;0.012
;;;0.004088;0.012
;;;0.004092;0.014
;;;0.004096;0.012
;;;0.0041;0.012
;;;0.004104;0.012
;;;0.004108;0.012
;;;0.004112;0.014
;;;0.004116;0.012
;;;0.00412;0.014
;;;0.004124;0.012
;;;0.004128;0.012
;;;0.004132;0.012
;;;0.004136;0.012
;;;0.00414;0.012
;;;0.004144;0.012
;;;0.004148;0.014
;;;0.004152;0.012
;;;0.004156;0.012
;;;0.00416;0.014
;;;0.004164;0.012
;;;0.004168;0.012
;;;0.004172;0.012
;;;0.004176;0.012
;;;0.00418;0.012
;;;0.004184;0.012
;;;0.004188;0.012
;;;0.004192;0.014
;;;0.004196;0.012
;;;0.0042;0.014
;;;0.004204;0.012
;;;0.004208;0.012
;;;0.004212;0.012
;;;0.004216;0.012
;;;0.00422;0.012
;;;0.004224;0.012
;;;0.004228;0.012
;;;0.004232;0.01
;;;0.004236;0.01
;;;0.00424;0.012
;;;0.004244;0.01
;;;0.004248;0.012
;;;0.004252;0.012
;;;0.004256;0.01
;;;0.00426;0.012
;;;0.004264;0.012
;;;0.004268;0.01
;;;0.004272;0.012
;;;0.004276;0.008
;;;0.00428;0.012
;;;0.004284;0.012
;;;0.004288;0.008
;;;0.004292;0.012
;;;0.004296;0.01
;;;0.0043;0.01
;;;0.004304;0.01
;;;0.004308;0.008
;;;0.004312;0.01
;;;0.004316;0.008
;;;0.00432;0.008
;;;0.004324;0.008
;;;0.004328;0.008
;;;0.004332;0.012
;;;0.004336;0.008
;;;0.00434;0.01
;;;0.004344;0.01
;;;0.004348;0.008
;;;0.004352;0.01
;;;0.004356;0.008
;;;0.00436;0.01
;;;0.004364;0.01
;;;0.004368;0.008
;;;0.004372;0.008
;;;0.004376;0.006
;;;0.00438;0.008
;;;0.004384;0.006
;;;0.004388;0.006
;;;0.004392;0.006
;;;0.004396;0.008
;;;0.0044;0.008
;;;0.004404;0.008
;;;0.004408;0.008
;;;0.004412;0.006
;;;0.004416;0.006
;;;0.00442;0.006
;;;0.004424;0.006
;;;0.004428;0.006
;;;0.004432;0.006
;;;0.004436;0.004
;;;0.00444;0.004
;;;0.004444;0.004
;;;0.004448;0.004
;;;0.004452;0.004
;;;0.004456;0.006
;;;0.00446;0.004
;;;0.004464;0.006
;;;0.004468;0.004
;;;0.004472;0.004
;;;0.004476;0.006
;;;0.00448;0.004
;;;0.004484;0.004
;;;0.004488;0.004
;;;0.004492;0.002
;;;0.004496;0.004
;;;0.0045;0.004
;;;0.004504;0.004
;;;0.004508;0.002
;;;0.004512;0.006
;;;0.004516;0.002
;;;0.00452;0.004
;;;0.004524;0.002
;;;0.004528;0.002
;;;0.004532;0
;;;0.004536;0.004
;;;0.00454;0.002
;;;0.004544;0.002
;;;0.004548;0.004
;;;0.004552;0.002
;;;0.004556;0
;;;0.00456;0.002
;;;0.004564;0.002
;;;0.004568;0.002
;;;0.004572;0
;;;0.004576;0.002
;;;0.00458;0
;;;0.004584;0
;;;0.004588;0
;;;0.004592;0.002
;;;0.004596;0
;;;0.0046;-0.002
;;;0.004604;-0.002
;;;0.004608;-0.002
;;;0.004612;0
;;;0.004616;-0.002
;;;0.00462;-0.002
;;;0.004624;-0.002
;;;0.004628;0
;;;0.004632;-0.004
;;;0.004636;-0.004
;;;0.00464;-0.002
;;;0.004644;-0.004
;;;0.004648;-0.002
;;;0.004652;-0.004
;;;0.004656;-0.002
;;;0.00466;-0.002
;;;0.004664;-0.004
;;;0.004668;-0.004
;;;0.004672;-0.004
;;;0.004676;-0.004
;;;0.00468;-0.004
;;;0.004684;-0.004
;;;0.004688;-0.004
;;;0.004692;-0.004
;;;0.004696;-0.004
;;;0.0047;-0.006
;;;0.004704;-0.004
;;;0.004708;-0.006
;;;0.004712;-0.004
;;;0.004716;-0.006
;;;0.00472;-0.008
;;;0.004724;-0.006
;;;0.004728;-0.004
;;;0.004732;-0.006
;;;0.004736;-0.004
;;;0.00474;-0.006
;;;0.004744;-0.006
;;;0.004748;-0.006
;;;0.004752;-0.008
;;;0.004756;-0.006
;;;0.00476;-0.008
;;;0.004764;-0.008
;;;0.004768;-0.006
;;;0.004772;-0.006
;;;0.004776;-0.008
;;;0.00478;-0.01
;;;0.004784;-0.008
;;;0.004788;-0.008
;;;0.004792;-0.01
;;;0.004796;-0.008
;;;0.0048;-0.006
;;;0.004804;-0.008
;;;0.004808;-0.008
;;;0.004812;-0.008
;;;0.004816;-0.008
;;;0.00482;-0.01
;;;0.004824;-0.008
;;;0.004828;-0.01
;;;0.004832;-0.008
;;;0.004836;-0.01
;;;0.00484;-0.01
;;;0.004844;-0.01
;;;0.004848;-0.01
;;;0.004852;-0.008
;;;0.004856;-0.01
;;;0.00486;-0.008
;;;0.004864;-0.008
;;;0.004868;-0.01
;;;0.004872;-0.01
;;;0.004876;-0.01
;;;0.00488;-0.01
;;;0.004884;-0.01
;;;0.004888;-0.012
;;;0.004892;-0.012
;;;0.004896;-0.01
;;;0.0049;-0.012
;;;0.004904;-0.01
;;;0.004908;-0.012
;;;0.004912;-0.012
;;;0.004916;-0.01
;;;0.00492;-0.01
;;;0.004924;-0.012
;;;0.004928;-0.012
;;;0.004932;-0.014
;;;0.004936;-0.012
;;;0.00494;-0.014
;;;0.004944;-0.012
;;;0.004948;-0.012
;;;0.004952;-0.014
;;;0.004956;-0.012
;;;0.00496;-0.014
;;;0.004964;-0.012
;;;0.004968;-0.012
;;;0.004972;-0.012
;;;0.004976;-0.012
;;;0.00498;-0.01
;;;0.004984;-0.014
;;;0.004988;-0.014
;;;0.004992;-0.014
;;;0.004996;-0.012
;;;0.005;-0.014
;;;0.005004;-0.014
;;;0.005008;-0.01
;;;0.005012;-0.012
;;;0.005016;-0.014
;;;0.00502;-0.014
;;;0.005024;-0.014
;;;0.005028;-0.012
;;;0.005032;-0.014
;;;0.005036;-0.014
;;;0.00504;-0.014
;;;0.005044;-0.014
;;;0.005048;-0.016
;;;0.005052;-0.012
;;;0.005056;-0.014
;;;0.00506;-0.014
;;;0.005064;-0.014
;;;0.005068;-0.012
;;;0.005072;-0.016
;;;0.005076;-0.014
;;;0.00508;-0.014
;;;0.005084;-0.012
;;;0.005088;-0.014
;;;0.005092;-0.014
;;;0.005096;-0.014
;;;0.0051;-0.016
;;;0.005104;-0.014
;;;0.005108;-0.014
;;;0.005112;-0.014
;;;0.005116;-0.014
;;;0.00512;-0.014
;;;0.005124;-0.014
;;;0.005128;-0.014
;;;0.005132;-0.012
;;;0.005136;-0.014
;;;0.00514;-0.012
;;;0.005144;-0.012
;;;0.005148;-0.014
;;;0.005152;-0.012
;;;0.005156;-0.014
;;;0.00516;-0.012
;;;0.005164;-0.012
;;;0.005168;-0.014
;;;0.005172;-0.012
;;;0.005176;-0.014
;;;0.00518;-0.014
;;;0.005184;-0.014
;;;0.005188;-0.014
;;;0.005192;-0.014
;;;0.005196;-0.01
;;;0.0052;-0.014
;;;0.005204;-0.014
;;;0.005208;-0.014
;;;0.005212;-0.012
;;;0.005216;-0.014
;;;0.00522;-0.014
;;;0.005224;-0.014
;;;0.005228;-0.012
;;;0.005232;-0.014
;;;0.005236;-0.012
;;;0.00524;-0.014
;;;0.005244;-0.012
;;;0.005248;-0.012
;;;0.005252;-0.012
;;;0.005256;-0.012
;;;0.00526;-0.012
;;;0.005264;-0.012
;;;0.005268;-0.012
;;;0.005272;-0.01
;;;0.005276;-0.012
;;;0.00528;-0.014
;;;0.005284;-0.012
;;;0.005288;-0.012
;;;0.005292;-0.01
;;;0.005296;-0.01
;;;0.0053;-0.01
;;;0.005304;-0.01
;;;0.005308;-0.012
;;;0.005312;-0.01
;;;0.005316;-0.008
;;;0.00532;-0.012
;;;0.005324;-0.01
;;;0.005328;-0.008
;;;0.005332;-0.01
;;;0.005336;-0.01
;;;0.00534;-0.01
;;;0.005344;-0.01
;;;0.005348;-0.01
;;;0.005352;-0.012
;;;0.005356;-0.01
;;;0.00536;-0.008
;;;0.005364;-0.008
;;;0.005368;-0.008
;;;0.005372;-0.008
;;;0.005376;-0.008
;;;0.00538;-0.008
;;;0.005384;-0.008
;;;0.005388;-0.008
;;;0.005392;-0.008
;;;0.005396;-0.008
;;;0.0054;-0.01
;;;0.005404;-0.008
;;;0.005408;-0.008
;;;0.005412;-0.008
;;;0.005416;-0.008
;;;0.00542;-0.008
;;;0.005424;-0.008
;;;0.005428;-0.006
;;;0.005432;-0.008
;;;0.005436;-0.008
;;;0.00544;-0.006
;;;0.005444;-0.008
;;;0.005448;-0.006
;;;0.005452;-0.008
;;;0.005456;-0.006
;;;0.00546;-0.006
;;;0.005464;-0.006
;;;0.005468;-0.006
;;;0.005472;-0.004
;;;0.005476;-0.006
;;;0.00548;-0.006
;;;0.005484;-0.004
;;;0.005488;-0.006
;;;0.005492;-0.004
;;;0.005496;-0.004
;;;0.0055;-0.006
;;;0.005504;-0.006
;;;0.005508;-0.004
;;;0.005512;-0.004
;;;0.005516;-0.004
;;;0.00552;-0.004
;;;0.005524;-0.004
;;;0.005528;-0.004
;;;0.005532;-0.004
;;;0.005536;-0.002
;;;0.00554;-0.004
;;;0.005544;-0.004
;;;0.005548;-0.002
;;;0.005552;-0.002
;;;0.005556;-0.002
;;;0.00556;-0.002
;;;0.005564;0
;;;0.005568;-0.002
;;;0.005572;0
;;;0.005576;-0.004
;;;0.00558;0
;;;0.005584;0
;;;0.005588;-0.002
;;;0.005592;0
;;;0.005596;-0.004
;;;0.0056;-0.002
;;;0.005604;0
;;;0.005608;0
;;;0.005612;0
;;;0.005616;0
;;;0.00562;0
;;;0.005624;0
;;;0.005628;0
;;;0.005632;0
;;;0.005636;0
;;;0.00564;0
;;;0.005644;0.002
;;;0.005648;0.002
;;;0.005652;0
;;;0.005656;0.002
;;;0.00566;0.002
;;;0.005664;0.002
;;;0.005668;0.002
;;;0.005672;0.004
;;;0.005676;0.002
;;;0.00568;0.004
;;;0.005684;0.002
;;;0.005688;0.002
;;;0.005692;0.002
;;;0.005696;0.002
;;;0.0057;0.004
;;;0.005704;0.004
;;;0.005708;0.002
;;;0.005712;0.002
;;;0.005716;0.004
;;;0.00572;0.004
;;;0.005724;0.004
;;;0.005728;0.004
;;;0.005732;0.006
;;;0.005736;0.004
;;;0.00574;0.004
;;;0.005744;0.004
;;;0.005748;0.004
;;;0.005752;0.006
;;;0.005756;0.006
;;;0.00576;0.006
;;;0.005764;0.002
;;;0.005768;0.006
;;;0.005772;0.008
;;;0.005776;0.004
;;;0.00578;0.006
;;;0.005784;0.006
;;;0.005788;0.006
;;;0.005792;0.006
;;;0.005796;0.006
;;;0.0058;0.006
;;;0.005804;0.006
;;;0.005808;0.008
;;;0.005812;0.006
;;;0.005816;0.008
;;;0.00582;0.008
;;;0.005824;0.006
;;;0.005828;0.006
;;;0.005832;0.008
;;;0.005836;0.008
;;;0.00584;0.006
;;;0.005844;0.008
;;;0.005848;0.01
;;;0.005852;0.008
;;;0.005856;0.008
;;;0.00586;0.01
;;;0.005864;0.01
;;;0.005868;0.008
;;;0.005872;0.01
;;;0.005876;0.008
;;;0.00588;0.008
;;;0.005884;0.01
;;;0.005888;0.008
;;;0.005892;0.008
;;;0.005896;0.008
;;;0.0059;0.01
;;;0.005904;0.012
;;;0.005908;0.01
;;;0.005912;0.008
;;;0.005916;0.01
;;;0.00592;0.012
;;;0.005924;0.01
;;;0.005928;0.012
;;;0.005932;0.01
;;;0.005936;0.01
;;;0.00594;0.012
;;;0.005944;0.014
;;;0.005948;0.01
;;;0.005952;0.012
;;;0.005956;0.01
;;;0.00596;0.012
;;;0.005964;0.01
;;;0.005968;0.012
;;;0.005972;0.012
;;;0.005976;0.01
;;;0.00598;0.01
;;;0.005984;0.012
;;;0.005988;0.012
;;;0.005992;0.012
;;;0.005996;0.012
;;;0.006;0.012
;;;0.006004;0.012
;;;0.006008;0.012
;;;0.006012;0.012
;;;0.006016;0.012
;;;0.00602;0.012
;;;0.006024;0.01
;;;0.006028;0.012
;;;0.006032;0.014
;;;0.006036;0.012
;;;0.00604;0.012
;;;0.006044;0.014
;;;0.006048;0.012
;;;0.006052;0.012
;;;0.006056;0.012
;;;0.00606;0.012
;;;0.006064;0.012
;;;0.006068;0.012
;;;0.006072;0.012
;;;0.006076;0.012
;;;0.00608;0.012
;;;0.006084;0.014
;;;0.006088;0.012
;;;0.006092;0.012
;;;0.006096;0.014
;;;0.0061;0.014
;;;0.006104;0.012
;;;0.006108;0.01
;;;0.006112;0.014
;;;0.006116;0.014
;;;0.00612;0.012
;;;0.006124;0.014
;;;0.006128;0.014
;;;0.006132;0.012
;;;0.006136;0.012
;;;0.00614;0.012
;;;0.006144;0.012
;;;0.006148;0.012
;;;0.006152;0.016
;;;0.006156;0.012
;;;0.00616;0.014
;;;0.006164;0.012
;;;0.006168;0.012
;;;0.006172;0.012
;;;0.006176;0.008
;;;0.00618;0.012
;;;0.006184;0.014
;;;0.006188;0.012
;;;0.006192;0.012
;;;0.006196;0.014
;;;0.0062;0.012
;;;0.006204;0.014
;;;0.006208;0.012
;;;0.006212;0.012
;;;0.006216;0.012
;;;0.00622;0.012
;;;0.006224;0.012
;;;0.006228;0.01
;;;0.006232;0.01
;;;0.006236;0.012
;;;0.00624;0.01
;;;0.006244;0.014
;;;0.006248;0.012
;;;0.006252;0.012
;;;0.006256;0.01
;;;0.00626;0.01
;;;0.006264;0.012
;;;0.006268;0.01
;;;0.006272;0.01
;;;0.006276;0.01
;;;0.00628;0.012
;;;0.006284;0.012
;;;0.006288;0.012
;;;0.006292;0.012
;;;0.006296;0.01
;;;0.0063;0.008
;;;0.006304;0.008
;;;0.006308;0.01
;;;0.006312;0.01
;;;0.006316;0.01
;;;0.00632;0.01
;;;0.006324;0.006
;;;0.006328;0.008
;;;0.006332;0.008
;;;0.006336;0.008
;;;0.00634;0.01
;;;0.006344;0.01
;;;0.006348;0.012
;;;0.006352;0.012
;;;0.006356;0.008
;;;0.00636;0.006
;;;0.006364;0.006
;;;0.006368;0.006
;;;0.006372;0.008
;;;0.006376;0.01
;;;0.00638;0.008
;;;0.006384;0.008
;;;0.006388;0.008
;;;0.006392;0.006
;;;0.006396;0.008
;;;0.0064;0.006
;;;0.006404;0.008
;;;0.006408;0.008
;;;0.006412;0.006
;;;0.006416;0.008
;;;0.00642;0.006
;;;0.006424;0.008
;;;0.006428;0.006
;;;0.006432;0.006
;;;0.006436;0.006
;;;0.00644;0.004
;;;0.006444;0.006
;;;0.006448;0.004
;;;0.006452;0.004
;;;0.006456;0.006
;;;0.00646;0.006
;;;0.006464;0.006
;;;0.006468;0.004
;;;0.006472;0.004
;;;0.006476;0.004
;;;0.00648;0.004
;;;0.006484;0.004
;;;0.006488;0.002
;;;0.006492;0.002
;;;0.006496;0.004
;;;0.0065;0.004
;;;0.006504;0.002
;;;0.006508;0.004
;;;0.006512;0.002
;;;0.006516;0.002
;;;0.00652;0.002
;;;0.006524;0.002
;;;0.006528;0.004
;;;0.006532;0.002
;;;0.006536;0.002
;;;0.00654;0
;;;0.006544;0.002
;;;0.006548;0.002
;;;0.006552;0.002
;;;0.006556;0.002
;;;0.00656;0
;;;0.006564;0.002
;;;0.006568;0
;;;0.006572;0
;;;0.006576;0
;;;0.00658;0
;;;0.006584;-0.002
;;;0.006588;0
;;;0.006592;0
;;;0.006596;0
;;;0.0066;-0.002
;;;0.006604;0
;;;0.006608;-0.002
;;;0.006612;0
;;;0.006616;-0.002
;;;0.00662;-0.002
;;;0.006624;-0.002
;;;0.006628;-0.002
;;;0.006632;-0.004
;;;0.006636;-0.002
;;;0.00664;-0.002
;;;0.006644;-0.002
;;;0.006648;-0.002
;;;0.006652;-0.004
;;;0.006656;-0.002
;;;0.00666;-0.002
;;;0.006664;-0.004
;;;0.006668;-0.004
;;;0.006672;-0.004
;;;0.006676;-0.004
;;;0.00668;-0.004
;;;0.006684;-0.004
;;;0.006688;-0.004
;;;0.006692;-0.004
;;;0.006696;-0.004
;;;0.0067;-0.004
;;;0.006704;-0.006
;;;0.006708;-0.006
;;;0.006712;-0.006
;;;0.006716;-0.006
;;;0.00672;-0.006
;;;0.006724;-0.008
;;;0.006728;-0.006
;;;0.006732;-0.008
;;;0.006736;-0.006
;;;0.00674;-0.006
;;;0.006744;-0.006
;;;0.006748;-0.006
;;;0.006752;-0.008
;;;0.006756;-0.008
;;;0.00676;-0.006
;;;0.006764;-0.006
;;;0.006768;-0.008
;;;0.006772;-0.008
;;;0.006776;-0.008
;;;0.00678;-0.008
;;;0.006784;-0.008
;;;0.006788;-0.008
;;;0.006792;-0.008
;;;0.006796;-0.008
;;;0.0068;-0.008
;;;0.006804;-0.01
;;;0.006808;-0.008
;;;0.006812;-0.008
;;;0.006816;-0.008
;;;0.00682;-0.008
;;;0.006824;-0.01
;;;0.006828;-0.008
;;;0.006832;-0.008
;;;0.006836;-0.008
;;;0.00684;-0.008
;;;0.006844;-0.01
;;;0.006848;-0.008
;;;0.006852;-0.01
;;;0.006856;-0.01
;;;0.00686;-0.01
;;;0.006864;-0.01
;;;0.006868;-0.012
;;;0.006872;-0.012
;;;0.006876;-0.01
;;;0.00688;-0.012
;;;0.006884;-0.01
;;;0.006888;-0.01
;;;0.006892;-0.01
;;;0.006896;-0.012
;;;0.0069;-0.012
;;;0.006904;-0.012
;;;0.006908;-0.012
;;;0.006912;-0.01
;;;0.006916;-0.012
;;;0.00692;-0.012
;;;0.006924;-0.012
;;;0.006928;-0.012
;;;0.006932;-0.01
;;;0.006936;-0.01
;;;0.00694;-0.012
;;;0.006944;-0.012
;;;0.006948;-0.014
;;;0.006952;-0.014
;;;0.006956;-0.012
;;;0.00696;-0.014
;;;0.006964;-0.014
;;;0.006968;-0.012
;;;0.006972;-0.012
;;;0.006976;-0.012
;;;0.00698;-0.012
;;;0.006984;-0.012
;;;0.006988;-0.014
;;;0.006992;-0.014
;;;0.006996;-0.014
;;;0.007;-0.014
;;;0.007004;-0.014
;;;0.007008;-0.012
;;;0.007012;-0.014
;;;0.007016;-0.014
;;;0.00702;-0.014
;;;0.007024;-0.014
;;;0.007028;-0.012
;;;0.007032;-0.014
;;;0.007036;-0.014
;;;0.00704;-0.012
;;;0.007044;-0.014
;;;0.007048;-0.014
;;;0.007052;-0.014
;;;0.007056;-0.014
;;;0.00706;-0.014
;;;0.007064;-0.012
;;;0.007068;-0.014
;;;0.007072;-0.014
;;;0.007076;-0.014
;;;0.00708;-0.014
;;;0.007084;-0.014
;;;0.007088;-0.014
;;;0.007092;-0.014
;;;0.007096;-0.014
;;;0.0071;-0.016
;;;0.007104;-0.014
;;;0.007108;-0.014
;;;0.007112;-0.012
;;;0.007116;-0.014
;;;0.00712;-0.016
;;;0.007124;-0.014
;;;0.007128;-0.014
;;;0.007132;-0.012
;;;0.007136;-0.014
;;;0.00714;-0.01
;;;0.007144;-0.014
;;;0.007148;-0.014
;;;0.007152;-0.014
;;;0.007156;-0.014
;;;0.00716;-0.014
;;;0.007164;-0.012
;;;0.007168;-0.014
;;;0.007172;-0.012
;;;0.007176;-0.012
;;;0.00718;-0.014
;;;0.007184;-0.014
;;;0.007188;-0.014
;;;0.007192;-0.014
;;;0.007196;-0.014
;;;0.0072;-0.012
;;;0.007204;-0.014
;;;0.007208;-0.012
;;;0.007212;-0.014
;;;0.007216;-0.014
;;;0.00722;-0.012
;;;0.007224;-0.012
;;;0.007228;-0.014
;;;0.007232;-0.014
;;;0.007236;-0.012
;;;0.00724;-0.014
;;;0.007244;-0.014
;;;0.007248;-0.014
;;;0.007252;-0.012
;;;0.007256;-0.012
;;;0.00726;-0.014
;;;0.007264;-0.012
;;;0.007268;-0.014
;;;0.007272;-0.012
;;;0.007276;-0.012
;;;0.00728;-0.012
;;;0.007284;-0.012
;;;0.007288;-0.012
;;;0.007292;-0.014
;;;0.007296;-0.01
