gr5a/Nikolaieva_Yelyzaveta/Lab 2/RC/10-100Hz_step_10Hz/ALL0001/F0001CH2.CSV

Record Length,2.500000e+03,,  -0.035600000000,  -0.09400,
Sample Interval,4.000000e-05,,  -0.035560000000,  -0.09400,
Trigger Point,8.900000000000e+02,,  -0.035520000000,  -0.09600,
,,,  -0.035480000000,  -0.09400,
,,,  -0.035440000000,  -0.09400,
,,,  -0.035400000000,  -0.09400,
Source,CH2,,  -0.035360000000,  -0.09400,
Vertical Units,V,,  -0.035320000000,  -0.09400,
Vertical Scale,5.000000e-02,,  -0.035280000000,  -0.09400,
Vertical Offset,1.000000e-02,,  -0.035240000000,  -0.09600,
Horizontal Units,s,,  -0.035200000000,  -0.09400,
Horizontal Scale,1.000000e-02,,  -0.035160000000,  -0.09400,
Pt Fmt,Y,,  -0.035120000000,  -0.09400,
Yzero,0.000000e+00,,  -0.035080000000,  -0.09400,
Probe Atten,1.000000e+00,,  -0.035040000000,  -0.09600,
Model Number,TDS2024C,,  -0.035000000000,  -0.09400,
Serial Number,C013728,,  -0.034960000000,  -0.09400,
Firmware Version,FV:v24.15,,  -0.034920000000,  -0.09400,
,,,-00.034880000000,  -0.09600,
,,,-00.034840000000,  -0.09600,
,,,-00.034800000000,  -0.09400,
,,,-00.034760000000,  -0.09400,
,,,-00.034720000000,  -0.09400,
,,,-00.034680000000,  -0.09600,
,,,-00.034640000000,  -0.09400,
,,,-00.034600000000,  -0.09600,
,,,-00.034560000000,  -0.09400,
,,,-00.034520000000,  -0.09400,
,,,-00.034480000000,  -0.09600,
,,,-00.034440000000,  -0.09600,
,,,-00.034400000000,  -0.09600,
,,,-00.034360000000,  -0.09400,
,,,-00.034320000000,  -0.09800,
,,,-00.034280000000,  -0.09600,
,,,-00.034240000000,  -0.09600,
,,,-00.034200000000,  -0.09600,
,,,-00.034160000000,  -0.09800,
,,,-00.034120000000,  -0.09600,
,,,-00.034080000000,  -0.09600,
,,,-00.034040000000,  -0.09800,
,,,-00.034000000000,  -0.09600,
,,,-00.033960000000,  -0.09800,
,,,-00.033920000000,  -0.09800,
,,,-00.033880000000,  -0.09600,
,,,-00.033840000000,  -0.09600,
,,,-00.033800000000,  -0.09800,
,,,-00.033760000000,  -0.09600,
,,,-00.033720000000,  -0.09800,
,,,-00.033680000000,  -0.09600,
,,,-00.033640000000,  -0.09800,
,,,-00.033600000000,  -0.09800,
,,,-00.033560000000,  -0.09600,
,,,-00.033520000000,  -0.09600,
,,,-00.033480000000,  -0.09800,
,,,-00.033440000000,  -0.09800,
,,,-00.033400000000,  -0.09800,
,,,-00.033360000000,  -0.09800,
,,,-00.033320000000,  -0.09800,
,,,-00.033280000000,  -0.10000,
,,,-00.033240000000,  -0.09600,
,,,-00.033200000000,  -0.09800,
,,,-00.033160000000,  -0.09800,
,,,-00.033120000000,  -0.09800,
,,,-00.033080000000,  -0.09800,
,,,-00.033040000000,  -0.09800,
,,,-00.033000000000,  -0.09800,
,,,-00.032960000000,  -0.10000,
,,,-00.032920000000,  -0.09800,
,,,-00.032880000000,  -0.10000,
,,,-00.032840000000,  -0.09800,
,,,-00.032800000000,  -0.09800,
,,,-00.032760000000,  -0.10000,
,,,-00.032720000000,  -0.10000,
,,,-00.032680000000,  -0.10000,
,,,-00.032640000000,  -0.09800,
,,,-00.032600000000,  -0.10000,
,,,-00.032560000000,  -0.09800,
,,,-00.032520000000,  -0.10000,
,,,-00.032480000000,  -0.10000,
,,,-00.032440000000,  -0.10000,
,,,-00.032400000000,  -0.10000,
,,,-00.032360000000,  -0.09800,
,,,-00.032320000000,  -0.09600,
,,,-00.032280000000,  -0.10000,
,,,-00.032240000000,  -0.10000,
,,,-00.032200000000,  -0.10000,
,,,-00.032160000000,  -0.10000,
,,,-00.032120000000,  -0.10000,
,,,-00.032080000000,  -0.10000,
,,,-00.032040000000,  -0.10000,
,,,-00.032000000000,  -0.10200,
,,,-00.031960000000,  -0.10000,
,,,-00.031920000000,  -0.10000,
,,,-00.031880000000,  -0.09800,
,,,-00.031840000000,  -0.09800,
,,,-00.031800000000,  -0.10000,
,,,-00.031760000000,  -0.10000,
,,,-00.031720000000,  -0.10000,
,,,-00.031680000000,  -0.10000,
,,,-00.031640000000,  -0.10000,
,,,-00.031600000000,  -0.10000,
,,,-00.031560000000,  -0.09800,
,,,-00.031520000000,  -0.10200,
,,,-00.031480000000,  -0.10000,
,,,-00.031440000000,  -0.10000,
,,,-00.031400000000,  -0.10000,
,,,-00.031360000000,  -0.10000,
,,,-00.031320000000,  -0.09800,
,,,-00.031280000000,  -0.10000,
,,,-00.031240000000,  -0.10000,
,,,-00.031200000000,  -0.10000,
,,,-00.031160000000,  -0.09800,
,,,-00.031120000000,  -0.10200,
,,,-00.031080000000,  -0.10000,
,,,-00.031040000000,  -0.10000,
,,,-00.031000000000,  -0.10000,
,,,-00.030960000000,  -0.10000,
,,,-00.030920000000,  -0.10000,
,,,-00.030880000000,  -0.10000,
,,,-00.030840000000,  -0.10200,
,,,-00.030800000000,  -0.10200,
,,,-00.030760000000,  -0.10000,
,,,-00.030720000000,  -0.10000,
,,,-00.030680000000,  -0.10200,
,,,-00.030640000000,  -0.10000,
,,,-00.030600000000,  -0.10000,
,,,-00.030560000000,  -0.10000,
,,,-00.030520000000,  -0.10000,
,,,-00.030480000000,  -0.10000,
,,,-00.030440000000,  -0.10200,
,,,-00.030400000000,  -0.10000,
,,,-00.030360000000,  -0.10000,
,,,-00.030320000000,  -0.10000,
,,,-00.030280000000,  -0.10400,
,,,-00.030240000000,  -0.10200,
,,,-00.030200000000,  -0.10200,
,,,-00.030160000000,  -0.10000,
,,,-00.030120000000,  -0.10000,
,,,-00.030080000000,  -0.10000,
,,,-00.030040000000,  -0.10000,
,,,-00.030000000000,  -0.10000,
,,,-00.029960000000,  -0.10200,
,,,-00.029920000000,  -0.10000,
,,,-00.029880000000,  -0.10200,
,,,-00.029840000000,  -0.10000,
,,,-00.029800000000,  -0.10000,
,,,-00.029760000000,  -0.10000,
,,,-00.029720000000,  -0.10000,
,,,-00.029680000000,  -0.10200,
,,,-00.029640000000,  -0.10200,
,,,-00.029600000000,  -0.10000,
,,,-00.029560000000,  -0.10200,
,,,-00.029520000000,  -0.10000,
,,,-00.029480000000,  -0.10200,
,,,-00.029440000000,  -0.10000,
,,,-00.029400000000,  -0.10200,
,,,-00.029360000000,  -0.10200,
,,,-00.029320000000,  -0.10200,
,,,-00.029280000000,  -0.10200,
,,,-00.029240000000,  -0.10000,
,,,-00.029200000000,  -0.10000,
,,,-00.029160000000,  -0.10000,
,,,-00.029120000000,  -0.10000,
,,,-00.029080000000,  -0.10000,
,,,-00.029040000000,  -0.10000,
,,,-00.029000000000,  -0.10200,
,,,-00.028960000000,  -0.10000,
,,,-00.028920000000,  -0.10200,
,,,-00.028880000000,  -0.10000,
,,,-00.028840000000,  -0.10000,
,,,-00.028800000000,  -0.10200,
,,,-00.028760000000,  -0.10000,
,,,-00.028720000000,  -0.10000,
,,,-00.028680000000,  -0.10200,
,,,-00.028640000000,  -0.10000,
,,,-00.028600000000,  -0.10200,
,,,-00.028560000000,  -0.10200,
,,,-00.028520000000,  -0.10000,
,,,-00.028480000000,  -0.10000,
,,,-00.028440000000,  -0.10200,
,,,-00.028400000000,  -0.10000,
,,,-00.028360000000,  -0.10000,
,,,-00.028320000000,  -0.10200,
,,,-00.028280000000,  -0.10200,
,,,-00.028240000000,  -0.10200,
,,,-00.028200000000,  -0.10000,
,,,-00.028160000000,  -0.10200,
,,,-00.028120000000,  -0.10200,
,,,-00.028080000000,  -0.10000,
,,,-00.028040000000,  -0.10000,
,,,-00.028000000000,  -0.10000,
,,,-00.027960000000,  -0.10000,
,,,-00.027920000000,  -0.10000,
,,,-00.027880000000,  -0.09800,
,,,-00.027840000000,  -0.10000,
,,,-00.027800000000,  -0.10200,
,,,-00.027760000000,  -0.10000,
,,,-00.027720000000,  -0.10200,
,,,-00.027680000000,  -0.10000,
,,,-00.027640000000,  -0.10000,
,,,-00.027600000000,  -0.10200,
,,,-00.027560000000,  -0.10000,
,,,-00.027520000000,  -0.10000,
,,,-00.027480000000,  -0.10000,
,,,-00.027440000000,  -0.09800,
,,,-00.027400000000,  -0.10000,
,,,-00.027360000000,  -0.10000,
,,,-00.027320000000,  -0.10000,
,,,-00.027280000000,  -0.10000,
,,,-00.027240000000,  -0.10000,
,,,-00.027200000000,  -0.10000,
,,,-00.027160000000,  -0.10000,
,,,-00.027120000000,  -0.10000,
,,,-00.027080000000,  -0.10000,
,,,-00.027040000000,  -0.10000,
,,,-00.027000000000,  -0.10000,
,,,-00.026960000000,  -0.10000,
,,,-00.026920000000,  -0.10000,
,,,-00.026880000000,  -0.09800,
,,,-00.026840000000,  -0.10000,
,,,-00.026800000000,  -0.10000,
,,,-00.026760000000,  -0.10000,
,,,-00.026720000000,  -0.10000,
,,,-00.026680000000,  -0.10000,
,,,-00.026640000000,  -0.10000,
,,,-00.026600000000,  -0.10000,
,,,-00.026560000000,  -0.10000,
,,,-00.026520000000,  -0.09800,
,,,-00.026480000000,  -0.10000,
,,,-00.026440000000,  -0.09800,
,,,-00.026400000000,  -0.09800,
,,,-00.026360000000,  -0.10000,
,,,-00.026320000000,  -0.10000,
,,,-00.026280000000,  -0.10000,
,,,-00.026240000000,  -0.10000,
,,,-00.026200000000,  -0.09800,
,,,-00.026160000000,  -0.09800,
,,,-00.026120000000,  -0.10000,
,,,-00.026080000000,  -0.10000,
,,,-00.026040000000,  -0.09800,
,,,-00.026000000000,  -0.09800,
,,,-00.025960000000,  -0.09800,
,,,-00.025920000000,  -0.09800,
,,,-00.025880000000,  -0.09800,
,,,-00.025840000000,  -0.09800,
,,,-00.025800000000,  -0.10000,
,,,-00.025760000000,  -0.10000,
,,,-00.025720000000,  -0.09600,
,,,-00.025680000000,  -0.09800,
,,,-00.025640000000,  -0.09600,
,,,-00.025600000000,  -0.09800,
,,,-00.025560000000,  -0.09800,
,,,-00.025520000000,  -0.09600,
,,,-00.025480000000,  -0.09800,
,,,-00.025440000000,  -0.10000,
,,,-00.025400000000,  -0.09600,
,,,-00.025360000000,  -0.09600,
,,,-00.025320000000,  -0.09600,
,,,-00.025280000000,  -0.09800,
,,,-00.025240000000,  -0.09800,
,,,-00.025200000000,  -0.09800,
,,,-00.025160000000,  -0.09600,
,,,-00.025120000000,  -0.09600,
,,,-00.025080000000,  -0.09600,
,,,-00.025040000000,  -0.09600,
,,,-00.025000000000,  -0.09600,
,,,-00.024960000000,  -0.09800,
,,,-00.024920000000,  -0.09800,
,,,-00.024880000000,  -0.09600,
,,,-00.024840000000,  -0.09600,
,,,-00.024800000000,  -0.09800,
,,,-00.024760000000,  -0.09600,
,,,-00.024720000000,  -0.09800,
,,,-00.024680000000,  -0.09600,
,,,-00.024640000000,  -0.09600,
,,,-00.024600000000,  -0.09600,
,,,-00.024560000000,  -0.09600,
,,,-00.024520000000,  -0.09400,
,,,-00.024480000000,  -0.09800,
,,,-00.024440000000,  -0.09400,
,,,-00.024400000000,  -0.09400,
,,,-00.024360000000,  -0.09800,
,,,-00.024320000000,  -0.09400,
,,,-00.024280000000,  -0.09600,
,,,-00.024240000000,  -0.09600,
,,,-00.024200000000,  -0.09600,
,,,-00.024160000000,  -0.09600,
,,,-00.024120000000,  -0.09800,
,,,-00.024080000000,  -0.09400,
,,,-00.024040000000,  -0.09600,
,,,-00.024000000000,  -0.09600,
,,,-00.023960000000,  -0.09600,
,,,-00.023920000000,  -0.09600,
,,,-00.023880000000,  -0.09400,
,,,-00.023840000000,  -0.09400,
,,,-00.023800000000,  -0.09400,
,,,-00.023760000000,  -0.09400,
,,,-00.023720000000,  -0.09400,
,,,-00.023680000000,  -0.09400,
,,,-00.023640000000,  -0.09400,
,,,-00.023600000000,  -0.09400,
,,,-00.023560000000,  -0.09600,
,,,-00.023520000000,  -0.09400,
,,,-00.023480000000,  -0.09400,
,,,-00.023440000000,  -0.09400,
,,,-00.023400000000,  -0.09400,
,,,-00.023360000000,  -0.09400,
,,,-00.023320000000,  -0.09400,
,,,-00.023280000000,  -0.09400,
,,,-00.023240000000,  -0.09400,
,,,-00.023200000000,  -0.09400,
,,,-00.023160000000,  -0.09200,
,,,-00.023120000000,  -0.09200,
,,,-00.023080000000,  -0.09400,
,,,-00.023040000000,  -0.09400,
,,,-00.023000000000,  -0.09200,
,,,-00.022960000000,  -0.09400,
,,,-00.022920000000,  -0.09400,
,,,-00.022880000000,  -0.09400,
,,,-00.022840000000,  -0.09200,
,,,-00.022800000000,  -0.09000,
,,,-00.022760000000,  -0.09400,
,,,-00.022720000000,  -0.09200,
,,,-00.022680000000,  -0.09200,
,,,-00.022640000000,  -0.09200,
,,,-00.022600000000,  -0.09200,
,,,-00.022560000000,  -0.09200,
,,,-00.022520000000,  -0.09200,
,,,-00.022480000000,  -0.09200,
,,,-00.022440000000,  -0.09200,
,,,-00.022400000000,  -0.09200,
,,,-00.022360000000,  -0.09200,
,,,-00.022320000000,  -0.09200,
,,,-00.022280000000,  -0.09200,
,,,-00.022240000000,  -0.09400,
,,,-00.022200000000,  -0.09200,
,,,-00.022160000000,  -0.09000,
,,,-00.022120000000,  -0.09200,
,,,-00.022080000000,  -0.09000,
,,,-00.022040000000,  -0.09200,
,,,-00.022000000000,  -0.09000,
,,,-00.021960000000,  -0.09000,
,,,-00.021920000000,  -0.09000,
,,,-00.021880000000,  -0.09200,
,,,-00.021840000000,  -0.09000,
,,,-00.021800000000,  -0.09000,
,,,-00.021760000000,  -0.09000,
,,,-00.021720000000,  -0.09000,
,,,-00.021680000000,  -0.08800,
,,,-00.021640000000,  -0.09000,
,,,-00.021600000000,  -0.09200,
,,,-00.021560000000,  -0.09000,
,,,-00.021520000000,  -0.08800,
,,,-00.021480000000,  -0.09000,
,,,-00.021440000000,  -0.09000,
,,,-00.021400000000,  -0.08800,
,,,-00.021360000000,  -0.08800,
,,,-00.021320000000,  -0.09000,
,,,-00.021280000000,  -0.08800,
,,,-00.021240000000,  -0.08800,
,,,-00.021200000000,  -0.08800,
,,,-00.021160000000,  -0.08800,
,,,-00.021120000000,  -0.08800,
,,,-00.021080000000,  -0.08600,
,,,-00.021040000000,  -0.08800,
,,,-00.021000000000,  -0.08800,
,,,-00.020960000000,  -0.08600,
,,,-00.020920000000,  -0.08600,
,,,-00.020880000000,  -0.08800,
,,,-00.020840000000,  -0.08600,
,,,-00.020800000000,  -0.08600,
,,,-00.020760000000,  -0.08600,
,,,-00.020720000000,  -0.08800,
,,,-00.020680000000,  -0.08800,
,,,-00.020640000000,  -0.08800,
,,,-00.020600000000,  -0.08600,
,,,-00.020560000000,  -0.08800,
,,,-00.020520000000,  -0.08600,
,,,-00.020480000000,  -0.08600,
,,,-00.020440000000,  -0.08400,
,,,-00.020400000000,  -0.08600,
,,,-00.020360000000,  -0.08600,
,,,-00.020320000000,  -0.08400,
,,,-00.020280000000,  -0.08400,
,,,-00.020240000000,  -0.08400,
,,,-00.020200000000,  -0.08200,
,,,-00.020160000000,  -0.08200,
,,,-00.020120000000,  -0.08400,
,,,-00.020080000000,  -0.08400,
,,,-00.020040000000,  -0.08400,
,,,-00.020000000000,  -0.08600,
,,,-00.019960000000,  -0.08400,
,,,-00.019920000000,  -0.08400,
,,,-00.019880000000,  -0.08600,
,,,-00.019840000000,  -0.08200,
,,,-00.019800000000,  -0.08400,
,,,-00.019760000000,  -0.08400,
,,,-00.019720000000,  -0.08400,
,,,-00.019680000000,  -0.08600,
,,,-00.019640000000,  -0.08400,
,,,-00.019600000000,  -0.08400,
,,,-00.019560000000,  -0.08200,
,,,-00.019520000000,  -0.08000,
,,,-00.019480000000,  -0.08200,
,,,-00.019440000000,  -0.08200,
,,,-00.019400000000,  -0.08200,
,,,-00.019360000000,  -0.08200,
,,,-00.019320000000,  -0.08200,
,,,-00.019280000000,  -0.08200,
,,,-00.019240000000,  -0.08000,
,,,-00.019200000000,  -0.08000,
,,,-00.019160000000,  -0.08000,
,,,-00.019120000000,  -0.08000,
,,,-00.019080000000,  -0.07800,
,,,-00.019040000000,  -0.08400,
,,,-00.019000000000,  -0.08200,
,,,-00.018960000000,  -0.08200,
,,,-00.018920000000,  -0.08000,
,,,-00.018880000000,  -0.08000,
,,,-00.018840000000,  -0.08000,
,,,-00.018800000000,  -0.08000,
,,,-00.018760000000,  -0.08000,
,,,-00.018720000000,  -0.08000,
,,,-00.018680000000,  -0.08000,
,,,-00.018640000000,  -0.07800,
,,,-00.018600000000,  -0.08000,
,,,-00.018560000000,  -0.08000,
,,,-00.018520000000,  -0.07800,
,,,-00.018480000000,  -0.08000,
,,,-00.018440000000,  -0.08000,
,,,-00.018400000000,  -0.07800,
,,,-00.018360000000,  -0.07800,
,,,-00.018320000000,  -0.07600,
,,,-00.018280000000,  -0.07800,
,,,-00.018240000000,  -0.07600,
,,,-00.018200000000,  -0.07800,
,,,-00.018160000000,  -0.07600,
,,,-00.018120000000,  -0.07600,
,,,-00.018080000000,  -0.07800,
,,,-00.018040000000,  -0.07600,
,,,-00.018000000000,  -0.07600,
,,,-00.017960000000,  -0.07800,
,,,-00.017920000000,  -0.07400,
,,,-00.017880000000,  -0.07800,
,,,-00.017840000000,  -0.07600,
,,,-00.017800000000,  -0.07600,
,,,-00.017760000000,  -0.07600,
,,,-00.017720000000,  -0.07600,
,,,-00.017680000000,  -0.07600,
,,,-00.017640000000,  -0.07400,
,,,-00.017600000000,  -0.07400,
,,,-00.017560000000,  -0.07400,
,,,-00.017520000000,  -0.07600,
,,,-00.017480000000,  -0.07400,
,,,-00.017440000000,  -0.07400,
,,,-00.017400000000,  -0.07400,
,,,-00.017360000000,  -0.07200,
,,,-00.017320000000,  -0.07400,
,,,-00.017280000000,  -0.07400,
,,,-00.017240000000,  -0.07200,
,,,-00.017200000000,  -0.07400,
,,,-00.017160000000,  -0.07400,
,,,-00.017120000000,  -0.07400,
,,,-00.017080000000,  -0.07200,
,,,-00.017040000000,  -0.07400,
,,,-00.017000000000,  -0.07200,
,,,-00.016960000000,  -0.07400,
,,,-00.016920000000,  -0.07200,
,,,-00.016880000000,  -0.07200,
,,,-00.016840000000,  -0.07400,
,,,-00.016800000000,  -0.07200,
,,,-00.016760000000,  -0.07400,
,,,-00.016720000000,  -0.07200,
,,,-00.016680000000,  -0.07000,
,,,-00.016640000000,  -0.07400,
,,,-00.016600000000,  -0.06800,
,,,-00.016560000000,  -0.07200,
,,,-00.016520000000,  -0.07200,
,,,-00.016480000000,  -0.06800,
,,,-00.016440000000,  -0.07200,
,,,-00.016400000000,  -0.07000,
,,,-00.016360000000,  -0.07000,
,,,-00.016320000000,  -0.06800,
,,,-00.016280000000,  -0.06800,
,,,-00.016240000000,  -0.06800,
,,,-00.016200000000,  -0.06800,
,,,-00.016160000000,  -0.07000,
,,,-00.016120000000,  -0.06800,
,,,-00.016080000000,  -0.06800,
,,,-00.016040000000,  -0.06800,
,,,-00.016000000000,  -0.06800,
,,,-00.015960000000,  -0.06800,
,,,-00.015920000000,  -0.06800,
,,,-00.015880000000,  -0.06600,
,,,-00.015840000000,  -0.06800,
,,,-00.015800000000,  -0.06800,
,,,-00.015760000000,  -0.06600,
,,,-00.015720000000,  -0.06600,
,,,-00.015680000000,  -0.06600,
,,,-00.015640000000,  -0.06600,
,,,-00.015600000000,  -0.06800,
,,,-00.015560000000,  -0.06600,
,,,-00.015520000000,  -0.06600,
,,,-00.015480000000,  -0.06600,
,,,-00.015440000000,  -0.06600,
,,,-00.015400000000,  -0.06400,
,,,-00.015360000000,  -0.06400,
,,,-00.015320000000,  -0.06400,
,,,-00.015280000000,  -0.06200,
,,,-00.015240000000,  -0.06400,
,,,-00.015200000000,  -0.06400,
,,,-00.015160000000,  -0.06400,
,,,-00.015120000000,  -0.06400,
,,,-00.015080000000,  -0.06200,
,,,-00.015040000000,  -0.06400,
,,,-00.015000000000,  -0.06400,
,,,-00.014960000000,  -0.06200,
,,,-00.014920000000,  -0.06400,
,,,-00.014880000000,  -0.06400,
,,,-00.014840000000,  -0.06200,
,,,-00.014800000000,  -0.06200,
,,,-00.014760000000,  -0.06000,
,,,-00.014720000000,  -0.06000,
,,,-00.014680000000,  -0.06200,
,,,-00.014640000000,  -0.06000,
,,,-00.014600000000,  -0.06000,
,,,-00.014560000000,  -0.06000,
,,,-00.014520000000,  -0.06000,
,,,-00.014480000000,  -0.05800,
,,,-00.014440000000,  -0.06000,
,,,-00.014400000000,  -0.06200,
,,,-00.014360000000,  -0.06000,
,,,-00.014320000000,  -0.05800,
,,,-00.014280000000,  -0.06000,
,,,-00.014240000000,  -0.05600,
,,,-00.014200000000,  -0.05800,
,,,-00.014160000000,  -0.06000,
,,,-00.014120000000,  -0.05800,
,,,-00.014080000000,  -0.05800,
,,,-00.014040000000,  -0.05800,
,,,-00.014000000000,  -0.05600,
,,,-00.013960000000,  -0.05800,
,,,-00.013920000000,  -0.05800,
,,,-00.013880000000,  -0.05600,
,,,-00.013840000000,  -0.05800,
,,,-00.013800000000,  -0.05600,
,,,-00.013760000000,  -0.05400,
,,,-00.013720000000,  -0.05800,
,,,-00.013680000000,  -0.05600,
,,,-00.013640000000,  -0.05600,
,,,-00.013600000000,  -0.05600,
,,,-00.013560000000,  -0.05600,
,,,-00.013520000000,  -0.05600,
,,,-00.013480000000,  -0.05600,
,,,-00.013440000000,  -0.05600,
,,,-00.013400000000,  -0.05400,
,,,-00.013360000000,  -0.05400,
,,,-00.013320000000,  -0.05400,
,,,-00.013280000000,  -0.05400,
,,,-00.013240000000,  -0.05400,
,,,-00.013200000000,  -0.05200,
,,,-00.013160000000,  -0.05400,
,,,-00.013120000000,  -0.05400,
,,,-00.013080000000,  -0.05400,
,,,-00.013040000000,  -0.05200,
,,,-00.013000000000,  -0.05200,
,,,-00.012960000000,  -0.05200,
,,,-00.012920000000,  -0.05400,
,,,-00.012880000000,  -0.05200,
,,,-00.012840000000,  -0.05200,
,,,-00.012800000000,  -0.05200,
,,,-00.012760000000,  -0.05000,
,,,-00.012720000000,  -0.05000,
,,,-00.012680000000,  -0.05000,
,,,-00.012640000000,  -0.05000,
,,,-00.012600000000,  -0.05200,
,,,-00.012560000000,  -0.04800,
,,,-00.012520000000,  -0.04800,
,,,-00.012480000000,  -0.05000,
,,,-00.012440000000,  -0.05000,
,,,-00.012400000000,  -0.04800,
,,,-00.012360000000,  -0.04800,
,,,-00.012320000000,  -0.04800,
,,,-00.012280000000,  -0.04800,
,,,-00.012240000000,  -0.04800,
,,,-00.012200000000,  -0.04800,
,,,-00.012160000000,  -0.04800,
,,,-00.012120000000,  -0.04800,
,,,-00.012080000000,  -0.05000,
,,,-00.012040000000,  -0.04800,
,,,-00.012000000000,  -0.04800,
,,,-00.011960000000,  -0.05000,
,,,-00.011920000000,  -0.04800,
,,,-00.011880000000,  -0.04600,
,,,-00.011840000000,  -0.04600,
,,,-00.011800000000,  -0.04600,
,,,-00.011760000000,  -0.04800,
,,,-00.011720000000,  -0.04600,
,,,-00.011680000000,  -0.04800,
,,,-00.011640000000,  -0.04600,
,,,-00.011600000000,  -0.04600,
,,,-00.011560000000,  -0.04400,
,,,-00.011520000000,  -0.04400,
,,,-00.011480000000,  -0.04400,
,,,-00.011440000000,  -0.04400,
,,,-00.011400000000,  -0.04600,
,,,-00.011360000000,  -0.04400,
,,,-00.011320000000,  -0.04400,
,,,-00.011280000000,  -0.04400,
,,,-00.011240000000,  -0.04400,
,,,-00.011200000000,  -0.04400,
,,,-00.011160000000,  -0.04200,
,,,-00.011120000000,  -0.04200,
,,,-00.011080000000,  -0.04200,
