gr5a/lysenko_ivan/lab_2/CR/meandrCR/R.CSV

Record Length,2.500000e+03,,   0.012400000000,  -0.02000,;;;;
Sample Interval,4.000000e-06,,   0.012404000000,  -0.02000,;;;;
Trigger Point,-3.100000000000e+03,,   0.012408000000,  -0.02000,;;;;
,,,   0.012412000000,  -0.02200,;;;;
,,,   0.012416000000,  -0.01800,;;;;
,,,   0.012420000000,  -0.02200,;;;;
Source,CH1,,   0.012424000000,  -0.02000,;;;;
Vertical Units,V,,   0.012428000000,  -0.02000,;;;;
Vertical Scale,5.000000e-02,,   0.012432000000,  -0.02000,;;;;
Vertical Offset,0.000000e+00,,   0.012436000000,  -0.02200,;;;;
Horizontal Units,s,,   0.012440000000,  -0.02000,;;;;
Horizontal Scale,1.000000e-03,,   0.012444000000,  -0.02000,;;;;
Pt Fmt,Y,,   0.012448000000,  -0.02000,;;;;
Yzero,0.000000e+00,,   0.012452000000,  -0.02000,;;;;
Probe Atten,1.000000e+00,,   0.012456000000,  -0.02200,;;;;
Model Number,TDS2024C,,   0.012460000000,  -0.02000,;;;;
Serial Number,C013728,,   0.012464000000,  -0.02200,;;;;
Firmware Version,FV:v24.15,,   0.012468000000,  -0.02000,;;;;
;;;0.012472;-0.02
;;;0.012476;-0.022
;;;0.01248;-0.02
;;;0.012484;-0.022
;;;0.012488;-0.022
;;;0.012492;-0.02
;;;0.012496;-0.022
;;;0.0125;-0.02
;;;0.012504;-0.02
;;;0.012508;-0.02
;;;0.012512;-0.02
;;;0.012516;-0.022
;;;0.01252;-0.02
;;;0.012524;-0.02
;;;0.012528;-0.02
;;;0.012532;-0.022
;;;0.012536;-0.02
;;;0.01254;-0.02
;;;0.012544;-0.02
;;;0.012548;-0.018
;;;0.012552;-0.02
;;;0.012556;-0.018
;;;0.01256;-0.022
;;;0.012564;-0.02
;;;0.012568;-0.02
;;;0.012572;-0.02
;;;0.012576;-0.022
;;;0.01258;-0.018
;;;0.012584;-0.018
;;;0.012588;-0.02
;;;0.012592;-0.02
;;;0.012596;-0.022
;;;0.0126;-0.018
;;;0.012604;-0.02
;;;0.012608;-0.02
;;;0.012612;-0.018
;;;0.012616;-0.02
;;;0.01262;-0.018
;;;0.012624;-0.02
;;;0.012628;-0.02
;;;0.012632;-0.02
;;;0.012636;-0.02
;;;0.01264;-0.02
;;;0.012644;-0.02
;;;0.012648;-0.018
;;;0.012652;-0.018
;;;0.012656;-0.016
;;;0.01266;-0.018
;;;0.012664;-0.02
;;;0.012668;-0.018
;;;0.012672;-0.02
;;;0.012676;-0.018
;;;0.01268;-0.018
;;;0.012684;-0.02
;;;0.012688;-0.016
;;;0.012692;-0.018
;;;0.012696;-0.018
;;;0.0127;-0.02
;;;0.012704;-0.018
;;;0.012708;-0.018
;;;0.012712;-0.02
;;;0.012716;-0.018
;;;0.01272;-0.02
;;;0.012724;-0.016
;;;0.012728;-0.018
;;;0.012732;-0.018
;;;0.012736;-0.02
;;;0.01274;-0.02
;;;0.012744;-0.018
;;;0.012748;-0.018
;;;0.012752;-0.018
;;;0.012756;-0.02
;;;0.01276;-0.02
;;;0.012764;-0.018
;;;0.012768;-0.018
;;;0.012772;-0.018
;;;0.012776;-0.018
;;;0.01278;-0.018
;;;0.012784;-0.016
;;;0.012788;-0.018
;;;0.012792;-0.016
;;;0.012796;-0.02
;;;0.0128;-0.016
;;;0.012804;-0.018
;;;0.012808;-0.016
;;;0.012812;-0.018
;;;0.012816;-0.018
;;;0.01282;-0.018
;;;0.012824;-0.016
;;;0.012828;-0.02
;;;0.012832;-0.016
;;;0.012836;-0.016
;;;0.01284;-0.018
;;;0.012844;-0.018
;;;0.012848;-0.018
;;;0.012852;-0.018
;;;0.012856;-0.018
;;;0.01286;-0.018
;;;0.012864;-0.018
;;;0.012868;-0.016
;;;0.012872;-0.018
;;;0.012876;-0.018
;;;0.01288;-0.018
;;;0.012884;-0.018
;;;0.012888;-0.016
;;;0.012892;-0.014
;;;0.012896;-0.016
;;;0.0129;-0.018
;;;0.012904;-0.018
;;;0.012908;-0.018
;;;0.012912;-0.016
;;;0.012916;-0.018
;;;0.01292;-0.016
;;;0.012924;-0.016
;;;0.012928;-0.016
;;;0.012932;-0.018
;;;0.012936;-0.018
;;;0.01294;-0.018
;;;0.012944;-0.016
;;;0.012948;-0.016
;;;0.012952;-0.018
;;;0.012956;-0.016
;;;0.01296;-0.018
;;;0.012964;-0.016
;;;0.012968;-0.016
;;;0.012972;-0.016
;;;0.012976;-0.016
;;;0.01298;-0.018
;;;0.012984;-0.016
;;;0.012988;-0.016
;;;0.012992;-0.016
;;;0.012996;-0.016
;;;0.013;-0.016
;;;0.013004;-0.016
;;;0.013008;-0.016
;;;0.013012;-0.016
;;;0.013016;-0.018
;;;0.01302;-0.016
;;;0.013024;-0.016
;;;0.013028;-0.016
;;;0.013032;-0.016
;;;0.013036;-0.018
;;;0.01304;-0.016
;;;0.013044;-0.016
;;;0.013048;-0.016
;;;0.013052;-0.014
;;;0.013056;-0.016
;;;0.01306;-0.016
;;;0.013064;-0.016
;;;0.013068;-0.016
;;;0.013072;-0.016
;;;0.013076;-0.016
;;;0.01308;-0.016
;;;0.013084;-0.018
;;;0.013088;-0.016
;;;0.013092;-0.016
;;;0.013096;-0.016
;;;0.0131;-0.014
;;;0.013104;-0.016
;;;0.013108;-0.016
;;;0.013112;-0.016
;;;0.013116;-0.014
;;;0.01312;-0.018
;;;0.013124;-0.016
;;;0.013128;-0.016
;;;0.013132;-0.016
;;;0.013136;-0.016
;;;0.01314;-0.016
;;;0.013144;-0.016
;;;0.013148;-0.016
;;;0.013152;-0.016
;;;0.013156;-0.014
;;;0.01316;-0.016
;;;0.013164;-0.014
;;;0.013168;-0.016
;;;0.013172;-0.016
;;;0.013176;-0.014
;;;0.01318;-0.016
;;;0.013184;-0.016
;;;0.013188;-0.016
;;;0.013192;-0.016
;;;0.013196;-0.014
;;;0.0132;-0.014
;;;0.013204;-0.016
;;;0.013208;-0.018
;;;0.013212;-0.016
;;;0.013216;-0.014
;;;0.01322;-0.014
;;;0.013224;-0.014
;;;0.013228;-0.014
;;;0.013232;-0.014
;;;0.013236;-0.012
;;;0.01324;-0.016
;;;0.013244;-0.016
;;;0.013248;-0.014
;;;0.013252;-0.016
;;;0.013256;-0.016
;;;0.01326;-0.016
;;;0.013264;-0.014
;;;0.013268;-0.016
;;;0.013272;-0.014
;;;0.013276;-0.012
;;;0.01328;-0.014
;;;0.013284;-0.014
;;;0.013288;-0.014
;;;0.013292;-0.016
;;;0.013296;-0.016
;;;0.0133;-0.016
;;;0.013304;-0.012
;;;0.013308;-0.016
;;;0.013312;-0.016
;;;0.013316;-0.012
;;;0.01332;-0.014
;;;0.013324;-0.014
;;;0.013328;-0.014
;;;0.013332;-0.014
;;;0.013336;-0.014
;;;0.01334;-0.014
;;;0.013344;-0.014
;;;0.013348;-0.014
;;;0.013352;-0.014
;;;0.013356;-0.014
;;;0.01336;-0.016
;;;0.013364;-0.014
;;;0.013368;-0.016
;;;0.013372;-0.014
;;;0.013376;-0.014
;;;0.01338;-0.014
;;;0.013384;-0.014
;;;0.013388;-0.016
;;;0.013392;-0.014
;;;0.013396;-0.014
;;;0.0134;-0.012
;;;0.013404;-0.016
;;;0.013408;-0.014
;;;0.013412;-0.014
;;;0.013416;-0.014
;;;0.01342;-0.016
;;;0.013424;-0.014
;;;0.013428;-0.014
;;;0.013432;-0.014
;;;0.013436;-0.012
;;;0.01344;-0.014
;;;0.013444;-0.014
;;;0.013448;-0.014
;;;0.013452;-0.014
;;;0.013456;-0.012
;;;0.01346;-0.014
;;;0.013464;-0.014
;;;0.013468;-0.012
;;;0.013472;-0.012
;;;0.013476;-0.014
;;;0.01348;-0.012
;;;0.013484;-0.014
;;;0.013488;-0.014
;;;0.013492;-0.014
;;;0.013496;-0.016
;;;0.0135;-0.014
;;;0.013504;-0.014
;;;0.013508;-0.014
;;;0.013512;-0.014
;;;0.013516;-0.012
;;;0.01352;-0.012
;;;0.013524;-0.012
;;;0.013528;-0.012
;;;0.013532;-0.012
;;;0.013536;-0.014
;;;0.01354;-0.012
;;;0.013544;-0.014
;;;0.013548;-0.012
;;;0.013552;-0.012
;;;0.013556;-0.014
;;;0.01356;-0.012
;;;0.013564;-0.012
;;;0.013568;-0.012
;;;0.013572;-0.014
;;;0.013576;-0.016
;;;0.01358;-0.014
;;;0.013584;-0.014
;;;0.013588;-0.012
;;;0.013592;-0.014
;;;0.013596;-0.014
;;;0.0136;-0.012
;;;0.013604;-0.01
;;;0.013608;-0.014
;;;0.013612;-0.012
;;;0.013616;-0.012
;;;0.01362;-0.014
;;;0.013624;-0.014
;;;0.013628;-0.012
;;;0.013632;-0.012
;;;0.013636;-0.012
;;;0.01364;-0.012
;;;0.013644;-0.012
;;;0.013648;-0.012
;;;0.013652;-0.01
;;;0.013656;-0.012
;;;0.01366;-0.01
;;;0.013664;-0.012
;;;0.013668;-0.014
;;;0.013672;-0.012
;;;0.013676;-0.01
;;;0.01368;-0.014
;;;0.013684;-0.012
;;;0.013688;-0.012
;;;0.013692;-0.014
;;;0.013696;-0.01
;;;0.0137;-0.012
;;;0.013704;-0.012
;;;0.013708;-0.012
;;;0.013712;-0.01
;;;0.013716;-0.012
;;;0.01372;-0.014
;;;0.013724;-0.014
;;;0.013728;-0.014
;;;0.013732;-0.012
;;;0.013736;-0.012
;;;0.01374;-0.012
;;;0.013744;-0.012
;;;0.013748;-0.012
;;;0.013752;-0.014
;;;0.013756;-0.01
;;;0.01376;-0.012
;;;0.013764;-0.016
;;;0.013768;-0.012
;;;0.013772;-0.012
;;;0.013776;-0.01
;;;0.01378;-0.012
;;;0.013784;-0.012
;;;0.013788;-0.012
;;;0.013792;-0.01
;;;0.013796;-0.012
;;;0.0138;-0.01
;;;0.013804;-0.012
;;;0.013808;-0.012
;;;0.013812;-0.012
;;;0.013816;-0.012
;;;0.01382;-0.012
;;;0.013824;-0.01
;;;0.013828;-0.012
;;;0.013832;-0.01
;;;0.013836;-0.01
;;;0.01384;-0.012
;;;0.013844;-0.012
;;;0.013848;-0.01
;;;0.013852;-0.012
;;;0.013856;-0.012
;;;0.01386;-0.01
;;;0.013864;-0.01
;;;0.013868;-0.012
;;;0.013872;-0.012
;;;0.013876;-0.012
;;;0.01388;-0.012
;;;0.013884;-0.012
;;;0.013888;-0.012
;;;0.013892;-0.01
;;;0.013896;-0.012
;;;0.0139;-0.012
;;;0.013904;-0.012
;;;0.013908;-0.012
;;;0.013912;-0.012
;;;0.013916;-0.01
;;;0.01392;-0.012
;;;0.013924;-0.01
;;;0.013928;-0.01
;;;0.013932;-0.012
;;;0.013936;-0.012
;;;0.01394;-0.01
;;;0.013944;-0.012
;;;0.013948;-0.01
;;;0.013952;-0.01
;;;0.013956;-0.012
;;;0.01396;-0.012
;;;0.013964;-0.012
;;;0.013968;-0.01
;;;0.013972;-0.01
;;;0.013976;-0.008
;;;0.01398;-0.01
;;;0.013984;-0.01
;;;0.013988;-0.012
;;;0.013992;-0.01
;;;0.013996;-0.01
;;;0.014;-0.01
;;;0.014004;-0.012
;;;0.014008;-0.01
;;;0.014012;-0.008
;;;0.014016;-0.01
;;;0.01402;-0.01
;;;0.014024;-0.012
;;;0.014028;-0.012
;;;0.014032;-0.01
;;;0.014036;-0.012
;;;0.01404;-0.012
;;;0.014044;-0.01
;;;0.014048;-0.01
;;;0.014052;-0.01
;;;0.014056;-0.012
;;;0.01406;-0.01
;;;0.014064;-0.01
;;;0.014068;-0.01
;;;0.014072;-0.012
;;;0.014076;-0.01
;;;0.01408;-0.01
;;;0.014084;-0.01
;;;0.014088;-0.01
;;;0.014092;-0.012
;;;0.014096;-0.012
;;;0.0141;-0.01
;;;0.014104;-0.012
;;;0.014108;-0.01
;;;0.014112;-0.01
;;;0.014116;-0.012
;;;0.01412;-0.01
;;;0.014124;-0.01
;;;0.014128;-0.01
;;;0.014132;-0.012
;;;0.014136;-0.008
;;;0.01414;-0.01
;;;0.014144;-0.01
;;;0.014148;-0.01
;;;0.014152;-0.008
;;;0.014156;-0.012
;;;0.01416;-0.01
;;;0.014164;-0.01
;;;0.014168;-0.01
;;;0.014172;-0.008
;;;0.014176;-0.012
;;;0.01418;-0.01
;;;0.014184;-0.01
;;;0.014188;-0.01
;;;0.014192;-0.01
;;;0.014196;-0.012
;;;0.0142;-0.01
;;;0.014204;-0.01
;;;0.014208;-0.01
;;;0.014212;-0.01
;;;0.014216;-0.01
;;;0.01422;-0.01
;;;0.014224;-0.012
;;;0.014228;-0.01
;;;0.014232;-0.01
;;;0.014236;-0.01
;;;0.01424;-0.01
;;;0.014244;-0.01
;;;0.014248;-0.01
;;;0.014252;-0.01
;;;0.014256;-0.01
;;;0.01426;-0.01
;;;0.014264;-0.012
;;;0.014268;-0.01
;;;0.014272;-0.01
;;;0.014276;-0.01
;;;0.01428;-0.008
;;;0.014284;-0.01
;;;0.014288;-0.012
;;;0.014292;0.182
;;;0.014296;0.182
;;;0.0143;0.182
;;;0.014304;0.182
;;;0.014308;0.182
;;;0.014312;0.18
;;;0.014316;0.18
;;;0.01432;0.18
;;;0.014324;0.18
;;;0.014328;0.18
;;;0.014332;0.18
;;;0.014336;0.18
;;;0.01434;0.178
;;;0.014344;0.18
;;;0.014348;0.18
;;;0.014352;0.178
;;;0.014356;0.178
;;;0.01436;0.178
;;;0.014364;0.176
;;;0.014368;0.176
;;;0.014372;0.176
;;;0.014376;0.176
;;;0.01438;0.176
;;;0.014384;0.176
;;;0.014388;0.176
;;;0.014392;0.176
;;;0.014396;0.174
;;;0.0144;0.174
;;;0.014404;0.176
;;;0.014408;0.174
;;;0.014412;0.174
;;;0.014416;0.174
;;;0.01442;0.174
;;;0.014424;0.172
;;;0.014428;0.172
;;;0.014432;0.174
;;;0.014436;0.172
;;;0.01444;0.174
;;;0.014444;0.174
;;;0.014448;0.17
;;;0.014452;0.172
;;;0.014456;0.17
;;;0.01446;0.17
;;;0.014464;0.17
;;;0.014468;0.17
;;;0.014472;0.168
;;;0.014476;0.17
;;;0.01448;0.17
;;;0.014484;0.168
;;;0.014488;0.168
;;;0.014492;0.168
;;;0.014496;0.168
;;;0.0145;0.168
;;;0.014504;0.168
;;;0.014508;0.168
;;;0.014512;0.168
;;;0.014516;0.166
;;;0.01452;0.164
;;;0.014524;0.166
;;;0.014528;0.164
;;;0.014532;0.164
;;;0.014536;0.164
;;;0.01454;0.166
;;;0.014544;0.162
;;;0.014548;0.164
;;;0.014552;0.164
;;;0.014556;0.164
;;;0.01456;0.162
;;;0.014564;0.162
;;;0.014568;0.164
;;;0.014572;0.162
;;;0.014576;0.16
;;;0.01458;0.16
;;;0.014584;0.162
;;;0.014588;0.16
;;;0.014592;0.162
;;;0.014596;0.16
;;;0.0146;0.162
;;;0.014604;0.16
;;;0.014608;0.16
;;;0.014612;0.162
;;;0.014616;0.16
;;;0.01462;0.158
;;;0.014624;0.158
;;;0.014628;0.158
;;;0.014632;0.158
;;;0.014636;0.158
;;;0.01464;0.158
;;;0.014644;0.158
;;;0.014648;0.158
;;;0.014652;0.156
;;;0.014656;0.156
;;;0.01466;0.156
;;;0.014664;0.156
;;;0.014668;0.156
;;;0.014672;0.156
;;;0.014676;0.156
;;;0.01468;0.156
;;;0.014684;0.154
;;;0.014688;0.154
;;;0.014692;0.154
;;;0.014696;0.154
;;;0.0147;0.154
;;;0.014704;0.154
;;;0.014708;0.154
;;;0.014712;0.154
;;;0.014716;0.154
;;;0.01472;0.152
;;;0.014724;0.152
;;;0.014728;0.152
;;;0.014732;0.154
;;;0.014736;0.152
;;;0.01474;0.152
;;;0.014744;0.15
;;;0.014748;0.15
;;;0.014752;0.152
;;;0.014756;0.15
;;;0.01476;0.152
;;;0.014764;0.15
;;;0.014768;0.148
;;;0.014772;0.15
;;;0.014776;0.148
;;;0.01478;0.148
;;;0.014784;0.15
;;;0.014788;0.148
;;;0.014792;0.148
;;;0.014796;0.148
;;;0.0148;0.148
;;;0.014804;0.148
;;;0.014808;0.146
;;;0.014812;0.148
;;;0.014816;0.146
;;;0.01482;0.146
;;;0.014824;0.146
;;;0.014828;0.146
;;;0.014832;0.146
;;;0.014836;0.144
;;;0.01484;0.146
;;;0.014844;0.144
;;;0.014848;0.144
;;;0.014852;0.146
;;;0.014856;0.142
;;;0.01486;0.144
;;;0.014864;0.144
;;;0.014868;0.142
;;;0.014872;0.144
;;;0.014876;0.146
;;;0.01488;0.14
;;;0.014884;0.142
;;;0.014888;0.142
;;;0.014892;0.144
;;;0.014896;0.142
;;;0.0149;0.142
;;;0.014904;0.142
;;;0.014908;0.142
;;;0.014912;0.138
;;;0.014916;0.142
;;;0.01492;0.14
;;;0.014924;0.138
;;;0.014928;0.14
;;;0.014932;0.14
;;;0.014936;0.14
;;;0.01494;0.138
;;;0.014944;0.138
;;;0.014948;0.138
;;;0.014952;0.138
;;;0.014956;0.138
;;;0.01496;0.14
;;;0.014964;0.138
;;;0.014968;0.136
;;;0.014972;0.14
;;;0.014976;0.136
;;;0.01498;0.136
;;;0.014984;0.134
;;;0.014988;0.138
;;;0.014992;0.134
;;;0.014996;0.138
;;;0.015;0.136
;;;0.015004;0.136
;;;0.015008;0.136
;;;0.015012;0.134
;;;0.015016;0.134
;;;0.01502;0.134
;;;0.015024;0.134
;;;0.015028;0.132
;;;0.015032;0.134
;;;0.015036;0.134
;;;0.01504;0.134
;;;0.015044;0.132
;;;0.015048;0.134
;;;0.015052;0.132
;;;0.015056;0.132
;;;0.01506;0.134
;;;0.015064;0.132
;;;0.015068;0.132
;;;0.015072;0.132
;;;0.015076;0.132
;;;0.01508;0.132
;;;0.015084;0.132
;;;0.015088;0.13
;;;0.015092;0.132
;;;0.015096;0.13
;;;0.0151;0.128
;;;0.015104;0.128
;;;0.015108;0.13
;;;0.015112;0.132
;;;0.015116;0.128
;;;0.01512;0.128
;;;0.015124;0.126
;;;0.015128;0.128
;;;0.015132;0.128
;;;0.015136;0.128
;;;0.01514;0.126
;;;0.015144;0.128
;;;0.015148;0.128
;;;0.015152;0.128
;;;0.015156;0.128
;;;0.01516;0.128
;;;0.015164;0.128
;;;0.015168;0.124
;;;0.015172;0.124
;;;0.015176;0.126
;;;0.01518;0.126
;;;0.015184;0.124
;;;0.015188;0.126
;;;0.015192;0.124
;;;0.015196;0.124
;;;0.0152;0.124
;;;0.015204;0.124
;;;0.015208;0.124
;;;0.015212;0.124
;;;0.015216;0.124
;;;0.01522;0.124
;;;0.015224;0.124
;;;0.015228;0.124
;;;0.015232;0.122
;;;0.015236;0.122
;;;0.01524;0.124
;;;0.015244;0.122
;;;0.015248;0.122
;;;0.015252;0.124
;;;0.015256;0.124
;;;0.01526;0.122
;;;0.015264;0.122
;;;0.015268;0.122
;;;0.015272;0.122
;;;0.015276;0.122
;;;0.01528;0.12
;;;0.015284;0.12
;;;0.015288;0.122
;;;0.015292;0.122
;;;0.015296;0.12
;;;0.0153;0.12
;;;0.015304;0.12
;;;0.015308;0.12
;;;0.015312;0.122
;;;0.015316;0.12
;;;0.01532;0.122
;;;0.015324;0.118
;;;0.015328;0.12
;;;0.015332;0.118
;;;0.015336;0.118
;;;0.01534;0.118
;;;0.015344;0.118
;;;0.015348;0.118
;;;0.015352;0.12
;;;0.015356;0.118
;;;0.01536;0.118
;;;0.015364;0.116
;;;0.015368;0.118
;;;0.015372;0.118
;;;0.015376;0.116
;;;0.01538;0.116
;;;0.015384;0.116
;;;0.015388;0.116
;;;0.015392;0.118
;;;0.015396;0.114
;;;0.0154;0.116
;;;0.015404;0.114
;;;0.015408;0.116
;;;0.015412;0.114
;;;0.015416;0.114
;;;0.01542;0.116
;;;0.015424;0.116
;;;0.015428;0.116
;;;0.015432;0.116
;;;0.015436;0.114
;;;0.01544;0.114
;;;0.015444;0.112
;;;0.015448;0.112
;;;0.015452;0.112
;;;0.015456;0.112
;;;0.01546;0.112
;;;0.015464;0.112
;;;0.015468;0.114
;;;0.015472;0.112
;;;0.015476;0.112
;;;0.01548;0.112
;;;0.015484;0.11
;;;0.015488;0.114
;;;0.015492;0.112
;;;0.015496;0.11
;;;0.0155;0.11
;;;0.015504;0.11
;;;0.015508;0.112
;;;0.015512;0.11
;;;0.015516;0.11
;;;0.01552;0.11
;;;0.015524;0.108
;;;0.015528;0.11
;;;0.015532;0.11
;;;0.015536;0.106
;;;0.01554;0.11
;;;0.015544;0.11
;;;0.015548;0.11
;;;0.015552;0.108
;;;0.015556;0.108
;;;0.01556;0.108
;;;0.015564;0.11
;;;0.015568;0.108
;;;0.015572;0.108
;;;0.015576;0.108
;;;0.01558;0.108
;;;0.015584;0.106
;;;0.015588;0.108
;;;0.015592;0.108
;;;0.015596;0.106
;;;0.0156;0.106
;;;0.015604;0.106
;;;0.015608;0.106
;;;0.015612;0.104
;;;0.015616;0.108
;;;0.01562;0.106
;;;0.015624;0.106
;;;0.015628;0.106
;;;0.015632;0.106
;;;0.015636;0.102
;;;0.01564;0.104
;;;0.015644;0.104
;;;0.015648;0.106
;;;0.015652;0.106
;;;0.015656;0.106
;;;0.01566;0.102
;;;0.015664;0.102
;;;0.015668;0.102
;;;0.015672;0.102
;;;0.015676;0.104
;;;0.01568;0.102
;;;0.015684;0.104
;;;0.015688;0.102
;;;0.015692;0.102
;;;0.015696;0.102
;;;0.0157;0.102
;;;0.015704;0.102
;;;0.015708;0.104
;;;0.015712;0.102
;;;0.015716;0.098
;;;0.01572;0.102
;;;0.015724;0.102
;;;0.015728;0.102
;;;0.015732;0.098
;;;0.015736;0.1
;;;0.01574;0.102
;;;0.015744;0.102
;;;0.015748;0.102
;;;0.015752;0.1
;;;0.015756;0.1
;;;0.01576;0.102
;;;0.015764;0.1
;;;0.015768;0.1
;;;0.015772;0.1
;;;0.015776;0.098
;;;0.01578;0.1
;;;0.015784;0.1
;;;0.015788;0.1
;;;0.015792;0.098
;;;0.015796;0.098
;;;0.0158;0.096
;;;0.015804;0.098
;;;0.015808;0.098
;;;0.015812;0.098
;;;0.015816;0.096
;;;0.01582;0.096
;;;0.015824;0.096
;;;0.015828;0.096
;;;0.015832;0.096
;;;0.015836;0.094
;;;0.01584;0.096
;;;0.015844;0.096
;;;0.015848;0.096
;;;0.015852;0.096
;;;0.015856;0.096
;;;0.01586;0.092
;;;0.015864;0.094
;;;0.015868;0.096
;;;0.015872;0.094
;;;0.015876;0.096
;;;0.01588;0.096
;;;0.015884;0.092
;;;0.015888;0.094
;;;0.015892;0.092
;;;0.015896;0.094
;;;0.0159;0.094
;;;0.015904;0.092
;;;0.015908;0.092
;;;0.015912;0.094
;;;0.015916;0.094
;;;0.01592;0.094
;;;0.015924;0.092
;;;0.015928;0.092
;;;0.015932;0.092
;;;0.015936;0.092
;;;0.01594;0.092
;;;0.015944;0.092
;;;0.015948;0.094
;;;0.015952;0.092
;;;0.015956;0.092
;;;0.01596;0.092
;;;0.015964;0.092
;;;0.015968;0.092
;;;0.015972;0.092
;;;0.015976;0.092
;;;0.01598;0.092
;;;0.015984;0.092
;;;0.015988;0.09
;;;0.015992;0.09
;;;0.015996;0.092
;;;0.016;0.092
;;;0.016004;0.088
;;;0.016008;0.088
;;;0.016012;0.09
;;;0.016016;0.09
;;;0.01602;0.092
;;;0.016024;0.09
;;;0.016028;0.09
;;;0.016032;0.088
;;;0.016036;0.088
;;;0.01604;0.088
;;;0.016044;0.088
;;;0.016048;0.088
;;;0.016052;0.086
;;;0.016056;0.088
;;;0.01606;0.086
;;;0.016064;0.088
;;;0.016068;0.086
;;;0.016072;0.086
;;;0.016076;0.086
;;;0.01608;0.086
;;;0.016084;0.086
;;;0.016088;0.088
;;;0.016092;0.086
;;;0.016096;0.086
;;;0.0161;0.086
;;;0.016104;0.086
;;;0.016108;0.086
;;;0.016112;0.084
;;;0.016116;0.086
;;;0.01612;0.086
;;;0.016124;0.086
;;;0.016128;0.088
;;;0.016132;0.086
;;;0.016136;0.086
;;;0.01614;0.084
;;;0.016144;0.084
;;;0.016148;0.084
;;;0.016152;0.086
;;;0.016156;0.084
;;;0.01616;0.082
;;;0.016164;0.084
;;;0.016168;0.082
;;;0.016172;0.084
;;;0.016176;0.084
;;;0.01618;0.084
;;;0.016184;0.082
;;;0.016188;0.082
;;;0.016192;0.084
;;;0.016196;0.082
;;;0.0162;0.082
;;;0.016204;0.082
;;;0.016208;0.082
;;;0.016212;0.082
;;;0.016216;0.082
;;;0.01622;0.082
;;;0.016224;0.082
;;;0.016228;0.08
;;;0.016232;0.08
;;;0.016236;0.082
;;;0.01624;0.082
;;;0.016244;0.082
;;;0.016248;0.082
;;;0.016252;0.084
;;;0.016256;0.082
;;;0.01626;0.082
;;;0.016264;0.082
;;;0.016268;0.082
;;;0.016272;0.078
;;;0.016276;0.08
;;;0.01628;0.082
;;;0.016284;0.08
;;;0.016288;0.08
;;;0.016292;0.078
;;;0.016296;0.08
;;;0.0163;0.082
;;;0.016304;0.078
;;;0.016308;0.08
;;;0.016312;0.078
;;;0.016316;0.078
;;;0.01632;0.078
;;;0.016324;0.08
;;;0.016328;0.08
;;;0.016332;0.078
;;;0.016336;0.078
;;;0.01634;0.078
;;;0.016344;0.08
;;;0.016348;0.076
;;;0.016352;0.08
;;;0.016356;0.078
;;;0.01636;0.08
;;;0.016364;0.078
;;;0.016368;0.078
;;;0.016372;0.078
;;;0.016376;0.076
;;;0.01638;0.076
;;;0.016384;0.076
;;;0.016388;0.076
;;;0.016392;0.076
;;;0.016396;0.074
;;;0.0164;0.078
;;;0.016404;0.076
;;;0.016408;0.076
;;;0.016412;0.074
;;;0.016416;0.076
;;;0.01642;0.076
;;;0.016424;0.076
;;;0.016428;0.074
;;;0.016432;0.074
;;;0.016436;0.076
;;;0.01644;0.076
;;;0.016444;0.074
;;;0.016448;0.074
;;;0.016452;0.074
;;;0.016456;0.072
;;;0.01646;0.074
;;;0.016464;0.074
;;;0.016468;0.074
;;;0.016472;0.074
;;;0.016476;0.076
;;;0.01648;0.074
;;;0.016484;0.074
;;;0.016488;0.074
;;;0.016492;0.074
;;;0.016496;0.072
;;;0.0165;0.072
;;;0.016504;0.074
;;;0.016508;0.074
;;;0.016512;0.072
;;;0.016516;0.074
;;;0.01652;0.072
;;;0.016524;0.074
;;;0.016528;0.074
;;;0.016532;0.074
;;;0.016536;0.072
;;;0.01654;0.074
;;;0.016544;0.072
;;;0.016548;0.072
;;;0.016552;0.072
;;;0.016556;0.072
;;;0.01656;0.072
;;;0.016564;0.072
;;;0.016568;0.07
;;;0.016572;0.072
;;;0.016576;0.072
;;;0.01658;0.07
;;;0.016584;0.074
;;;0.016588;0.072
;;;0.016592;0.07
;;;0.016596;0.07
;;;0.0166;0.07
;;;0.016604;0.068
;;;0.016608;0.07
;;;0.016612;0.068
;;;0.016616;0.07
;;;0.01662;0.068
;;;0.016624;0.068
;;;0.016628;0.072
;;;0.016632;0.07
;;;0.016636;0.068
;;;0.01664;0.07
;;;0.016644;0.07
;;;0.016648;0.07
;;;0.016652;0.068
;;;0.016656;0.068
;;;0.01666;0.07
;;;0.016664;0.068
;;;0.016668;0.07
;;;0.016672;0.068
;;;0.016676;0.068
;;;0.01668;0.066
;;;0.016684;0.068
;;;0.016688;0.068
;;;0.016692;0.068
;;;0.016696;0.066
;;;0.0167;0.066
